lab3/test/123/lab3/log/waveform_1.vcd
$date
	Sat Dec 23 06:27:25 2023
$end
$version
	Icarus Verilog
$end
$timescale
	1s
$end
$scope module TestBench $end
$var reg 1 ! Clk $end
$var reg 1 " Reset $end
$var integer 32 # counter [31:0] $end
$var integer 32 $ i [31:0] $end
$var integer 32 % outfile [31:0] $end
$scope module CPU $end
$var wire 1 ! clk_i $end
$var wire 1 " rst_i $end
$var wire 1 & zero $end
$var wire 1 ' taken $end
$var wire 1 ( take_branch $end
$var wire 2 ) state_reg [1:0] $end
$var wire 1 * right $end
$var wire 32 + pc_o [31:0] $end
$var wire 32 , pc_i [31:0] $end
$var wire 3 - operation [2:0] $end
$var wire 32 . muxPCResult2 [31:0] $end
$var wire 32 / muxPCResult [31:0] $end
$var wire 32 0 instr [31:0] $end
$var wire 32 1 immediate [31:0] $end
$var wire 32 2 branchAddr [31:0] $end
$var wire 1 3 Stall $end
$var wire 1 4 RegWrite $end
$var wire 32 5 RS2data [31:0] $end
$var wire 32 6 RS1data [31:0] $end
$var wire 32 7 RDdata [31:0] $end
$var wire 1 8 PCWrite $end
$var wire 1 9 NoOp $end
$var wire 1 : MemtoReg $end
$var wire 1 ; MemWrite $end
$var wire 1 < MemRead $end
$var wire 32 = MemData [31:0] $end
$var wire 32 > MUXResult [31:0] $end
$var wire 1 ? MEM_WB_RegWrite $end
$var wire 5 @ MEM_WB_RDaddr [4:0] $end
$var wire 1 A MEM_WB_MemtoReg $end
$var wire 32 B MEM_WB_MemData [31:0] $end
$var wire 32 C MEM_WB_ALUResult [31:0] $end
$var wire 32 D IF_ID_instr [31:0] $end
$var wire 32 E IF_ID_PC [31:0] $end
$var wire 1 F ID_FlushIF $end
$var wire 32 G ID_EX_immediate [31:0] $end
$var wire 7 H ID_EX_func7 [6:0] $end
$var wire 3 I ID_EX_func3 [2:0] $end
$var wire 32 J ID_EX_branchAddr [31:0] $end
$var wire 1 K ID_EX_RegWrite $end
$var wire 32 L ID_EX_RS2data [31:0] $end
$var wire 5 M ID_EX_RS2addr [4:0] $end
$var wire 32 N ID_EX_RS1data [31:0] $end
$var wire 5 O ID_EX_RS1addr [4:0] $end
$var wire 5 P ID_EX_RDaddr [4:0] $end
$var wire 32 Q ID_EX_PCAddr [31:0] $end
$var wire 1 R ID_EX_MemtoReg $end
$var wire 1 S ID_EX_MemWrite $end
$var wire 1 T ID_EX_MemRead $end
$var wire 1 U ID_EX_Branch $end
$var wire 1 V ID_EX_ALUSrc $end
$var wire 2 W ID_EX_ALUOp [1:0] $end
$var wire 32 X ForwardBData [31:0] $end
$var wire 2 Y ForwardB [1:0] $end
$var wire 32 Z ForwardAData [31:0] $end
$var wire 2 [ ForwardA [1:0] $end
$var wire 32 \ EX_PCAddr [31:0] $end
$var wire 1 ] EX_MEM_RegWrite $end
$var wire 32 ^ EX_MEM_RS2data [31:0] $end
$var wire 5 _ EX_MEM_RDaddr [4:0] $end
$var wire 1 ` EX_MEM_MemtoReg $end
$var wire 1 a EX_MEM_MemWrite $end
$var wire 1 b EX_MEM_MemRead $end
$var wire 32 c EX_MEM_ALUResult [31:0] $end
$var wire 1 d EX_FlushID_IF $end
$var wire 1 e Branch $end
$var wire 32 f AddrResult [31:0] $end
$var wire 1 g ALUSrc $end
$var wire 32 h ALUResult [31:0] $end
$var wire 2 i ALUOp [1:0] $end
$scope module ALU $end
$var wire 32 j data_o [31:0] $end
$var wire 32 k src2_i [31:0] $end
$var wire 32 l src1_i [31:0] $end
$var wire 3 m op_i [2:0] $end
$var reg 32 n tmpResult [31:0] $end
$var reg 1 & zero_o $end
$upscope $end
$scope module ALU_Control $end
$var wire 7 o funct7_i [31:25] $end
$var wire 3 p funct3_i [14:12] $end
$var wire 2 q ALUOp_i [1:0] $end
$var reg 3 r op_o [2:0] $end
$upscope $end
$scope module Add $end
$var wire 32 s src2_i [31:0] $end
$var wire 32 t src1_i [31:0] $end
$var wire 32 u adder_o [31:0] $end
$upscope $end
$scope module Add2 $end
$var wire 32 v src1_i [31:0] $end
$var wire 32 w src2_i [31:0] $end
$var wire 32 x adder_o [31:0] $end
$upscope $end
$scope module Add3 $end
$var wire 32 y src2_i [31:0] $end
$var wire 32 z src1_i [31:0] $end
$var wire 32 { adder_o [31:0] $end
$upscope $end
$scope module Branch_Detection $end
$var wire 1 ( predict_i $end
$var wire 1 e Branch_i $end
$var reg 1 F flush_o $end
$upscope $end
$scope module Control $end
$var wire 7 | opcode_i [6:0] $end
$var wire 1 9 NoOp_i $end
$var reg 2 } ALUOp_o [1:0] $end
$var reg 1 g ALUSrc_o $end
$var reg 1 e Branch_o $end
$var reg 1 < MemRead_o $end
$var reg 1 ; MemWrite_o $end
$var reg 1 : MemtoReg_o $end
$var reg 1 4 RegWrite_o $end
$upscope $end
$scope module Data_Memory $end
$var wire 1 ! clk_i $end
$var wire 32 ~ data_o [31:0] $end
$var wire 32 !" data_i [31:0] $end
$var wire 32 "" addr_i [31:0] $end
$var wire 1 a MemWrite_i $end
$var wire 1 b MemRead_i $end
$upscope $end
$scope module EX_MEM_Register $end
$var wire 32 #" ALUResult_i [31:0] $end
$var wire 1 ! clk_i $end
$var wire 1 " rst_i $end
$var wire 1 K RegWrite_i $end
$var wire 5 $" RDaddr_i [4:0] $end
$var wire 1 R MemtoReg_i $end
$var wire 1 S MemWrite_i $end
$var wire 1 T MemRead_i $end
$var wire 32 %" ForwardBData_i [31:0] $end
$var reg 32 &" ALUResult_o [31:0] $end
$var reg 32 '" ForwardBData_o [31:0] $end
$var reg 1 b MemRead_o $end
$var reg 1 a MemWrite_o $end
$var reg 1 ` MemtoReg_o $end
$var reg 5 (" RDaddr_o [4:0] $end
$var reg 1 ] RegWrite_o $end
$upscope $end
$scope module Forwarding $end
$var wire 5 )" EX_MEM_RDaddr_i [4:0] $end
$var wire 1 ] EX_MEM_RegWrite_i $end
$var wire 1 ? MEM_WB_RegWrite_i $end
$var wire 5 *" MEM_WB_RDaddr_i [4:0] $end
$var wire 5 +" ID_EX_RS2addr_i [4:0] $end
$var wire 5 ," ID_EX_RS1addr_i [4:0] $end
$var reg 2 -" ForwardA_o [1:0] $end
$var reg 2 ." ForwardB_o [1:0] $end
$upscope $end
$scope module Hazard_Detection $end
$var wire 5 /" RS1addr_i [4:0] $end
$var wire 5 0" RS2addr_i [4:0] $end
$var wire 1 " rst_i $end
$var wire 5 1" ID_EX_RDaddr_i [4:0] $end
$var wire 1 T ID_EX_MemRead_i $end
$var reg 1 9 NoOp_o $end
$var reg 1 8 PCWrite_o $end
$var reg 1 3 Stall_o $end
$upscope $end
$scope module ID_EX $end
$var wire 2 2" ALUOp_i [1:0] $end
$var wire 1 g ALUSrc_i $end
$var wire 32 3" BranchAddr_i [31:0] $end
$var wire 1 e Branch_i $end
$var wire 1 < MemRead_i $end
$var wire 1 ; MemWrite_i $end
$var wire 1 : MemtoReg_i $end
$var wire 5 4" RDaddr_i [4:0] $end
$var wire 5 5" RS1addr_i [4:0] $end
$var wire 5 6" RS2addr_i [4:0] $end
$var wire 1 4 RegWrite_i $end
$var wire 1 ! clk_i $end
$var wire 3 7" func3_i [2:0] $end
$var wire 7 8" func7_i [6:0] $end
$var wire 1 " rst_i $end
$var wire 1 F taken_i $end
$var wire 32 9" immediate_i [31:0] $end
$var wire 1 d flush_i $end
$var wire 32 :" RS2data_i [31:0] $end
$var wire 32 ;" RS1data_i [31:0] $end
$var wire 32 <" PCAddr_i [31:0] $end
$var reg 2 =" ALUOp_o [1:0] $end
$var reg 1 V ALUSrc_o $end
$var reg 32 >" BranchAddr_o [31:0] $end
$var reg 1 U Branch_o $end
$var reg 1 T MemRead_o $end
$var reg 1 S MemWrite_o $end
$var reg 1 R MemtoReg_o $end
$var reg 32 ?" PCAddr_o [31:0] $end
$var reg 5 @" RDaddr_o [4:0] $end
$var reg 5 A" RS1addr_o [4:0] $end
$var reg 32 B" RS1data_o [31:0] $end
$var reg 5 C" RS2addr_o [4:0] $end
$var reg 32 D" RS2data_o [31:0] $end
$var reg 1 K RegWrite_o $end
$var reg 3 E" func3_o [2:0] $end
$var reg 7 F" func7_o [6:0] $end
$var reg 32 G" immediate_o [31:0] $end
$var reg 1 ' taken_o $end
$upscope $end
$scope module IF_ID $end
$var wire 1 3 Stall_i $end
$var wire 1 ! clk_i $end
$var wire 1 H" flush_i $end
$var wire 1 " rst_i $end
$var wire 32 I" instr_i [31:0] $end
$var wire 32 J" PC_i [31:0] $end
$var reg 32 K" PC_o [31:0] $end
$var reg 32 L" instr_o [31:0] $end
$upscope $end
$scope module Imm_Gen $end
$var wire 32 M" instr_i [31:0] $end
$var reg 32 N" imm_o [31:0] $end
$upscope $end
$scope module Instruction_Memory $end
$var wire 32 O" instr_o [31:0] $end
$var wire 32 P" addr_i [31:0] $end
$upscope $end
$scope module MEM_WB_Register $end
$var wire 32 Q" ALUResult_i [31:0] $end
$var wire 32 R" MemData_i [31:0] $end
$var wire 1 ` MemtoReg_i $end
$var wire 5 S" RDaddr_i [4:0] $end
$var wire 1 ] RegWrite_i $end
$var wire 1 ! clk_i $end
$var wire 1 " rst_i $end
$var reg 32 T" ALUResult_o [31:0] $end
$var reg 32 U" MemData_o [31:0] $end
$var reg 1 A MemtoReg_o $end
$var reg 5 V" RDaddr_o [4:0] $end
$var reg 1 ? RegWrite_o $end
$upscope $end
$scope module MUX $end
$var wire 1 V sel $end
$var wire 32 W" src2_i [31:0] $end
$var wire 32 X" src1_i [31:0] $end
$var reg 32 Y" mux_o [31:0] $end
$upscope $end
$scope module MUX2 $end
$var wire 1 A sel $end
$var wire 32 Z" src1_i [31:0] $end
$var wire 32 [" src2_i [31:0] $end
$var reg 32 \" mux_o [31:0] $end
$upscope $end
$scope module MUX32_ForwardA $end
$var wire 2 ]" sel [1:0] $end
$var wire 32 ^" src1_i [31:0] $end
$var wire 32 _" src2_i [31:0] $end
$var wire 32 `" src3_i [31:0] $end
$var reg 32 a" mux_o [31:0] $end
$upscope $end
$scope module MUX32_ForwardB $end
$var wire 2 b" sel [1:0] $end
$var wire 32 c" src1_i [31:0] $end
$var wire 32 d" src2_i [31:0] $end
$var wire 32 e" src3_i [31:0] $end
$var reg 32 f" mux_o [31:0] $end
$upscope $end
$scope module MUX32_PC $end
$var wire 1 F sel $end
$var wire 32 g" src1_i [31:0] $end
$var wire 32 h" src2_i [31:0] $end
$var reg 32 i" mux_o [31:0] $end
$upscope $end
$scope module MUX32_PC2 $end
$var wire 32 j" src2_i [31:0] $end
$var wire 32 k" src1_i [31:0] $end
$var wire 1 * sel $end
$var reg 32 l" mux_o [31:0] $end
$upscope $end
$scope module PC $end
$var wire 1 8 PCWrite_i $end
$var wire 1 ! clk_i $end
$var wire 32 m" pc_i [31:0] $end
$var wire 1 " rst_i $end
$var reg 32 n" pc_o [31:0] $end
$upscope $end
$scope module Registers $end
$var wire 5 o" RDaddr_i [4:0] $end
$var wire 32 p" RDdata_i [31:0] $end
$var wire 5 q" RS1addr_i [4:0] $end
$var wire 5 r" RS2addr_i [4:0] $end
$var wire 1 ? RegWrite_i $end
$var wire 1 ! clk_i $end
$var wire 1 " rst_i $end
$var wire 32 s" RS2data_o [31:0] $end
$var wire 32 t" RS1data_o [31:0] $end
$var integer 32 u" i [31:0] $end
$upscope $end
$scope module branch_predictor $end
$var wire 32 v" BranchAddr_i [31:0] $end
$var wire 1 U Branch_i $end
$var wire 32 w" PCAddr_i [31:0] $end
$var wire 1 ! clk_i $end
$var wire 1 " rst_i $end
$var wire 1 ' taken_i $end
$var wire 1 & zero_i $end
$var wire 2 x" state_reg_i [1:0] $end
$var reg 32 y" AddrResult_o [31:0] $end
$var reg 1 d flush_o $end
$var reg 2 z" next_state [1:0] $end
$var reg 1 ( predict_o $end
$var reg 1 * right_o $end
$var reg 2 {" state_reg_o [1:0] $end
$upscope $end
$upscope $end
$upscope $end
$enddefinitions $end
#0
$dumpvars
bx {"
bx z"
bx y"
bx x"
bx w"
bx v"
bx u"
bx t"
bx s"
bx r"
bx q"
bx p"
bx o"
bx n"
bx m"
bx l"
bx k"
bx j"
bx i"
bx h"
bx g"
bx f"
bx e"
bx d"
bx c"
bx b"
bx a"
bx `"
bx _"
bx ^"
bx ]"
bx \"
bx ["
bx Z"
bx Y"
bx X"
bx W"
bx V"
bx U"
bx T"
bx S"
bx R"
bx Q"
bx P"
bx O"
bx N"
bx M"
bx L"
bx K"
bx J"
bx I"
0H"
bx G"
bx F"
bx E"
bx D"
bx C"
bx B"
bx A"
bx @"
bx ?"
bx >"
bx ="
bx <"
bx ;"
bx :"
bx 9"
bx 8"
bx 7"
bx 6"
bx 5"
bx 4"
bx 3"
b0 2"
bx 1"
bx 0"
bx /"
bx ."
bx -"
bx ,"
bx +"
bx *"
bx )"
bx ("
bx '"
bx &"
bx %"
bx $"
bx #"
bx ""
bx !"
bx ~
b0 }
bx |
bx {
bx z
b100 y
bx x
bx w
bx0 v
bx u
bx t
b100 s
bx r
bx q
bx p
bx o
bx n
bx m
bx l
bx k
bx j
b0 i
bx h
0g
bx f
0e
0d
bx c
xb
xa
x`
bx _
bx ^
x]
bx \
bx [
bx Z
bx Y
bx X
bx W
xV
xU
xT
xS
xR
bx Q
bx P
bx O
bx N
bx M
bx L
xK
bx J
bx I
bx H
bx G
0F
bx E
bx D
bx C
bx B
xA
bx @
x?
bx >
bx =
0<
0;
0:
09
18
bx 7
bx 6
bx 5
04
03
bx 2
bx 1
bx 0
bx /
bx .
bx -
bx ,
bx +
1*
bx )
x(
x'
x&
b11 %
b100000 $
b0 #
1"
0!
$end
#6
b0 2
b0 x
b0 3"
b0 h"
b0 v
1&
b0 h
b0 j
b0 #"
b0 n
b0 6
b0 ;"
b0 t"
b0 5
b0 :"
b0 s"
b100 .
b100 l"
b100 m"
b0 1
b0 9"
b0 N"
b0 r"
b0 q"
b0 |
b0 0"
b0 /"
b0 4"
b0 6"
b0 5"
b0 7"
b0 8"
b0 >
b0 k
b0 Y"
b11 -
b11 m
b11 r
b0 Z
b0 l
b0 a"
b0 X
b0 %"
b0 X"
b0 f"
b0 =
b0 ~
b0 R"
b0 7
b0 \"
b0 _"
b0 d"
b0 p"
b0 Y
b0 ."
b0 b"
b0 [
b0 -"
b0 ]"
b110000010011 0
b110000010011 I"
b110000010011 O"
b100 /
b100 i"
b100 j"
1(
b0 E
b0 w
b0 <"
b0 K"
b0 D
b0 L"
b0 M"
b100 \
b100 {
b100 w"
b0 Q
b0 z
b0 ?"
b0 J
b0 >"
b0 v"
0U
0'
b0 P
b0 $"
b0 1"
b0 @"
b0 M
b0 +"
b0 C"
b0 O
b0 ,"
b0 A"
b0 I
b0 p
b0 E"
b0 H
b0 o
b0 F"
b0 G
b0 G"
b0 W"
b0 L
b0 D"
b0 c"
b0 N
b0 B"
b0 ^"
0V
b0 W
b0 q
b0 ="
0S
0T
0R
0K
b0 _
b0 ("
b0 )"
b0 S"
b0 ^
b0 !"
b0 '"
b0 c
b0 ""
b0 &"
b0 Q"
b0 `"
b0 e"
0a
0b
0`
0]
b0 @
b0 *"
b0 V"
b0 o"
b0 B
b0 U"
b0 ["
b0 C
b0 T"
b0 Z"
0A
0?
b100 ,
b100 u
b100 g"
b0 +
b0 t
b0 J"
b0 P"
b0 n"
b11 )
b11 x"
b11 {"
b100000 u"
b11 z"
0"
#12
b0 f
b0 k"
b0 y"
1"
#25
b1000 .
b1000 l"
b1000 m"
14
1g
b10000000000110100010011 0
b10000000000110100010011 I"
b10000000000110100010011 O"
b1000 /
b1000 i"
b1000 j"
b10011 |
b11000 4"
b1000 ,
b1000 u
b1000 g"
b100 +
b100 t
b100 J"
b100 P"
b100 n"
b110000010011 D
b110000010011 L"
b110000010011 M"
b1 #
1!
#50
0!
#75
b1000 v
b1100 .
b1100 l"
b1100 m"
b100 1
b100 9"
b100 N"
b100 r"
b100 0"
b11010 4"
b100 6"
b10000000000111000010011 0
b10000000000111000010011 I"
b10000000000111000010011 O"
b1100 /
b1100 i"
b1100 j"
b1100 2
b1100 x
b1100 3"
b1100 h"
b100 E
b100 w
b100 <"
b100 K"
b10000000000110100010011 D
b10000000000110100010011 L"
b10000000000110100010011 M"
b11000 P
b11000 $"
b11000 1"
b11000 @"
1V
1K
b1100 ,
b1100 u
b1100 g"
b1000 +
b1000 t
b1000 J"
b1000 P"
b1000 n"
b10 #
1!
#100
0!
#125
0&
b100 h
b100 j
b100 #"
b100 n
b10000 .
b10000 l"
b10000 m"
b11111111111100000000011110010011 0
b11111111111100000000011110010011 I"
b11111111111100000000011110010011 O"
b1100 f
b1100 k"
b1100 y"
b100 >
b100 k
b100 Y"
b10000 /
b10000 i"
b10000 j"
b11100 4"
b10000 ,
b10000 u
b10000 g"
b1100 +
b1100 t
b1100 J"
b1100 P"
b1100 n"
b11000 _
b11000 ("
b11000 )"
b11000 S"
1]
b1000 \
b1000 {
b1000 w"
b100 Q
b100 z
b100 ?"
b1100 J
b1100 >"
b1100 v"
b11010 P
b11010 $"
b11010 1"
b11010 @"
b100 M
b100 +"
b100 C"
b100 G
b100 G"
b100 W"
b10000 2
b10000 x
b10000 3"
b10000 h"
b1000 E
b1000 w
b1000 <"
b1000 K"
b10000000000111000010011 D
b10000000000111000010011 L"
b10000000000111000010011 M"
b11 #
1!
#150
0!
#175
b11111111111111111111111111111110 v
b111110 5
b111110 :"
b111110 s"
b10100 .
b10100 l"
b10100 m"
b11111111111111111111111111111111 1
b11111111111111111111111111111111 9"
b11111111111111111111111111111111 N"
b11111 r"
b11111 0"
b1111 4"
b11111 6"
b1111111 8"
b10000 f
b10000 k"
b10000 y"
b11110011010000110010110011 0
b11110011010000110010110011 I"
b11110011010000110010110011 O"
b10100 /
b10100 i"
b10100 j"
b1010 2
b1010 x
b1010 3"
b1010 h"
b1100 E
b1100 w
b1100 <"
b1100 K"
b11111111111100000000011110010011 D
b11111111111100000000011110010011 L"
b11111111111100000000011110010011 M"
b1100 \
b1100 {
b1100 w"
b1000 Q
b1000 z
b1000 ?"
b10000 J
b10000 >"
b10000 v"
b11100 P
b11100 $"
b11100 1"
b11100 @"
b11010 _
b11010 ("
b11010 )"
b11010 S"
b100 c
b100 ""
b100 &"
b100 Q"
b100 `"
b100 e"
b11000 @
b11000 *"
b11000 V"
b11000 o"
1?
b10100 ,
b10100 u
b10100 g"
b10000 +
b10000 t
b10000 J"
b10000 P"
b10000 n"
b100 #
1!
#200
0!
#225
b11111111111111111111111111111111 h
b11111111111111111111111111111111 j
b11111111111111111111111111111111 #"
b11111111111111111111111111111111 n
b11000 .
b11000 l"
b11000 m"
b1111000 v
b111000 5
b111000 :"
b111000 s"
b100 6
b100 ;"
b100 t"
0g
b1 i
b1 }
b1 2"
b11111111111111010000110100010011 0
b11111111111111010000110100010011 I"
b11111111111111010000110100010011 O"
b100 7
b100 \"
b100 _"
b100 d"
b100 p"
b1010 f
b1010 k"
b1010 y"
b11111111111111111111111111111111 >
b11111111111111111111111111111111 k
b11111111111111111111111111111111 Y"
b111110 X
b111110 %"
b111110 X"
b111110 f"
b11000 /
b11000 i"
b11000 j"
b111100 1
b111100 9"
b111100 N"
b11100 r"
b11010 q"
b110011 |
b11100 0"
b11010 /"
b11001 4"
b11100 6"
b11010 5"
b1 8"
b11000 ,
b11000 u
b11000 g"
b10100 +
b10100 t
b10100 J"
b10100 P"
b10100 n"
b11010 @
b11010 *"
b11010 V"
b11010 o"
b100 C
b100 T"
b100 Z"
b11100 _
b11100 ("
b11100 )"
b11100 S"
b10000 \
b10000 {
b10000 w"
b1100 Q
b1100 z
b1100 ?"
b1010 J
b1010 >"
b1010 v"
b1111 P
b1111 $"
b1111 1"
b1111 @"
b11111 M
b11111 +"
b11111 C"
b1111111 H
b1111111 o
b1111111 F"
b11111111111111111111111111111111 G
b11111111111111111111111111111111 G"
b11111111111111111111111111111111 W"
b111110 L
b111110 D"
b111110 c"
b10001000 2
b10001000 x
b10001000 3"
b10001000 h"
b10000 E
b10000 w
b10000 <"
b10000 K"
b11110011010000110010110011 D
b11110011010000110010110011 L"
b11110011010000110010110011 M"
b101 #
1!
#250
0!
#275
b11111111111111111111111111111110 v
1g
b0 i
b0 }
b0 2"
b10000 h
b10000 j
b10000 #"
b10000 n
b111110 5
b111110 :"
b111110 s"
b11100 .
b11100 l"
b11100 m"
b11111111111111111111111111111111 1
b11111111111111111111111111111111 9"
b11111111111111111111111111111111 N"
b11111 r"
b10011 |
b11111 0"
b11010 4"
b11111 6"
b1111111 8"
b10001000 f
b10001000 k"
b10001000 y"
b100 >
b100 k
b100 Y"
b101 -
b101 m
b101 r
b100 Z
b100 l
b100 a"
b100 X
b100 %"
b100 X"
b100 f"
b1 Y
b1 ."
b1 b"
b11001010110110000011 0
b11001010110110000011 I"
b11001010110110000011 O"
b11100 /
b11100 i"
b11100 j"
b10010 2
b10010 x
b10010 3"
b10010 h"
b10100 E
b10100 w
b10100 <"
b10100 K"
b11111111111111010000110100010011 D
b11111111111111010000110100010011 L"
b11111111111111010000110100010011 M"
b10100 \
b10100 {
b10100 w"
b10000 Q
b10000 z
b10000 ?"
b10001000 J
b10001000 >"
b10001000 v"
b11001 P
b11001 $"
b11001 1"
b11001 @"
b11100 M
b11100 +"
b11100 C"
b11010 O
b11010 ,"
b11010 A"
b1 H
b1 o
b1 F"
b111100 G
b111100 G"
b111100 W"
b111000 L
b111000 D"
b111000 c"
b100 N
b100 B"
b100 ^"
0V
b1 W
b1 q
b1 ="
b1111 _
b1111 ("
b1111 )"
b1111 S"
b111110 ^
b111110 !"
b111110 '"
b11111111111111111111111111111111 c
b11111111111111111111111111111111 ""
b11111111111111111111111111111111 &"
b11111111111111111111111111111111 Q"
b11111111111111111111111111111111 `"
b11111111111111111111111111111111 e"
b11100 @
b11100 *"
b11100 V"
b11100 o"
b11100 ,
b11100 u
b11100 g"
b11000 +
b11000 t
b11000 J"
b11000 P"
b11000 n"
b110 #
1!
#300
0!
#325
b111110 X
b111110 %"
b111110 X"
b111110 f"
b11 h
b11 j
b11 #"
b11 n
b100000 .
b100000 l"
b100000 m"
b0 v
b0 5
b0 :"
b0 s"
b11111111111111111111111111100111 6
b11111111111111111111111111100111 ;"
b11111111111111111111111111100111 t"
1<
1:
b10 i
b10 }
b10 2"
b1101111000000110000110011 0
b1101111000000110000110011 I"
b1101111000000110000110011 O"
b11111111111111111111111111111111 7
b11111111111111111111111111111111 \"
b11111111111111111111111111111111 _"
b11111111111111111111111111111111 d"
b11111111111111111111111111111111 p"
b10010 f
b10010 k"
b10010 y"
b0 Y
b0 ."
b0 b"
b11111111111111111111111111111111 >
b11111111111111111111111111111111 k
b11111111111111111111111111111111 Y"
b11 -
b11 m
b11 r
b100000 /
b100000 i"
b100000 j"
b0 1
b0 9"
b0 N"
b0 r"
b11001 q"
b11 |
b0 0"
b11001 /"
b11011 4"
b0 6"
b11001 5"
b10 7"
b0 8"
b100000 ,
b100000 u
b100000 g"
b11100 +
b11100 t
b11100 J"
b11100 P"
b11100 n"
b1111 @
b1111 *"
b1111 V"
b1111 o"
b11111111111111111111111111111111 C
b11111111111111111111111111111111 T"
b11111111111111111111111111111111 Z"
b11001 _
b11001 ("
b11001 )"
b11001 S"
b100 ^
b100 !"
b100 '"
b10000 c
b10000 ""
b10000 &"
b10000 Q"
b10000 `"
b10000 e"
b11000 \
b11000 {
b11000 w"
b10100 Q
b10100 z
b10100 ?"
b10010 J
b10010 >"
b10010 v"
b11010 P
b11010 $"
b11010 1"
b11010 @"
b11111 M
b11111 +"
b11111 C"
b1111111 H
b1111111 o
b1111111 F"
b11111111111111111111111111111111 G
b11111111111111111111111111111111 G"
b11111111111111111111111111111111 W"
b111110 L
b111110 D"
b111110 c"
1V
b0 W
b0 q
b0 ="
b11000 2
b11000 x
b11000 3"
b11000 h"
b11000 E
b11000 w
b11000 <"
b11000 K"
b11001010110110000011 D
b11001010110110000011 L"
b11001010110110000011 M"
b111 #
1!
#350
0!
#375
b110110 v
b11111111111111111111111111100101 5
b11111111111111111111111111100101 :"
b11111111111111111111111111100101 s"
0<
0:
04
0g
b0 i
b0 }
b0 2"
08
13
19
b10000 h
b10000 j
b10000 #"
b10000 n
b0 6
b0 ;"
b0 t"
b100100 .
b100100 l"
b100100 m"
b11011 1
b11011 9"
b11011 N"
b11011 r"
b11000 q"
b110011 |
b11011 0"
b11000 /"
b11000 4"
b11011 6"
b11000 5"
b0 7"
b11000 f
b11000 k"
b11000 y"
b0 >
b0 k
b0 Y"
b10000 Z
b10000 l
b10000 a"
b0 X
b0 %"
b0 X"
b0 f"
b1 [
b1 -"
b1 ]"
b10000 7
b10000 \"
b10000 _"
b10000 d"
b10000 p"
b111111010000010001100011 0
b111111010000010001100011 I"
b111111010000010001100011 O"
b100100 /
b100100 i"
b100100 j"
b1010010 2
b1010010 x
b1010010 3"
b1010010 h"
b11100 E
b11100 w
b11100 <"
b11100 K"
b1101111000000110000110011 D
b1101111000000110000110011 L"
b1101111000000110000110011 M"
b11100 \
b11100 {
b11100 w"
b11000 Q
b11000 z
b11000 ?"
b11000 J
b11000 >"
b11000 v"
b11011 P
b11011 $"
b11011 1"
b11011 @"
b0 M
b0 +"
b0 C"
b11001 O
b11001 ,"
b11001 A"
b10 I
b10 p
b10 E"
b0 H
b0 o
b0 F"
b0 G
b0 G"
b0 W"
b0 L
b0 D"
b0 c"
b11111111111111111111111111100111 N
b11111111111111111111111111100111 B"
b11111111111111111111111111100111 ^"
b10 W
b10 q
b10 ="
1T
1R
b11010 _
b11010 ("
b11010 )"
b11010 S"
b111110 ^
b111110 !"
b111110 '"
b11 c
b11 ""
b11 &"
b11 Q"
b11 `"
b11 e"
b11001 @
b11001 *"
b11001 V"
b11001 o"
b10000 C
b10000 T"
b10000 Z"
b100100 ,
b100100 u
b100100 g"
b100000 +
b100000 t
b100000 J"
b100000 P"
b100000 n"
b1000 #
1!
#400
0!
#425
b10000 h
b10000 j
b10000 #"
b10000 n
b0 Z
b0 l
b0 a"
b10000 >
b10000 k
b10000 Y"
14
b1 i
b1 }
b1 2"
b11 7
b11 \"
b11 _"
b11 d"
b11 p"
b11101 =
b11101 ~
b11101 R"
b1010010 f
b1010010 k"
b1010010 y"
b10 Y
b10 ."
b10 b"
b0 [
b0 -"
b0 ]"
b10000 X
b10000 %"
b10000 X"
b10000 f"
18
03
09
b11010 @
b11010 *"
b11010 V"
b11010 o"
b11 C
b11 T"
b11 Z"
b11011 _
b11011 ("
b11011 )"
b11011 S"
b0 ^
b0 !"
b0 '"
b10000 c
b10000 ""
b10000 &"
b10000 Q"
b10000 `"
b10000 e"
1b
1`
b100000 \
b100000 {
b100000 w"
b11100 Q
b11100 z
b11100 ?"
b1010010 J
b1010010 >"
b1010010 v"
b11000 P
b11000 $"
b11000 1"
b11000 @"
b11011 M
b11011 +"
b11011 C"
b11000 O
b11000 ,"
b11000 A"
b0 I
b0 p
b0 E"
b11011 G
b11011 G"
b11011 W"
b11111111111111111111111111100101 L
b11111111111111111111111111100101 D"
b11111111111111111111111111100101 c"
b0 N
b0 B"
b0 ^"
0V
b0 W
b0 q
b0 ="
0T
0R
0K
b1001 #
1!
#450
0!
#475
1H"
b11101 h
b11101 j
b11101 #"
b11101 n
1F
b11101 >
b11101 k
b11101 Y"
b1000 v
b11 6
b11 ;"
b11 t"
1e
04
b11 i
b11 }
b11 2"
b11111111111111111111111111111111 5
b11111111111111111111111111111111 :"
b11111111111111111111111111111111 s"
b11101 X
b11101 %"
b11101 X"
b11101 f"
b101000 .
b101000 l"
b101000 m"
b100 1
b100 9"
b100 N"
b1111 r"
b11010 q"
b1100011 |
b1111 0"
b11010 /"
b1000 4"
b1111 6"
b11010 5"
b0 =
b0 ~
b0 R"
b1 Y
b1 ."
b1 b"
b11101 7
b11101 \"
b11101 _"
b11101 d"
b11101 p"
b11111110000000000000011011100011 0
b11111110000000000000011011100011 I"
b11111110000000000000011011100011 O"
b101000 /
b101000 i"
b101000 j"
b101000 2
b101000 x
b101000 3"
b101000 h"
b100000 E
b100000 w
b100000 <"
b100000 K"
b111111010000010001100011 D
b111111010000010001100011 L"
b111111010000010001100011 M"
b1 W
b1 q
b1 ="
1K
b11000 _
b11000 ("
b11000 )"
b11000 S"
b10000 ^
b10000 !"
b10000 '"
0b
0`
0]
b11011 @
b11011 *"
b11011 V"
b11011 o"
b11101 B
b11101 U"
b11101 ["
b10000 C
b10000 T"
b10000 Z"
1A
b101000 ,
b101000 u
b101000 g"
b100100 +
b100100 t
b100100 J"
b100100 P"
b100100 n"
b1010 #
1!
#500
0!
