lab2/lab2/log/waveform_3.vcd
$date
	Sat Nov 18 04:08:06 2023
$end
$version
	Icarus Verilog
$end
$timescale
	1s
$end
$scope module TestBench $end
$var reg 1 ! Clk $end
$var reg 1 " Reset $end
$var integer 32 # counter [31:0] $end
$var integer 32 $ flush [31:0] $end
$var integer 32 % i [31:0] $end
$var integer 32 & outfile [31:0] $end
$var integer 32 ' stall [31:0] $end
$scope module CPU $end
$var wire 1 ! clk_i $end
$var wire 1 " rst_i $end
$var wire 32 ( pc_o [31:0] $end
$var wire 32 ) pc_i [31:0] $end
$var wire 3 * operation [2:0] $end
$var wire 32 + muxPCResult [31:0] $end
$var wire 32 , instr [31:0] $end
$var wire 32 - immediate [31:0] $end
$var wire 1 . equal $end
$var wire 32 / branchAddr [31:0] $end
$var wire 1 0 Stall $end
$var wire 1 1 RegWrite $end
$var wire 32 2 RS2data [31:0] $end
$var wire 32 3 RS1data [31:0] $end
$var wire 32 4 RDdata [31:0] $end
$var wire 1 5 PCWrite $end
$var wire 1 6 NoOp $end
$var wire 1 7 MemtoReg $end
$var wire 1 8 MemWrite $end
$var wire 1 9 MemRead $end
$var wire 32 : MemData [31:0] $end
$var wire 32 ; MUXResult [31:0] $end
$var wire 1 < ID_FlushIF $end
$var wire 32 = ForwardBData [31:0] $end
$var wire 2 > ForwardB [1:0] $end
$var wire 32 ? ForwardAData [31:0] $end
$var wire 2 @ ForwardA [1:0] $end
$var wire 1 A Branch $end
$var wire 1 B ALUSrc $end
$var wire 32 C ALUResult [31:0] $end
$var wire 2 D ALUOp [1:0] $end
$var reg 32 E EX_MEM_ALUResult [31:0] $end
$var reg 1 F EX_MEM_MemRead $end
$var reg 1 G EX_MEM_MemWrite $end
$var reg 1 H EX_MEM_MemtoReg $end
$var reg 5 I EX_MEM_RDaddr [4:0] $end
$var reg 32 J EX_MEM_RS2data [31:0] $end
$var reg 1 K EX_MEM_RegWrite $end
$var reg 2 L ID_EX_ALUOp [1:0] $end
$var reg 1 M ID_EX_ALUSrc $end
$var reg 1 N ID_EX_MemRead $end
$var reg 1 O ID_EX_MemWrite $end
$var reg 1 P ID_EX_MemtoReg $end
$var reg 5 Q ID_EX_RDaddr [4:0] $end
$var reg 5 R ID_EX_RS1addr [4:0] $end
$var reg 32 S ID_EX_RS1data [31:0] $end
$var reg 5 T ID_EX_RS2addr [4:0] $end
$var reg 32 U ID_EX_RS2data [31:0] $end
$var reg 1 V ID_EX_RegWrite $end
$var reg 3 W ID_EX_func3 [2:0] $end
$var reg 7 X ID_EX_func7 [6:0] $end
$var reg 32 Y ID_EX_immediate [31:0] $end
$var reg 32 Z IF_ID_PC [31:0] $end
$var reg 32 [ IF_ID_instr [31:0] $end
$var reg 32 \ MEM_WB_ALUResult [31:0] $end
$var reg 32 ] MEM_WB_MemData [31:0] $end
$var reg 1 ^ MEM_WB_MemtoReg $end
$var reg 5 _ MEM_WB_RDaddr [4:0] $end
$var reg 1 ` MEM_WB_RegWrite $end
$scope module ALU $end
$var wire 32 a ALUResult_o [31:0] $end
$var wire 32 b src2_i [31:0] $end
$var wire 32 c src1_i [31:0] $end
$var wire 3 d op_i [2:0] $end
$var reg 32 e tmpResult [31:0] $end
$upscope $end
$scope module ALU_Control $end
$var wire 2 f ALUOp_i [1:0] $end
$var wire 3 g funct3_i [14:12] $end
$var wire 7 h funct7_i [31:25] $end
$var reg 3 i op_o [2:0] $end
$upscope $end
$scope module Add $end
$var wire 32 j src2_i [31:0] $end
$var wire 32 k src1_i [31:0] $end
$var wire 32 l adder_o [31:0] $end
$upscope $end
$scope module Add2 $end
$var wire 32 m src1_i [31:0] $end
$var wire 32 n src2_i [31:0] $end
$var wire 32 o adder_o [31:0] $end
$upscope $end
$scope module Control $end
$var wire 7 p opcode_i [6:0] $end
$var wire 1 6 NoOp_i $end
$var reg 2 q ALUOp_o [1:0] $end
$var reg 1 B ALUSrc_o $end
$var reg 1 A Branch_o $end
$var reg 1 9 MemRead_o $end
$var reg 1 8 MemWrite_o $end
$var reg 1 7 MemtoReg_o $end
$var reg 1 1 RegWrite_o $end
$upscope $end
$scope module Data_Memory $end
$var wire 1 F MemRead_i $end
$var wire 1 G MemWrite_i $end
$var wire 32 r addr_i [31:0] $end
$var wire 1 ! clk_i $end
$var wire 32 s data_i [31:0] $end
$var wire 32 t data_o [31:0] $end
$upscope $end
$scope module Equal_Unit $end
$var wire 1 A Branch_i $end
$var wire 32 u src2_i [31:0] $end
$var wire 32 v src1_i [31:0] $end
$var reg 1 < flush_o $end
$var reg 1 . is_equal_o $end
$upscope $end
$scope module Forwarding $end
$var wire 5 w EX_MEM_RDaddr_i [4:0] $end
$var wire 1 K EX_MEM_RegWrite_i $end
$var wire 5 x ID_EX_RS1addr_i [4:0] $end
$var wire 5 y ID_EX_RS2addr_i [4:0] $end
$var wire 5 z MEM_WB_RDaddr_i [4:0] $end
$var wire 1 ` MEM_WB_RegWrite_i $end
$var reg 2 { ForwardA_o [1:0] $end
$var reg 2 | ForwardB_o [1:0] $end
$upscope $end
$scope module Hazard_Detection $end
$var wire 1 N ID_EX_MemRead_i $end
$var wire 5 } ID_EX_RDaddr_i [4:0] $end
$var wire 5 ~ RS1addr_i [4:0] $end
$var wire 5 !" RS2addr_i [4:0] $end
$var wire 1 ! clk_i $end
$var wire 1 " rst_i $end
$var reg 1 6 NoOp_o $end
$var reg 1 5 PCWrite_o $end
$var reg 1 0 Stall_o $end
$upscope $end
$scope module Imm_Gen $end
$var wire 32 "" imm_i [31:0] $end
$var reg 32 #" imm_o [31:0] $end
$upscope $end
$scope module Instruction_Memory $end
$var wire 32 $" instr_o [31:0] $end
$var wire 32 %" addr_i [31:0] $end
$upscope $end
$scope module MUX $end
$var wire 1 M sel $end
$var wire 32 &" src2_i [31:0] $end
$var wire 32 '" src1_i [31:0] $end
$var reg 32 (" mux_o [31:0] $end
$upscope $end
$scope module MUX2 $end
$var wire 1 ^ sel $end
$var wire 32 )" src1_i [31:0] $end
$var wire 32 *" src2_i [31:0] $end
$var reg 32 +" mux_o [31:0] $end
$upscope $end
$scope module MUX32_ForwardA $end
$var wire 2 ," sel [1:0] $end
$var wire 32 -" src1_i [31:0] $end
$var wire 32 ." src2_i [31:0] $end
$var wire 32 /" src3_i [31:0] $end
$var reg 32 0" mux_o [31:0] $end
$upscope $end
$scope module MUX32_ForwardB $end
$var wire 2 1" sel [1:0] $end
$var wire 32 2" src1_i [31:0] $end
$var wire 32 3" src2_i [31:0] $end
$var wire 32 4" src3_i [31:0] $end
$var reg 32 5" mux_o [31:0] $end
$upscope $end
$scope module MUX32_PC $end
$var wire 1 < sel $end
$var wire 32 6" src1_i [31:0] $end
$var wire 32 7" src2_i [31:0] $end
$var reg 32 8" mux_o [31:0] $end
$upscope $end
$scope module PC $end
$var wire 1 5 PCWrite_i $end
$var wire 1 ! clk_i $end
$var wire 32 9" pc_i [31:0] $end
$var wire 1 " rst_i $end
$var reg 32 :" pc_o [31:0] $end
$upscope $end
$scope module Registers $end
$var wire 5 ;" RDaddr_i [4:0] $end
$var wire 32 <" RDdata_i [31:0] $end
$var wire 5 =" RS1addr_i [4:0] $end
$var wire 5 >" RS2addr_i [4:0] $end
$var wire 1 ` RegWrite_i $end
$var wire 1 ! clk_i $end
$var wire 1 " rst_i $end
$var wire 32 ?" RS2data_o [31:0] $end
$var wire 32 @" RS1data_o [31:0] $end
$var integer 32 A" i [31:0] $end
$upscope $end
$upscope $end
$upscope $end
$enddefinitions $end
#0
$dumpvars
bx A"
bx @"
bx ?"
bx >"
bx ="
bx <"
bx ;"
bx :"
bx 9"
bx 8"
bx 7"
bx 6"
bx 5"
bx 4"
bx 3"
bx 2"
bx 1"
bx 0"
bx /"
bx ."
bx -"
bx ,"
bx +"
bx *"
bx )"
bx ("
bx '"
bx &"
bx %"
bx $"
bx #"
bx ""
bx !"
bx ~
bx }
bx |
bx {
bx z
bx y
bx x
bx w
bx v
bx u
bx t
bx s
bx r
b0 q
bx p
bx o
bx n
bx0 m
bx l
bx k
b100 j
bx i
bx h
bx g
bx f
bx e
bx d
bx c
bx b
bx a
x`
bx _
x^
bx ]
bx \
bx [
bx Z
bx Y
bx X
bx W
xV
bx U
bx T
bx S
bx R
bx Q
xP
xO
xN
xM
bx L
xK
bx J
bx I
xH
xG
xF
bx E
b0 D
bx C
0B
0A
bx @
bx ?
bx >
bx =
0<
bx ;
bx :
09
08
07
06
15
bx 4
bx 3
bx 2
01
00
bx /
0.
bx -
bx ,
bx +
bx *
bx )
bx (
b0 '
b11 &
b100000 %
b0 $
b0 #
1"
0!
$end
#6
b0 C
b0 a
b0 e
1.
b0 ;
b0 b
b0 ("
b0 3
b0 v
b0 @"
b0 2
b0 u
b0 ?"
b0 /
b0 o
b0 7"
b0 m
b10010000000011 ,
b10010000000011 $"
b100 +
b100 8"
b100 9"
b0 4
b0 +"
b0 ."
b0 3"
b0 <"
b0 :
b0 t
b0 >
b0 |
b0 1"
b0 @
b0 {
b0 ,"
b0 =
b0 '"
b0 5"
b0 ?
b0 c
b0 0"
b11 *
b11 d
b11 i
b0 ~
b0 !"
b0 p
b0 ="
b0 >"
b0 -
b0 #"
b100 )
b100 l
b100 6"
b0 (
b0 k
b0 %"
b0 :"
b0 _
b0 z
b0 ;"
b0 ]
b0 *"
b0 \
b0 )"
0^
0`
b0 I
b0 w
b0 J
b0 s
b0 E
b0 r
b0 /"
b0 4"
0G
0F
0H
0K
b0 Q
b0 }
b0 T
b0 y
b0 R
b0 x
b0 W
b0 g
b0 X
b0 h
b0 Y
b0 &"
b0 U
b0 2"
b0 S
b0 -"
0M
b0 L
b0 f
0O
0N
0P
0V
b0 Z
b0 n
b0 [
b0 ""
b100000 A"
0"
#12
1"
#25
19
17
11
1B
b10 D
b10 q
b11 p
b100001000000010010110011 ,
b100001000000010010110011 $"
b1000 +
b1000 8"
b1000 9"
b10010000000011 [
b10010000000011 ""
b1000 )
b1000 l
b1000 6"
b100 (
b100 k
b100 %"
b100 :"
b1 #
1!
#50
0!
#75
09
07
01
0B
b0 D
b0 q
b10000 m
b10000000010010100000011 ,
b10000000010010100000011 $"
05
10
16
b1100 +
b1100 8"
b1100 9"
b1000 ~
b1000 !"
b110011 p
b1000 ="
b1000 >"
b1000 -
b1000 #"
b1100 )
b1100 l
b1100 6"
b1000 (
b1000 k
b1000 %"
b1000 :"
b1000 Q
b1000 }
b10 W
b10 g
1M
b10 L
b10 f
1N
1P
1V
b10100 /
b10100 o
b10100 7"
b100 Z
b100 n
b100001000000010010110011 [
b100001000000010010110011 ""
b10 #
1!
#100
0!
#125
11
b1 D
b1 q
b101 :
b101 t
b10 >
b10 |
b10 1"
b10 @
b10 {
b10 ,"
15
00
06
b1000 I
b1000 w
1F
1H
1K
b1001 Q
b1001 }
b1000 T
b1000 y
b1000 R
b1000 x
b0 W
b0 g
b1000 Y
b1000 &"
0M
b0 L
b0 f
0N
0P
0V
b11 #
b1 '
1!
#150
0!
#175
b101 ;
b101 b
b101 ("
b1010 C
b1010 a
b1010 e
b101 =
b101 '"
b101 5"
b101 ?
b101 c
b101 0"
19
17
1B
b10 D
b10 q
b1000 m
b101001010000010110110011 ,
b101001010000010110110011 $"
b101 4
b101 +"
b101 ."
b101 3"
b101 <"
b0 :
b0 t
b1 >
b1 |
b1 1"
b1 @
b1 {
b1 ,"
b10000 +
b10000 8"
b10000 9"
b0 ~
b100 !"
b11 p
b0 ="
b100 >"
b100 -
b100 #"
b10000 )
b10000 l
b10000 6"
b1100 (
b1100 k
b1100 %"
b1100 :"
b1000 _
b1000 z
b1000 ;"
b101 ]
b101 *"
1^
1`
b1001 I
b1001 w
0F
0H
0K
b1 L
b1 f
1V
b10000 /
b10000 o
b10000 7"
b1000 Z
b1000 n
b10000000010010100000011 [
b10000000010010100000011 ""
b100 #
1!
#200
0!
#225
b100 C
b100 a
b100 e
09
07
01
0B
b0 D
b0 q
b10100 m
b0 4
b0 +"
b0 ."
b0 3"
b0 <"
b0 ?
b0 c
b0 0"
b0 =
b0 '"
b0 5"
b0 >
b0 |
b0 1"
b0 @
b0 {
b0 ,"
b100 ;
b100 b
b100 ("
05
10
16
b1010 ~
b1010 !"
b110011 p
b1010 ="
b1010 >"
b1010 -
b1010 #"
b100000000010011000000011 ,
b100000000010011000000011 $"
b10100 +
b10100 8"
b10100 9"
b1001 _
b1001 z
b1001 ;"
b0 ]
b0 *"
0^
0`
b101 J
b101 s
b1010 E
b1010 r
b1010 /"
b1010 4"
1K
b1010 Q
b1010 }
b100 T
b100 y
b0 R
b0 x
b10 W
b10 g
b100 Y
b100 &"
1M
b10 L
b10 f
1N
1P
b100000 /
b100000 o
b100000 7"
b1100 Z
b1100 n
b101001010000010110110011 [
b101001010000010110110011 ""
b10100 )
b10100 l
b10100 6"
b10000 (
b10000 k
b10000 %"
b10000 :"
b101 #
1!
#250
0!
#275
b1000 C
b1000 a
b1000 e
11
b1 D
b1 q
b1010 4
b1010 +"
b1010 ."
b1010 3"
b1010 <"
b100 ?
b100 c
b100 0"
b100 =
b100 '"
b100 5"
b110 :
b110 t
b10 >
b10 |
b10 1"
b10 @
b10 {
b10 ,"
b100 ;
b100 b
b100 ("
15
00
06
b1010 \
b1010 )"
1`
b1010 I
b1010 w
b0 J
b0 s
b100 E
b100 r
b100 /"
b100 4"
1F
1H
b1011 Q
b1011 }
b1010 T
b1010 y
b1010 R
b1010 x
b0 W
b0 g
b1010 Y
b1010 &"
0M
b0 L
b0 f
0N
0P
0V
b110 #
b10 '
1!
#300
0!
#325
0.
b1100 C
b1100 a
b1100 e
b110 ;
b110 b
b110 ("
19
17
1B
b10 D
b10 q
b101 2
b101 u
b101 ?"
b10000 m
b110 4
b110 +"
b110 ."
b110 3"
b110 <"
b110 ?
b110 c
b110 0"
b110 =
b110 '"
b110 5"
b0 :
b0 t
b1 >
b1 |
b1 1"
b1 @
b1 {
b1 ,"
b0 ~
b1000 !"
b11 p
b0 ="
b1000 >"
b1000 -
b1000 #"
b110001100000011010110011 ,
b110001100000011010110011 $"
b11000 +
b11000 8"
b11000 9"
b1010 _
b1010 z
b1010 ;"
b110 ]
b110 *"
b100 \
b100 )"
1^
b1011 I
b1011 w
b100 J
b100 s
b1000 E
b1000 r
b1000 /"
b1000 4"
0F
0H
0K
b1 L
b1 f
1V
b100000 /
b100000 o
b100000 7"
b10000 Z
b10000 n
b100000000010011000000011 [
b100000000010011000000011 ""
b11000 )
b11000 l
b11000 6"
b10100 (
b10100 k
b10100 %"
b10100 :"
b111 #
1!
#350
0!
#375
1.
b101 =
b101 '"
b101 5"
b1000 C
b1000 a
b1000 e
09
07
01
0B
b0 D
b0 q
b0 2
b0 u
b0 ?"
b11000 m
b110000000010011100000011 ,
b110000000010011100000011 $"
b1000 4
b1000 +"
b1000 ."
b1000 3"
b1000 <"
b0 ?
b0 c
b0 0"
b0 >
b0 |
b0 1"
b0 @
b0 {
b0 ,"
b1000 ;
b1000 b
b1000 ("
05
10
16
b11100 +
b11100 8"
b11100 9"
b1100 ~
b1100 !"
b110011 p
b1100 ="
b1100 >"
b1100 -
b1100 #"
b11100 )
b11100 l
b11100 6"
b11000 (
b11000 k
b11000 %"
b11000 :"
b1011 _
b1011 z
b1011 ;"
b0 ]
b0 *"
b1000 \
b1000 )"
0^
0`
b110 J
b110 s
b1100 E
b1100 r
b1100 /"
b1100 4"
1K
b1100 Q
b1100 }
b1000 T
b1000 y
b0 R
b0 x
b10 W
b10 g
b1000 Y
b1000 &"
b101 U
b101 2"
1M
b10 L
b10 f
1N
1P
b101100 /
b101100 o
b101100 7"
b10100 Z
b10100 n
b110001100000011010110011 [
b110001100000011010110011 ""
b1000 #
1!
#400
0!
#425
b10000 C
b10000 a
b10000 e
11
b1 D
b1 q
b1100 4
b1100 +"
b1100 ."
b1100 3"
b1100 <"
b1000 ?
b1000 c
b1000 0"
b1010 :
b1010 t
b10 >
b10 |
b10 1"
b10 @
b10 {
b10 ,"
b1000 =
b1000 '"
b1000 5"
b1000 ;
b1000 b
b1000 ("
15
00
06
b1100 \
b1100 )"
1`
b1100 I
b1100 w
b101 J
b101 s
b1000 E
b1000 r
b1000 /"
b1000 4"
1F
1H
b1101 Q
b1101 }
b1100 T
b1100 y
b1100 R
b1100 x
b0 W
b0 g
b1100 Y
b1100 &"
b0 U
b0 2"
0M
b0 L
b0 f
0N
0P
0V
b1001 #
b11 '
1!
#450
0!
#475
0.
b1010 2
b1010 u
b1010 ?"
b10100 C
b10100 a
b10100 e
b1010 ;
b1010 b
b1010 ("
19
17
1B
b10 D
b10 q
b111001110000011110110011 ,
b111001110000011110110011 $"
b1010 4
b1010 +"
b1010 ."
b1010 3"
b1010 <"
b1010 ?
b1010 c
b1010 0"
b1010 =
b1010 '"
b1010 5"
b0 :
b0 t
b1 >
b1 |
b1 1"
b1 @
b1 {
b1 ,"
b100000 +
b100000 8"
b100000 9"
b0 ~
b11 p
b0 ="
b100000 )
b100000 l
b100000 6"
b11100 (
b11100 k
b11100 %"
b11100 :"
b1100 _
b1100 z
b1100 ;"
b1010 ]
b1010 *"
b1000 \
b1000 )"
1^
b1101 I
b1101 w
b1000 J
b1000 s
b10000 E
b10000 r
b10000 /"
b10000 4"
0F
0H
0K
b1 L
b1 f
1V
b110000 /
b110000 o
b110000 7"
b11000 Z
b11000 n
b110000000010011100000011 [
b110000000010011100000011 ""
b1010 #
1!
#500
0!
#525
1.
b0 2
b0 u
b0 ?"
b1100 C
b1100 a
b1100 e
09
07
01
0B
b0 D
b0 q
b11100 m
b10000 4
b10000 +"
b10000 ."
b10000 3"
b10000 <"
b0 ?
b0 c
b0 0"
b0 >
b0 |
b0 1"
b0 @
b0 {
b0 ,"
b1100 ;
b1100 b
b1100 ("
05
10
16
b1110 ~
b1110 !"
b110011 p
b1110 ="
b1110 >"
b1110 -
b1110 #"
b1110011000000100000110011 ,
b1110011000000100000110011 $"
b100100 +
b100100 8"
b100100 9"
b1101 _
b1101 z
b1101 ;"
b0 ]
b0 *"
b10000 \
b10000 )"
0^
0`
b1010 J
b1010 s
b10100 E
b10100 r
b10100 /"
b10100 4"
1K
b1110 Q
b1110 }
b0 R
b0 x
b10 W
b10 g
b1010 U
b1010 2"
1M
b10 L
b10 f
1N
1P
b111000 /
b111000 o
b111000 7"
b11100 Z
b11100 n
b111001110000011110110011 [
b111001110000011110110011 ""
b100100 )
b100100 l
b100100 6"
b100000 (
b100000 k
b100000 %"
b100000 :"
b1011 #
1!
#550
0!
#575
b10010 :
b10010 t
b11000 C
b11000 a
b11000 e
11
b1 D
b1 q
b10100 4
b10100 +"
b10100 ."
b10100 3"
b10100 <"
b1100 ?
b1100 c
b1100 0"
b10 >
b10 |
b10 1"
b10 @
b10 {
b10 ,"
b1100 =
b1100 '"
b1100 5"
b1100 ;
b1100 b
b1100 ("
15
00
06
b10100 \
b10100 )"
1`
b1110 I
b1110 w
b1100 E
b1100 r
b1100 /"
b1100 4"
1F
1H
b1111 Q
b1111 }
b1110 T
b1110 y
b1110 R
b1110 x
b0 W
b0 g
b1110 Y
b1110 &"
b0 U
b0 2"
0M
b0 L
b0 f
0N
0P
0V
b1100 #
b100 '
1!
#600
0!
#625
0.
b100100 C
b100100 a
b100100 e
b10010 ;
b10010 b
b10010 ("
b11111111111111111111111111101000 3
b11111111111111111111111111101000 v
b11111111111111111111111111101000 @"
b111000 2
b111000 u
b111000 ?"
b111000 m
b10010 4
b10010 +"
b10010 ."
b10010 3"
b10010 <"
b10010 ?
b10010 c
b10010 0"
b10010 =
b10010 '"
b10010 5"
b0 :
b0 t
b1 >
b1 |
b1 1"
b1 @
b1 {
b1 ,"
b11000 ~
b11100 !"
b11000 ="
b11100 >"
b11100 -
b11100 #"
b1110111001000100010110011 ,
b1110111001000100010110011 $"
b101000 +
b101000 8"
b101000 9"
b1110 _
b1110 z
b1110 ;"
b10010 ]
b10010 *"
b1100 \
b1100 )"
1^
b1111 I
b1111 w
b1100 J
b1100 s
b11000 E
b11000 r
b11000 /"
b11000 4"
0F
0H
0K
b1 L
b1 f
1V
b1011000 /
b1011000 o
b1011000 7"
b100000 Z
b100000 n
b1110011000000100000110011 [
b1110011000000100000110011 ""
b101000 )
b101000 l
b101000 6"
b100100 (
b100100 k
b100100 %"
b100100 :"
b1101 #
1!
#650
0!
#675
b111000 ;
b111000 b
b111000 ("
b100000 C
b100000 a
b100000 e
b111000 =
b111000 '"
b111000 5"
b11111111111111111111111111101000 ?
b11111111111111111111111111101000 c
b11111111111111111111111111101000 0"
b11111111111111111111111111100111 3
b11111111111111111111111111100111 v
b11111111111111111111111111100111 @"
b111010 2
b111010 u
b111010 ?"
b111010 m
b1111011010000100100110011 ,
b1111011010000100100110011 $"
b11000 4
b11000 +"
b11000 ."
b11000 3"
b11000 <"
b0 >
b0 |
b0 1"
b0 @
b0 {
b0 ,"
b101100 +
b101100 8"
b101100 9"
b11001 ~
b11101 !"
b11001 ="
b11101 >"
b11101 -
b11101 #"
b101100 )
b101100 l
b101100 6"
b101000 (
b101000 k
b101000 %"
b101000 :"
b1111 _
b1111 z
b1111 ;"
b0 ]
b0 *"
b11000 \
b11000 )"
0^
0`
b10010 J
b10010 s
b100100 E
b100100 r
b100100 /"
b100100 4"
1K
b10000 Q
b10000 }
b11100 T
b11100 y
b11000 R
b11000 x
b11100 Y
b11100 &"
b111000 U
b111000 2"
b11111111111111111111111111101000 S
b11111111111111111111111111101000 -"
b1011110 /
b1011110 o
b1011110 7"
b100100 Z
b100100 n
b1110111001000100010110011 [
b1110111001000100010110011 ""
b1110 #
1!
#700
0!
#725
b100001 C
b100001 a
b100001 e
b11111111111111111111111111100110 3
b11111111111111111111111111100110 v
b11111111111111111111111111100110 @"
b111100 2
b111100 u
b111100 ?"
b111100 m
b100100 4
b100100 +"
b100100 ."
b100100 3"
b100100 <"
b111010 ;
b111010 b
b111010 ("
b111010 =
b111010 '"
b111010 5"
b11111111111111111111111111100111 ?
b11111111111111111111111111100111 c
b11111111111111111111111111100111 0"
b11010 ~
b11110 !"
b11010 ="
b11110 >"
b11110 -
b11110 #"
b1111111011000100110110011 ,
b1111111011000100110110011 $"
b110000 +
b110000 8"
b110000 9"
b100100 \
b100100 )"
1`
b10000 I
b10000 w
b111000 J
b111000 s
b100000 E
b100000 r
b100000 /"
b100000 4"
b10001 Q
b10001 }
b11101 T
b11101 y
b11001 R
b11001 x
b11101 Y
b11101 &"
b111010 U
b111010 2"
b11111111111111111111111111100111 S
b11111111111111111111111111100111 -"
b1100100 /
b1100100 o
b1100100 7"
b101000 Z
b101000 n
b1111011010000100100110011 [
b1111011010000100100110011 ""
b110000 )
b110000 l
b110000 6"
b101100 (
b101100 k
b101100 %"
b101100 :"
b1111 #
1!
#750
0!
#775
b100010 C
b100010 a
b100010 e
b11111111111111111111111111100101 3
b11111111111111111111111111100101 v
b11111111111111111111111111100101 @"
b111110 2
b111110 u
b111110 ?"
b111110 m
b10000010000011 ,
b10000010000011 $"
b100000 4
b100000 +"
b100000 ."
b100000 3"
b100000 <"
b111100 ;
b111100 b
b111100 ("
b111100 =
b111100 '"
b111100 5"
b11111111111111111111111111100110 ?
b11111111111111111111111111100110 c
b11111111111111111111111111100110 0"
b110100 +
b110100 8"
b110100 9"
b11011 ~
b11111 !"
b11011 ="
b11111 >"
b11111 -
b11111 #"
b110100 )
b110100 l
b110100 6"
b110000 (
b110000 k
b110000 %"
b110000 :"
b10000 _
b10000 z
b10000 ;"
b100000 \
b100000 )"
b10001 I
b10001 w
b111010 J
b111010 s
b100001 E
b100001 r
b100001 /"
b100001 4"
b10010 Q
b10010 }
b11110 T
b11110 y
b11010 R
b11010 x
b11110 Y
b11110 &"
b111100 U
b111100 2"
b11111111111111111111111111100110 S
b11111111111111111111111111100110 -"
b1101010 /
b1101010 o
b1101010 7"
b101100 Z
b101100 n
b1111111011000100110110011 [
b1111111011000100110110011 ""
b10000 #
1!
#800
0!
#825
1.
b100011 C
b100011 a
b100011 e
19
17
1B
b10 D
b10 q
b0 3
b0 v
b0 @"
b0 2
b0 u
b0 ?"
b0 m
b100001 4
b100001 +"
b100001 ."
b100001 3"
b100001 <"
b111110 ;
b111110 b
b111110 ("
b111110 =
b111110 '"
b111110 5"
b11111111111111111111111111100101 ?
b11111111111111111111111111100101 c
b11111111111111111111111111100101 0"
b0 ~
b0 !"
b11 p
b0 ="
b0 >"
b0 -
b0 #"
b111110011100000000000010010011 ,
b111110011100000000000010010011 $"
b111000 +
b111000 8"
b111000 9"
b10001 _
b10001 z
b10001 ;"
b100001 \
b100001 )"
b10010 I
b10010 w
b111100 J
b111100 s
b100010 E
b100010 r
b100010 /"
b100010 4"
b10011 Q
b10011 }
b11111 T
b11111 y
b11011 R
b11011 x
b11111 Y
b11111 &"
b111110 U
b111110 2"
b11111111111111111111111111100101 S
b11111111111111111111111111100101 -"
b110000 /
b110000 o
b110000 7"
b110000 Z
b110000 n
b10000010000011 [
b10000010000011 ""
b111000 )
b111000 l
b111000 6"
b110100 (
b110100 k
b110100 %"
b110100 :"
b10001 #
1!
#850
0!
#875
b0 C
b0 a
b0 e
09
07
b0 D
b0 q
b11111001110 m
b10000100000011 ,
b10000100000011 $"
b100010 4
b100010 +"
b100010 ."
b100010 3"
b100010 <"
b0 =
b0 '"
b0 5"
b0 ?
b0 c
b0 0"
b0 ;
b0 b
b0 ("
b111100 +
b111100 8"
b111100 9"
b111 !"
b10011 p
b111 >"
b1111100111 -
b1111100111 #"
b111100 )
b111100 l
b111100 6"
b111000 (
b111000 k
b111000 %"
b111000 :"
b10010 _
b10010 z
b10010 ;"
b100010 \
b100010 )"
b10011 I
b10011 w
b111110 J
b111110 s
b100011 E
b100011 r
b100011 /"
b100011 4"
b1 Q
b1 }
b0 T
b0 y
b0 R
b0 x
b10 W
b10 g
b0 Y
b0 &"
b0 U
b0 2"
b0 S
b0 -"
1M
b10 L
b10 f
1N
1P
b100000000010 /
b100000000010 o
b100000000010 7"
b110100 Z
b110100 n
b111110011100000000000010010011 [
b111110011100000000000010010011 ""
b10010 #
1!
#900
0!
#925
b101 :
b101 t
b1111100111 C
b1111100111 a
b1111100111 e
19
17
b10 D
b10 q
b0 m
b100011 4
b100011 +"
b100011 ."
b100011 3"
b100011 <"
b1111100111 ;
b1111100111 b
b1111100111 ("
b0 !"
b11 p
b0 >"
b0 -
b0 #"
b110111100000000000000100010011 ,
b110111100000000000000100010011 $"
b1000000 +
b1000000 8"
b1000000 9"
b10011 _
b10011 z
b10011 ;"
b100011 \
b100011 )"
b1 I
b1 w
b0 J
b0 s
b0 E
b0 r
b0 /"
b0 4"
1F
1H
b111 T
b111 y
b0 W
b0 g
b11111 X
b11111 h
b1111100111 Y
b1111100111 &"
b0 L
b0 f
0N
0P
b111000 /
b111000 o
b111000 7"
b111000 Z
b111000 n
b10000100000011 [
b10000100000011 ""
b1000000 )
b1000000 l
b1000000 6"
b111100 (
b111100 k
b111100 %"
b111100 :"
b10011 #
1!
#950
0!
#975
0.
b0 C
b0 a
b0 e
09
07
b0 D
b0 q
b11111111111111111111111111101000 2
b11111111111111111111111111101000 u
b11111111111111111111111111101000 ?"
b11011110000 m
b10000110000011 ,
b10000110000011 $"
b101 4
b101 +"
b101 ."
b101 3"
b101 <"
b0 :
b0 t
b0 ;
b0 b
b0 ("
b1000100 +
b1000100 8"
b1000100 9"
b11000 !"
b10011 p
b11000 >"
b1101111000 -
b1101111000 #"
b1000100 )
b1000100 l
b1000100 6"
b1000000 (
b1000000 k
b1000000 %"
b1000000 :"
b1 _
b1 z
b1 ;"
b101 ]
b101 *"
b0 \
b0 )"
1^
b1111100111 E
b1111100111 r
b1111100111 /"
b1111100111 4"
0F
0H
b10 Q
b10 }
b0 T
b0 y
b10 W
b10 g
b0 X
b0 h
b0 Y
b0 &"
b10 L
b10 f
1N
1P
b11100101100 /
b11100101100 o
b11100101100 7"
b111100 Z
b111100 n
b110111100000000000000100010011 [
b110111100000000000000100010011 ""
b10100 #
1!
#1000
0!
#1025
1.
b1101111000 C
b1101111000 a
b1101111000 e
19
17
b10 D
b10 q
b0 2
b0 u
b0 ?"
b0 m
b1111100111 4
b1111100111 +"
b1111100111 ."
b1111100111 3"
b1111100111 <"
b101 :
b101 t
b1101111000 ;
b1101111000 b
b1101111000 ("
b11111111111111111111111111101000 =
b11111111111111111111111111101000 '"
b11111111111111111111111111101000 5"
b0 !"
b11 p
b0 >"
b0 -
b0 #"
b110000100100000000000110010011 ,
b110000100100000000000110010011 $"
b1001000 +
b1001000 8"
b1001000 9"
b0 ]
b0 *"
b1111100111 \
b1111100111 )"
0^
b10 I
b10 w
b0 E
b0 r
b0 /"
b0 4"
1F
1H
b11000 T
b11000 y
b0 W
b0 g
b11011 X
b11011 h
b1101111000 Y
b1101111000 &"
b11111111111111111111111111101000 U
b11111111111111111111111111101000 2"
b0 L
b0 f
0N
0P
b1000000 /
b1000000 o
b1000000 7"
b1000000 Z
b1000000 n
b10000110000011 [
b10000110000011 ""
b1001000 )
b1001000 l
b1001000 6"
b1000100 (
b1000100 k
b1000100 %"
b1000100 :"
b10101 #
1!
#1050
0!
