lab2/lab2/log/waveform_2.vcd
$date
	Sat Nov 18 15:04:50 2023
$end
$version
	Icarus Verilog
$end
$timescale
	1s
$end
$scope module TestBench $end
$var reg 1 ! Clk $end
$var reg 1 " Reset $end
$var integer 32 # counter [31:0] $end
$var integer 32 $ flush [31:0] $end
$var integer 32 % i [31:0] $end
$var integer 32 & outfile [31:0] $end
$var integer 32 ' stall [31:0] $end
$scope module CPU $end
$var wire 1 ! clk_i $end
$var wire 1 " rst_i $end
$var wire 32 ( pc_o [31:0] $end
$var wire 32 ) pc_i [31:0] $end
$var wire 3 * operation [2:0] $end
$var wire 32 + muxPCResult [31:0] $end
$var wire 32 , instr [31:0] $end
$var wire 32 - immediate [31:0] $end
$var wire 1 . equal $end
$var wire 32 / branchAddr [31:0] $end
$var wire 1 0 Stall $end
$var wire 1 1 RegWrite $end
$var wire 32 2 RS2data [31:0] $end
$var wire 32 3 RS1data [31:0] $end
$var wire 32 4 RDdata [31:0] $end
$var wire 1 5 PCWrite $end
$var wire 1 6 NoOp $end
$var wire 1 7 MemtoReg $end
$var wire 1 8 MemWrite $end
$var wire 1 9 MemRead $end
$var wire 32 : MemData [31:0] $end
$var wire 32 ; MUXResult [31:0] $end
$var wire 1 < MEM_WB_RegWrite $end
$var wire 5 = MEM_WB_RDaddr [4:0] $end
$var wire 1 > MEM_WB_MemtoReg $end
$var wire 32 ? MEM_WB_MemData [31:0] $end
$var wire 32 @ MEM_WB_ALUResult [31:0] $end
$var wire 32 A IF_ID_instr [31:0] $end
$var wire 32 B IF_ID_PC [31:0] $end
$var wire 1 C ID_FlushIF $end
$var wire 32 D ID_EX_immediate [31:0] $end
$var wire 7 E ID_EX_func7 [6:0] $end
$var wire 3 F ID_EX_func3 [2:0] $end
$var wire 1 G ID_EX_RegWrite $end
$var wire 32 H ID_EX_RS2data [31:0] $end
$var wire 5 I ID_EX_RS2addr [4:0] $end
$var wire 32 J ID_EX_RS1data [31:0] $end
$var wire 5 K ID_EX_RS1addr [4:0] $end
$var wire 5 L ID_EX_RDaddr [4:0] $end
$var wire 1 M ID_EX_MemtoReg $end
$var wire 1 N ID_EX_MemWrite $end
$var wire 1 O ID_EX_MemRead $end
$var wire 1 P ID_EX_ALUSrc $end
$var wire 2 Q ID_EX_ALUOp [1:0] $end
$var wire 32 R ForwardBData [31:0] $end
$var wire 2 S ForwardB [1:0] $end
$var wire 32 T ForwardAData [31:0] $end
$var wire 2 U ForwardA [1:0] $end
$var wire 1 V EX_MEM_RegWrite $end
$var wire 32 W EX_MEM_RS2data [31:0] $end
$var wire 5 X EX_MEM_RDaddr [4:0] $end
$var wire 1 Y EX_MEM_MemtoReg $end
$var wire 1 Z EX_MEM_MemWrite $end
$var wire 1 [ EX_MEM_MemRead $end
$var wire 32 \ EX_MEM_ALUResult [31:0] $end
$var wire 1 ] Branch $end
$var wire 1 ^ ALUSrc $end
$var wire 32 _ ALUResult [31:0] $end
$var wire 2 ` ALUOp [1:0] $end
$scope module ALU $end
$var wire 32 a ALUResult_o [31:0] $end
$var wire 32 b src2_i [31:0] $end
$var wire 32 c src1_i [31:0] $end
$var wire 3 d op_i [2:0] $end
$var reg 32 e tmpResult [31:0] $end
$upscope $end
$scope module ALU_Control $end
$var wire 7 f funct7_i [31:25] $end
$var wire 3 g funct3_i [14:12] $end
$var wire 2 h ALUOp_i [1:0] $end
$var reg 3 i op_o [2:0] $end
$upscope $end
$scope module Add $end
$var wire 32 j src2_i [31:0] $end
$var wire 32 k src1_i [31:0] $end
$var wire 32 l adder_o [31:0] $end
$upscope $end
$scope module Add2 $end
$var wire 32 m src1_i [31:0] $end
$var wire 32 n src2_i [31:0] $end
$var wire 32 o adder_o [31:0] $end
$upscope $end
$scope module Branch_Detection $end
$var wire 32 p src2_i [31:0] $end
$var wire 32 q src1_i [31:0] $end
$var wire 1 ] Branch_i $end
$var reg 1 C flush_o $end
$var reg 1 . is_equal_o $end
$upscope $end
$scope module Control $end
$var wire 7 r opcode_i [6:0] $end
$var wire 1 6 NoOp_i $end
$var reg 2 s ALUOp_o [1:0] $end
$var reg 1 ^ ALUSrc_o $end
$var reg 1 ] Branch_o $end
$var reg 1 9 MemRead_o $end
$var reg 1 8 MemWrite_o $end
$var reg 1 7 MemtoReg_o $end
$var reg 1 1 RegWrite_o $end
$upscope $end
$scope module Data_Memory $end
$var wire 1 ! clk_i $end
$var wire 32 t data_o [31:0] $end
$var wire 32 u data_i [31:0] $end
$var wire 32 v addr_i [31:0] $end
$var wire 1 Z MemWrite_i $end
$var wire 1 [ MemRead_i $end
$upscope $end
$scope module EX_MEM_Register $end
$var wire 32 w ALUResult_i [31:0] $end
$var wire 1 ! clk_i $end
$var wire 1 " rst_i $end
$var wire 1 G RegWrite_i $end
$var wire 5 x RDaddr_i [4:0] $end
$var wire 1 M MemtoReg_i $end
$var wire 1 N MemWrite_i $end
$var wire 1 O MemRead_i $end
$var wire 32 y ForwardBData_i [31:0] $end
$var reg 32 z ALUResult_o [31:0] $end
$var reg 32 { ForwardBData_o [31:0] $end
$var reg 1 [ MemRead_o $end
$var reg 1 Z MemWrite_o $end
$var reg 1 Y MemtoReg_o $end
$var reg 5 | RDaddr_o [4:0] $end
$var reg 1 V RegWrite_o $end
$upscope $end
$scope module Forwarding $end
$var wire 5 } EX_MEM_RDaddr_i [4:0] $end
$var wire 1 V EX_MEM_RegWrite_i $end
$var wire 1 < MEM_WB_RegWrite_i $end
$var wire 5 ~ MEM_WB_RDaddr_i [4:0] $end
$var wire 5 !" ID_EX_RS2addr_i [4:0] $end
$var wire 5 "" ID_EX_RS1addr_i [4:0] $end
$var reg 2 #" ForwardA_o [1:0] $end
$var reg 2 $" ForwardB_o [1:0] $end
$upscope $end
$scope module Hazard_Detection $end
$var wire 5 %" RS1addr_i [4:0] $end
$var wire 5 &" RS2addr_i [4:0] $end
$var wire 1 " rst_i $end
$var wire 5 '" ID_EX_RDaddr_i [4:0] $end
$var wire 1 O ID_EX_MemRead_i $end
$var reg 1 6 NoOp_o $end
$var reg 1 5 PCWrite_o $end
$var reg 1 0 Stall_o $end
$upscope $end
$scope module ID_EX_Register $end
$var wire 2 (" ALUOp_i [1:0] $end
$var wire 1 ^ ALUSrc_i $end
$var wire 1 9 MemRead_i $end
$var wire 1 8 MemWrite_i $end
$var wire 1 7 MemtoReg_i $end
$var wire 5 )" RDaddr_i [4:0] $end
$var wire 5 *" RS1addr_i [4:0] $end
$var wire 5 +" RS2addr_i [4:0] $end
$var wire 1 1 RegWrite_i $end
$var wire 1 ! clk_i $end
$var wire 3 ," func3_i [2:0] $end
$var wire 7 -" func7_i [6:0] $end
$var wire 1 " rst_i $end
$var wire 32 ." immediate_i [31:0] $end
$var wire 32 /" RS2data_i [31:0] $end
$var wire 32 0" RS1data_i [31:0] $end
$var reg 2 1" ALUOp_o [1:0] $end
$var reg 1 P ALUSrc_o $end
$var reg 1 O MemRead_o $end
$var reg 1 N MemWrite_o $end
$var reg 1 M MemtoReg_o $end
$var reg 5 2" RDaddr_o [4:0] $end
$var reg 5 3" RS1addr_o [4:0] $end
$var reg 32 4" RS1data_o [31:0] $end
$var reg 5 5" RS2addr_o [4:0] $end
$var reg 32 6" RS2data_o [31:0] $end
$var reg 1 G RegWrite_o $end
$var reg 3 7" func3_o [2:0] $end
$var reg 7 8" func7_o [6:0] $end
$var reg 32 9" immediate_o [31:0] $end
$upscope $end
$scope module IF_ID_Register $end
$var wire 1 C ID_FlushIF_i $end
$var wire 1 0 Stall_i $end
$var wire 1 ! clk_i $end
$var wire 1 " rst_i $end
$var wire 32 :" instr_i [31:0] $end
$var wire 32 ;" PC_i [31:0] $end
$var reg 32 <" PC_o [31:0] $end
$var reg 32 =" instr_o [31:0] $end
$upscope $end
$scope module Imm_Gen $end
$var wire 32 >" instr_i [31:0] $end
$var reg 32 ?" imm_o [31:0] $end
$upscope $end
$scope module Instruction_Memory $end
$var wire 32 @" instr_o [31:0] $end
$var wire 32 A" addr_i [31:0] $end
$upscope $end
$scope module MEM_WB_Register $end
$var wire 32 B" ALUResult_i [31:0] $end
$var wire 32 C" MemData_i [31:0] $end
$var wire 1 Y MemtoReg_i $end
$var wire 5 D" RDaddr_i [4:0] $end
$var wire 1 V RegWrite_i $end
$var wire 1 ! clk_i $end
$var wire 1 " rst_i $end
$var reg 32 E" ALUResult_o [31:0] $end
$var reg 32 F" MemData_o [31:0] $end
$var reg 1 > MemtoReg_o $end
$var reg 5 G" RDaddr_o [4:0] $end
$var reg 1 < RegWrite_o $end
$upscope $end
$scope module MUX $end
$var wire 1 P sel $end
$var wire 32 H" src2_i [31:0] $end
$var wire 32 I" src1_i [31:0] $end
$var reg 32 J" mux_o [31:0] $end
$upscope $end
$scope module MUX2 $end
$var wire 1 > sel $end
$var wire 32 K" src1_i [31:0] $end
$var wire 32 L" src2_i [31:0] $end
$var reg 32 M" mux_o [31:0] $end
$upscope $end
$scope module MUX32_ForwardA $end
$var wire 2 N" sel [1:0] $end
$var wire 32 O" src1_i [31:0] $end
$var wire 32 P" src2_i [31:0] $end
$var wire 32 Q" src3_i [31:0] $end
$var reg 32 R" mux_o [31:0] $end
$upscope $end
$scope module MUX32_ForwardB $end
$var wire 2 S" sel [1:0] $end
$var wire 32 T" src1_i [31:0] $end
$var wire 32 U" src2_i [31:0] $end
$var wire 32 V" src3_i [31:0] $end
$var reg 32 W" mux_o [31:0] $end
$upscope $end
$scope module MUX32_PC $end
$var wire 1 C sel $end
$var wire 32 X" src1_i [31:0] $end
$var wire 32 Y" src2_i [31:0] $end
$var reg 32 Z" mux_o [31:0] $end
$upscope $end
$scope module PC $end
$var wire 1 5 PCWrite_i $end
$var wire 1 ! clk_i $end
$var wire 32 [" pc_i [31:0] $end
$var wire 1 " rst_i $end
$var reg 32 \" pc_o [31:0] $end
$upscope $end
$scope module Registers $end
$var wire 5 ]" RDaddr_i [4:0] $end
$var wire 32 ^" RDdata_i [31:0] $end
$var wire 5 _" RS1addr_i [4:0] $end
$var wire 5 `" RS2addr_i [4:0] $end
$var wire 1 < RegWrite_i $end
$var wire 1 ! clk_i $end
$var wire 1 " rst_i $end
$var wire 32 a" RS2data_o [31:0] $end
$var wire 32 b" RS1data_o [31:0] $end
$var integer 32 c" i [31:0] $end
$upscope $end
$upscope $end
$upscope $end
$enddefinitions $end
#0
$dumpvars
bx c"
bx b"
bx a"
bx `"
bx _"
bx ^"
bx ]"
bx \"
bx ["
bx Z"
bx Y"
bx X"
bx W"
bx V"
bx U"
bx T"
bx S"
bx R"
bx Q"
bx P"
bx O"
bx N"
bx M"
bx L"
bx K"
bx J"
bx I"
bx H"
bx G"
bx F"
bx E"
bx D"
bx C"
bx B"
bx A"
bx @"
bx ?"
bx >"
bx ="
bx <"
bx ;"
bx :"
bx 9"
bx 8"
bx 7"
bx 6"
bx 5"
bx 4"
bx 3"
bx 2"
bx 1"
bx 0"
bx /"
bx ."
bx -"
bx ,"
bx +"
bx *"
bx )"
b0 ("
bx '"
bx &"
bx %"
bx $"
bx #"
bx ""
bx !"
bx ~
bx }
bx |
bx {
bx z
bx y
bx x
bx w
bx v
bx u
bx t
b0 s
bx r
bx q
bx p
bx o
bx n
bx0 m
bx l
bx k
b100 j
bx i
bx h
bx g
bx f
bx e
bx d
bx c
bx b
bx a
b0 `
bx _
0^
0]
bx \
x[
xZ
xY
bx X
bx W
xV
bx U
bx T
bx S
bx R
bx Q
xP
xO
xN
xM
bx L
bx K
bx J
bx I
bx H
xG
bx F
bx E
bx D
0C
bx B
bx A
bx @
bx ?
x>
bx =
x<
bx ;
bx :
09
08
07
06
15
bx 4
bx 3
bx 2
01
00
bx /
0.
bx -
bx ,
bx +
bx *
bx )
bx (
b0 '
b11 &
b100000 %
b0 $
b0 #
1"
0!
$end
#6
1.
b0 /
b0 o
b0 Y"
b0 m
b0 _
b0 a
b0 w
b0 e
b0 3
b0 q
b0 0"
b0 b"
b0 2
b0 p
b0 /"
b0 a"
b0 -
b0 ."
b0 ?"
b0 `"
b0 _"
b0 r
b0 &"
b0 %"
b0 )"
b0 +"
b0 *"
b0 ,"
b0 -"
b0 ;
b0 b
b0 J"
b11 *
b11 d
b11 i
b0 T
b0 c
b0 R"
b0 R
b0 y
b0 I"
b0 W"
b0 :
b0 t
b0 C"
b0 4
b0 M"
b0 P"
b0 U"
b0 ^"
b0 S
b0 $"
b0 S"
b0 U
b0 #"
b0 N"
b1100010000000100000110011 ,
b1100010000000100000110011 :"
b1100010000000100000110011 @"
b100 +
b100 Z"
b100 ["
b0 B
b0 n
b0 <"
b0 A
b0 ="
b0 >"
b0 L
b0 x
b0 '"
b0 2"
b0 I
b0 !"
b0 5"
b0 K
b0 ""
b0 3"
b0 F
b0 g
b0 7"
b0 E
b0 f
b0 8"
b0 D
b0 9"
b0 H"
b0 H
b0 6"
b0 T"
b0 J
b0 4"
b0 O"
0P
b0 Q
b0 h
b0 1"
0N
0O
0M
0G
b0 X
b0 |
b0 }
b0 D"
b0 W
b0 u
b0 {
b0 \
b0 v
b0 z
b0 B"
b0 Q"
b0 V"
0Z
0[
0Y
0V
b0 =
b0 ~
b0 G"
b0 ]"
b0 ?
b0 F"
b0 L"
b0 @
b0 E"
b0 K"
0>
0<
b100 )
b100 l
b100 X"
b0 (
b0 k
b0 ;"
b0 A"
b0 \"
b100000 c"
0"
#12
1"
#25
0.
b110000 /
b110000 o
b110000 Y"
b110000 m
b11111111111111111111111111101000 2
b11111111111111111111111111101000 p
b11111111111111111111111111101000 /"
b11111111111111111111111111101000 a"
11
b1 `
b1 s
b1 ("
b1100110000000100000110011 ,
b1100110000000100000110011 :"
b1100110000000100000110011 @"
b1000 +
b1000 Z"
b1000 ["
b11000 -
b11000 ."
b11000 ?"
b11000 `"
b10000 _"
b110011 r
b11000 &"
b10000 %"
b10000 )"
b11000 +"
b10000 *"
b1000 )
b1000 l
b1000 X"
b100 (
b100 k
b100 ;"
b100 A"
b100 \"
b1100010000000100000110011 A
b1100010000000100000110011 ="
b1100010000000100000110011 >"
b1 #
1!
#50
0!
#75
b110010 m
b11111111111111111111111111100111 2
b11111111111111111111111111100111 p
b11111111111111111111111111100111 /"
b11111111111111111111111111100111 a"
b11111111111111111111111111101000 _
b11111111111111111111111111101000 a
b11111111111111111111111111101000 w
b11111111111111111111111111101000 e
b11001 -
b11001 ."
b11001 ?"
b11001 `"
b11001 &"
b11001 +"
b11111111111111111111111111101000 ;
b11111111111111111111111111101000 b
b11111111111111111111111111101000 J"
b11111111111111111111111111101000 R
b11111111111111111111111111101000 y
b11111111111111111111111111101000 I"
b11111111111111111111111111101000 W"
b1101010000000100000110011 ,
b1101010000000100000110011 :"
b1101010000000100000110011 @"
b1100 +
b1100 Z"
b1100 ["
b110110 /
b110110 o
b110110 Y"
b100 B
b100 n
b100 <"
b1100110000000100000110011 A
b1100110000000100000110011 ="
b1100110000000100000110011 >"
b10000 L
b10000 x
b10000 '"
b10000 2"
b11000 I
b11000 !"
b11000 5"
b10000 K
b10000 ""
b10000 3"
b11000 D
b11000 9"
b11000 H"
b11111111111111111111111111101000 H
b11111111111111111111111111101000 6"
b11111111111111111111111111101000 T"
b1 Q
b1 h
b1 1"
1G
b1100 )
b1100 l
b1100 X"
b1000 (
b1000 k
b1000 ;"
b1000 A"
b1000 \"
b10 #
1!
#100
0!
#125
b11111111111111111111111111001111 _
b11111111111111111111111111001111 a
b11111111111111111111111111001111 w
b11111111111111111111111111001111 e
b110100 m
b11111111111111111111111111100110 2
b11111111111111111111111111100110 p
b11111111111111111111111111100110 /"
b11111111111111111111111111100110 a"
b1110010000000100000110011 ,
b1110010000000100000110011 :"
b1110010000000100000110011 @"
b11111111111111111111111111101000 T
b11111111111111111111111111101000 c
b11111111111111111111111111101000 R"
b10 U
b10 #"
b10 N"
b11111111111111111111111111100111 ;
b11111111111111111111111111100111 b
b11111111111111111111111111100111 J"
b11111111111111111111111111100111 R
b11111111111111111111111111100111 y
b11111111111111111111111111100111 I"
b11111111111111111111111111100111 W"
b10000 +
b10000 Z"
b10000 ["
b11010 -
b11010 ."
b11010 ?"
b11010 `"
b11010 &"
b11010 +"
b10000 )
b10000 l
b10000 X"
b1100 (
b1100 k
b1100 ;"
b1100 A"
b1100 \"
b10000 X
b10000 |
b10000 }
b10000 D"
b11111111111111111111111111101000 W
b11111111111111111111111111101000 u
b11111111111111111111111111101000 {
b11111111111111111111111111101000 \
b11111111111111111111111111101000 v
b11111111111111111111111111101000 z
b11111111111111111111111111101000 B"
b11111111111111111111111111101000 Q"
b11111111111111111111111111101000 V"
1V
b11001 I
b11001 !"
b11001 5"
b11001 D
b11001 9"
b11001 H"
b11111111111111111111111111100111 H
b11111111111111111111111111100111 6"
b11111111111111111111111111100111 T"
b111100 /
b111100 o
b111100 Y"
b1000 B
b1000 n
b1000 <"
b1101010000000100000110011 A
b1101010000000100000110011 ="
b1101010000000100000110011 >"
b11 #
1!
#150
0!
#175
b111000 m
b111000 2
b111000 p
b111000 /"
b111000 a"
b11111111111111111111111110110101 _
b11111111111111111111111110110101 a
b11111111111111111111111110110101 w
b11111111111111111111111110110101 e
b11111111111111111111111111101000 3
b11111111111111111111111111101000 q
b11111111111111111111111111101000 0"
b11111111111111111111111111101000 b"
b11100 -
b11100 ."
b11100 ?"
b11100 `"
b11100 &"
b11100 +"
b11111111111111111111111111100110 ;
b11111111111111111111111111100110 b
b11111111111111111111111111100110 J"
b11111111111111111111111111001111 T
b11111111111111111111111111001111 c
b11111111111111111111111111001111 R"
b11111111111111111111111111100110 R
b11111111111111111111111111100110 y
b11111111111111111111111111100110 I"
b11111111111111111111111111100110 W"
b11111111111111111111111111101000 4
b11111111111111111111111111101000 M"
b11111111111111111111111111101000 P"
b11111111111111111111111111101000 U"
b11111111111111111111111111101000 ^"
b1000000000010110000100011 ,
b1000000000010110000100011 :"
b1000000000010110000100011 @"
b10100 +
b10100 Z"
b10100 ["
b1000100 /
b1000100 o
b1000100 Y"
b1100 B
b1100 n
b1100 <"
b1110010000000100000110011 A
b1110010000000100000110011 ="
b1110010000000100000110011 >"
b11010 I
b11010 !"
b11010 5"
b11010 D
b11010 9"
b11010 H"
b11111111111111111111111111100110 H
b11111111111111111111111111100110 6"
b11111111111111111111111111100110 T"
b11111111111111111111111111100111 W
b11111111111111111111111111100111 u
b11111111111111111111111111100111 {
b11111111111111111111111111001111 \
b11111111111111111111111111001111 v
b11111111111111111111111111001111 z
b11111111111111111111111111001111 B"
b11111111111111111111111111001111 Q"
b11111111111111111111111111001111 V"
b10000 =
b10000 ~
b10000 G"
b10000 ]"
b11111111111111111111111111101000 @
b11111111111111111111111111101000 E"
b11111111111111111111111111101000 K"
1<
b10100 )
b10100 l
b10100 X"
b10000 (
b10000 k
b10000 ;"
b10000 A"
b10000 \"
b100 #
1!
#200
0!
#225
b0 3
b0 q
b0 0"
b0 b"
b11111111111111111111111111101101 _
b11111111111111111111111111101101 a
b11111111111111111111111111101101 w
b11111111111111111111111111101101 e
b110000 m
b11111111111111111111111111001111 2
b11111111111111111111111111001111 p
b11111111111111111111111111001111 /"
b11111111111111111111111111001111 a"
18
01
1^
b10 `
b10 s
b10 ("
b1000001111011111000000010110011 ,
b1000001111011111000000010110011 :"
b1000001111011111000000010110011 @"
b11111111111111111111111111001111 4
b11111111111111111111111111001111 M"
b11111111111111111111111111001111 P"
b11111111111111111111111111001111 U"
b11111111111111111111111111001111 ^"
b111000 ;
b111000 b
b111000 J"
b111000 R
b111000 y
b111000 I"
b111000 W"
b11111111111111111111111110110101 T
b11111111111111111111111110110101 c
b11111111111111111111111110110101 R"
b11000 +
b11000 Z"
b11000 ["
b11000 -
b11000 ."
b11000 ?"
b10000 `"
b0 _"
b100011 r
b10000 &"
b0 %"
b11000 )"
b10000 +"
b0 *"
b10 ,"
b11000 )
b11000 l
b11000 X"
b10100 (
b10100 k
b10100 ;"
b10100 A"
b10100 \"
b11111111111111111111111111001111 @
b11111111111111111111111111001111 E"
b11111111111111111111111111001111 K"
b11111111111111111111111111100110 W
b11111111111111111111111111100110 u
b11111111111111111111111111100110 {
b11111111111111111111111110110101 \
b11111111111111111111111110110101 v
b11111111111111111111111110110101 z
b11111111111111111111111110110101 B"
b11111111111111111111111110110101 Q"
b11111111111111111111111110110101 V"
b11100 I
b11100 !"
b11100 5"
b11100 D
b11100 9"
b11100 H"
b111000 H
b111000 6"
b111000 T"
b11111111111111111111111111101000 J
b11111111111111111111111111101000 4"
b11111111111111111111111111101000 O"
b1000000 /
b1000000 o
b1000000 Y"
b10000 B
b10000 n
b10000 <"
b1000000000010110000100011 A
b1000000000010110000100011 ="
b1000000000010110000100011 >"
b101 #
1!
#250
0!
#275
b100000111100 m
b111110 3
b111110 q
b111110 0"
b111110 b"
08
11
0^
b1 `
b1 s
b1 ("
b11000 _
b11000 a
b11000 w
b11000 e
b111100 2
b111100 p
b111100 /"
b111100 a"
b10000011110 -
b10000011110 ."
b10000011110 ?"
b11110 `"
b11111 _"
b110011 r
b11110 &"
b11111 %"
b1 )"
b11110 +"
b11111 *"
b0 ,"
b100000 -"
b10 S
b10 $"
b10 S"
b0 U
b0 #"
b0 N"
b11000 ;
b11000 b
b11000 J"
b0 T
b0 c
b0 R"
b11111111111111111111111111101101 R
b11111111111111111111111111101101 y
b11111111111111111111111111101101 I"
b11111111111111111111111111101101 W"
b11111111111111111111111110110101 4
b11111111111111111111111110110101 M"
b11111111111111111111111110110101 P"
b11111111111111111111111110110101 U"
b11111111111111111111111110110101 ^"
b1111000001000000100110011 ,
b1111000001000000100110011 :"
b1111000001000000100110011 @"
b11100 +
b11100 Z"
b11100 ["
b100001010000 /
b100001010000 o
b100001010000 Y"
b10100 B
b10100 n
b10100 <"
b1000001111011111000000010110011 A
b1000001111011111000000010110011 ="
b1000001111011111000000010110011 >"
b11000 L
b11000 x
b11000 '"
b11000 2"
b10000 I
b10000 !"
b10000 5"
b0 K
b0 ""
b0 3"
b10 F
b10 g
b10 7"
b11000 D
b11000 9"
b11000 H"
b11111111111111111111111111001111 H
b11111111111111111111111111001111 6"
b11111111111111111111111111001111 T"
b0 J
b0 4"
b0 O"
1P
b10 Q
b10 h
b10 1"
1N
0G
b111000 W
b111000 u
b111000 {
b11111111111111111111111111101101 \
b11111111111111111111111111101101 v
b11111111111111111111111111101101 z
b11111111111111111111111111101101 B"
b11111111111111111111111111101101 Q"
b11111111111111111111111111101101 V"
b11111111111111111111111110110101 @
b11111111111111111111111110110101 E"
b11111111111111111111111110110101 K"
b11100 )
b11100 l
b11100 X"
b11000 (
b11000 k
b11000 ;"
b11000 A"
b11000 \"
b110 #
1!
#300
0!
#325
b10 _
b10 a
b10 w
b10 e
b111100 m
b0 3
b0 q
b0 0"
b0 b"
b1000000001000010101000110010011 ,
b1000000001000010101000110010011 :"
b1000000001000010101000110010011 @"
b11111111111111111111111111101101 4
b11111111111111111111111111101101 M"
b11111111111111111111111111101101 P"
b11111111111111111111111111101101 U"
b11111111111111111111111111101101 ^"
b0 S
b0 $"
b0 S"
b111100 R
b111100 y
b111100 I"
b111100 W"
b111110 T
b111110 c
b111110 R"
b111100 ;
b111100 b
b111100 J"
b100 *
b100 d
b100 i
b100000 +
b100000 Z"
b100000 ["
b11110 -
b11110 ."
b11110 ?"
b1 _"
b1 %"
b10 )"
b1 *"
b0 -"
b100000 )
b100000 l
b100000 X"
b11100 (
b11100 k
b11100 ;"
b11100 A"
b11100 \"
b11111111111111111111111111101101 @
b11111111111111111111111111101101 E"
b11111111111111111111111111101101 K"
b11000 X
b11000 |
b11000 }
b11000 D"
b11111111111111111111111111101101 W
b11111111111111111111111111101101 u
b11111111111111111111111111101101 {
b11000 \
b11000 v
b11000 z
b11000 B"
b11000 Q"
b11000 V"
1Z
0V
b1 L
b1 x
b1 '"
b1 2"
b11110 I
b11110 !"
b11110 5"
b11111 K
b11111 ""
b11111 3"
b0 F
b0 g
b0 7"
b100000 E
b100000 f
b100000 8"
b10000011110 D
b10000011110 9"
b10000011110 H"
b111100 H
b111100 6"
b111100 T"
b111110 J
b111110 4"
b111110 O"
0P
b1 Q
b1 h
b1 1"
0N
1G
b1010100 /
b1010100 o
b1010100 Y"
b11000 B
b11000 n
b11000 <"
b1111000001000000100110011 A
b1111000001000000100110011 ="
b1111000001000000100110011 >"
b111 #
1!
#350
0!
#375
1.
b100000000100 m
b0 2
b0 p
b0 /"
b0 a"
1^
b0 `
b0 s
b0 ("
b111110 _
b111110 a
b111110 w
b111110 e
b10000000010 -
b10000000010 ."
b10000000010 ?"
b10 `"
b10 _"
b10011 r
b10 &"
b10 %"
b11 )"
b10 +"
b10 *"
b101 ,"
b100000 -"
b11 *
b11 d
b11 i
b10 T
b10 c
b10 R"
b11000 4
b11000 M"
b11000 P"
b11000 U"
b11000 ^"
b10 U
b10 #"
b10 N"
b1000000000011010010011 ,
b1000000000011010010011 :"
b1000000000011010010011 @"
b100100 +
b100100 Z"
b100100 ["
b100000100000 /
b100000100000 o
b100000100000 Y"
b11100 B
b11100 n
b11100 <"
b1000000001000010101000110010011 A
b1000000001000010101000110010011 ="
b1000000001000010101000110010011 >"
b10 L
b10 x
b10 '"
b10 2"
b1 K
b1 ""
b1 3"
b0 E
b0 f
b0 8"
b11110 D
b11110 9"
b11110 H"
b0 J
b0 4"
b0 O"
b1 X
b1 |
b1 }
b1 D"
b111100 W
b111100 u
b111100 {
b10 \
b10 v
b10 z
b10 B"
b10 Q"
b10 V"
0Z
1V
b11000 =
b11000 ~
b11000 G"
b11000 ]"
b11000 @
b11000 E"
b11000 K"
0<
b100100 )
b100100 l
b100100 X"
b100000 (
b100000 k
b100000 ;"
b100000 A"
b100000 \"
b1000 #
1!
#400
0!
#425
b1111 _
b1111 a
b1111 w
b1111 e
b100 m
b110111110001011110110011 ,
b110111110001011110110011 :"
b110111110001011110110011 @"
b10 4
b10 M"
b10 P"
b10 U"
b10 ^"
b111110 T
b111110 c
b111110 R"
b10 S
b10 $"
b10 S"
b111110 R
b111110 y
b111110 I"
b111110 W"
b10000000010 ;
b10000000010 b
b10000000010 J"
b111 *
b111 d
b111 i
b101000 +
b101000 Z"
b101000 ["
b10 -
b10 ."
b10 ?"
b0 _"
b0 %"
b1101 )"
b0 *"
b0 ,"
b0 -"
b101000 )
b101000 l
b101000 X"
b100100 (
b100100 k
b100100 ;"
b100100 A"
b100100 \"
b1 =
b1 ~
b1 G"
b1 ]"
b10 @
b10 E"
b10 K"
1<
b10 X
b10 |
b10 }
b10 D"
b111110 \
b111110 v
b111110 z
b111110 B"
b111110 Q"
b111110 V"
b11 L
b11 x
b11 '"
b11 2"
b10 I
b10 !"
b10 5"
b10 K
b10 ""
b10 3"
b101 F
b101 g
b101 7"
b100000 E
b100000 f
b100000 8"
b10000000010 D
b10000000010 9"
b10000000010 H"
b0 H
b0 6"
b0 T"
1P
b0 Q
b0 h
b0 1"
b100100 /
b100100 o
b100100 Y"
b100000 B
b100000 n
b100000 <"
b1000000000011010010011 A
b1000000000011010010011 ="
b1000000000011010010011 >"
b1001 #
1!
#450
0!
#475
0.
b11010 m
b111100 3
b111100 q
b111100 0"
b111100 b"
0^
b1 `
b1 s
b1 ("
b10 _
b10 a
b10 w
b10 e
b0 2
b0 p
b0 /"
b0 a"
b1101 -
b1101 ."
b1101 ?"
b1101 `"
b11110 _"
b110011 r
b1101 &"
b11110 %"
b1111 )"
b1101 +"
b11110 *"
b1 ,"
b11 *
b11 d
b11 i
b10 ;
b10 b
b10 J"
b0 T
b0 c
b0 R"
b1 S
b1 $"
b1 S"
b0 U
b0 #"
b0 N"
b111110 4
b111110 M"
b111110 P"
b111110 U"
b111110 ^"
b1100000010101000100011 ,
b1100000010101000100011 :"
b1100000010101000100011 @"
b101100 +
b101100 Z"
b101100 ["
b111110 /
b111110 o
b111110 Y"
b100100 B
b100100 n
b100100 <"
b110111110001011110110011 A
b110111110001011110110011 ="
b110111110001011110110011 >"
b1101 L
b1101 x
b1101 '"
b1101 2"
b0 K
b0 ""
b0 3"
b0 F
b0 g
b0 7"
b0 E
b0 f
b0 8"
b10 D
b10 9"
b10 H"
b11 X
b11 |
b11 }
b11 D"
b111110 W
b111110 u
b111110 {
b1111 \
b1111 v
b1111 z
b1111 B"
b1111 Q"
b1111 V"
b10 =
b10 ~
b10 G"
b10 ]"
b111110 @
b111110 E"
b111110 K"
b101100 )
b101100 l
b101100 X"
b101000 (
b101000 k
b101000 ;"
b101000 A"
b101000 \"
b1010 #
1!
#500
0!
