lab2/lab2/log/waveform_1.vcd
$date
	Sat Nov 18 12:05:38 2023
$end
$version
	Icarus Verilog
$end
$timescale
	1s
$end
$scope module TestBench $end
$var reg 1 ! Clk $end
$var reg 1 " Reset $end
$var integer 32 # counter [31:0] $end
$var integer 32 $ flush [31:0] $end
$var integer 32 % i [31:0] $end
$var integer 32 & outfile [31:0] $end
$var integer 32 ' stall [31:0] $end
$scope module CPU $end
$var wire 1 ! clk_i $end
$var wire 1 " rst_i $end
$var wire 32 ( pc_o [31:0] $end
$var wire 32 ) pc_i [31:0] $end
$var wire 3 * operation [2:0] $end
$var wire 32 + muxPCResult [31:0] $end
$var wire 32 , instr [31:0] $end
$var wire 32 - immediate [31:0] $end
$var wire 1 . equal $end
$var wire 32 / branchAddr [31:0] $end
$var wire 1 0 Stall $end
$var wire 1 1 RegWrite $end
$var wire 32 2 RS2data [31:0] $end
$var wire 32 3 RS1data [31:0] $end
$var wire 32 4 RDdata [31:0] $end
$var wire 1 5 PCWrite $end
$var wire 1 6 NoOp $end
$var wire 1 7 MemtoReg $end
$var wire 1 8 MemWrite $end
$var wire 1 9 MemRead $end
$var wire 32 : MemData [31:0] $end
$var wire 32 ; MUXResult [31:0] $end
$var wire 1 < MEM_WB_RegWrite $end
$var wire 5 = MEM_WB_RDaddr [4:0] $end
$var wire 1 > MEM_WB_MemtoReg $end
$var wire 32 ? MEM_WB_MemData [31:0] $end
$var wire 32 @ MEM_WB_ALUResult [31:0] $end
$var wire 32 A IF_ID_instr [31:0] $end
$var wire 32 B IF_ID_PC [31:0] $end
$var wire 1 C ID_FlushIF $end
$var wire 32 D ID_EX_immediate [31:0] $end
$var wire 7 E ID_EX_func7 [6:0] $end
$var wire 3 F ID_EX_func3 [2:0] $end
$var wire 1 G ID_EX_RegWrite $end
$var wire 32 H ID_EX_RS2data [31:0] $end
$var wire 5 I ID_EX_RS2addr [4:0] $end
$var wire 32 J ID_EX_RS1data [31:0] $end
$var wire 5 K ID_EX_RS1addr [4:0] $end
$var wire 5 L ID_EX_RDaddr [4:0] $end
$var wire 1 M ID_EX_MemtoReg $end
$var wire 1 N ID_EX_MemWrite $end
$var wire 1 O ID_EX_MemRead $end
$var wire 1 P ID_EX_ALUSrc $end
$var wire 2 Q ID_EX_ALUOp [1:0] $end
$var wire 32 R ForwardBData [31:0] $end
$var wire 2 S ForwardB [1:0] $end
$var wire 32 T ForwardAData [31:0] $end
$var wire 2 U ForwardA [1:0] $end
$var wire 1 V EX_MEM_RegWrite $end
$var wire 32 W EX_MEM_RS2data [31:0] $end
$var wire 5 X EX_MEM_RDaddr [4:0] $end
$var wire 1 Y EX_MEM_MemtoReg $end
$var wire 1 Z EX_MEM_MemWrite $end
$var wire 1 [ EX_MEM_MemRead $end
$var wire 32 \ EX_MEM_ALUResult [31:0] $end
$var wire 1 ] Branch $end
$var wire 1 ^ ALUSrc $end
$var wire 32 _ ALUResult [31:0] $end
$var wire 2 ` ALUOp [1:0] $end
$scope module ALU $end
$var wire 32 a ALUResult_o [31:0] $end
$var wire 32 b src2_i [31:0] $end
$var wire 32 c src1_i [31:0] $end
$var wire 3 d op_i [2:0] $end
$var reg 32 e tmpResult [31:0] $end
$upscope $end
$scope module ALU_Control $end
$var wire 7 f funct7_i [31:25] $end
$var wire 3 g funct3_i [14:12] $end
$var wire 2 h ALUOp_i [1:0] $end
$var reg 3 i op_o [2:0] $end
$upscope $end
$scope module Add $end
$var wire 32 j src2_i [31:0] $end
$var wire 32 k src1_i [31:0] $end
$var wire 32 l adder_o [31:0] $end
$upscope $end
$scope module Add2 $end
$var wire 32 m src1_i [31:0] $end
$var wire 32 n src2_i [31:0] $end
$var wire 32 o adder_o [31:0] $end
$upscope $end
$scope module Branch_Detection $end
$var wire 32 p src2_i [31:0] $end
$var wire 32 q src1_i [31:0] $end
$var wire 1 ] Branch_i $end
$var reg 1 C flush_o $end
$var reg 1 . is_equal_o $end
$upscope $end
$scope module Control $end
$var wire 7 r opcode_i [6:0] $end
$var wire 1 6 NoOp_i $end
$var reg 2 s ALUOp_o [1:0] $end
$var reg 1 ^ ALUSrc_o $end
$var reg 1 ] Branch_o $end
$var reg 1 9 MemRead_o $end
$var reg 1 8 MemWrite_o $end
$var reg 1 7 MemtoReg_o $end
$var reg 1 1 RegWrite_o $end
$upscope $end
$scope module Data_Memory $end
$var wire 1 ! clk_i $end
$var wire 32 t data_o [31:0] $end
$var wire 32 u data_i [31:0] $end
$var wire 32 v addr_i [31:0] $end
$var wire 1 Z MemWrite_i $end
$var wire 1 [ MemRead_i $end
$upscope $end
$scope module EX_MEM_Register $end
$var wire 32 w ALUResult_i [31:0] $end
$var wire 1 ! clk_i $end
$var wire 1 " rst_i $end
$var wire 1 G RegWrite_i $end
$var wire 5 x RDaddr_i [4:0] $end
$var wire 1 M MemtoReg_i $end
$var wire 1 N MemWrite_i $end
$var wire 1 O MemRead_i $end
$var wire 32 y ForwardBData_i [31:0] $end
$var reg 32 z ALUResult_o [31:0] $end
$var reg 32 { ForwardBData_o [31:0] $end
$var reg 1 [ MemRead_o $end
$var reg 1 Z MemWrite_o $end
$var reg 1 Y MemtoReg_o $end
$var reg 5 | RDaddr_o [4:0] $end
$var reg 1 V RegWrite_o $end
$upscope $end
$scope module Forwarding $end
$var wire 5 } EX_MEM_RDaddr_i [4:0] $end
$var wire 1 V EX_MEM_RegWrite_i $end
$var wire 1 < MEM_WB_RegWrite_i $end
$var wire 5 ~ MEM_WB_RDaddr_i [4:0] $end
$var wire 5 !" ID_EX_RS2addr_i [4:0] $end
$var wire 5 "" ID_EX_RS1addr_i [4:0] $end
$var reg 2 #" ForwardA_o [1:0] $end
$var reg 2 $" ForwardB_o [1:0] $end
$upscope $end
$scope module Hazard_Detection $end
$var wire 5 %" RS1addr_i [4:0] $end
$var wire 5 &" RS2addr_i [4:0] $end
$var wire 1 " rst_i $end
$var wire 5 '" ID_EX_RDaddr_i [4:0] $end
$var wire 1 O ID_EX_MemRead_i $end
$var reg 1 6 NoOp_o $end
$var reg 1 5 PCWrite_o $end
$var reg 1 0 Stall_o $end
$upscope $end
$scope module ID_EX_Register $end
$var wire 2 (" ALUOp_i [1:0] $end
$var wire 1 ^ ALUSrc_i $end
$var wire 1 9 MemRead_i $end
$var wire 1 8 MemWrite_i $end
$var wire 1 7 MemtoReg_i $end
$var wire 5 )" RDaddr_i [4:0] $end
$var wire 5 *" RS1addr_i [4:0] $end
$var wire 5 +" RS2addr_i [4:0] $end
$var wire 1 1 RegWrite_i $end
$var wire 1 ! clk_i $end
$var wire 3 ," func3_i [2:0] $end
$var wire 7 -" func7_i [6:0] $end
$var wire 1 " rst_i $end
$var wire 32 ." immediate_i [31:0] $end
$var wire 32 /" RS2data_i [31:0] $end
$var wire 32 0" RS1data_i [31:0] $end
$var reg 2 1" ALUOp_o [1:0] $end
$var reg 1 P ALUSrc_o $end
$var reg 1 O MemRead_o $end
$var reg 1 N MemWrite_o $end
$var reg 1 M MemtoReg_o $end
$var reg 5 2" RDaddr_o [4:0] $end
$var reg 5 3" RS1addr_o [4:0] $end
$var reg 32 4" RS1data_o [31:0] $end
$var reg 5 5" RS2addr_o [4:0] $end
$var reg 32 6" RS2data_o [31:0] $end
$var reg 1 G RegWrite_o $end
$var reg 3 7" func3_o [2:0] $end
$var reg 7 8" func7_o [6:0] $end
$var reg 32 9" immediate_o [31:0] $end
$upscope $end
$scope module IF_ID_Register $end
$var wire 1 C ID_FlushIF_i $end
$var wire 1 0 Stall_i $end
$var wire 1 ! clk_i $end
$var wire 1 " rst_i $end
$var wire 32 :" instr_i [31:0] $end
$var wire 32 ;" PC_i [31:0] $end
$var reg 32 <" PC_o [31:0] $end
$var reg 32 =" instr_o [31:0] $end
$upscope $end
$scope module Imm_Gen $end
$var wire 32 >" instr_i [31:0] $end
$var reg 32 ?" imm_o [31:0] $end
$upscope $end
$scope module Instruction_Memory $end
$var wire 32 @" instr_o [31:0] $end
$var wire 32 A" addr_i [31:0] $end
$upscope $end
$scope module MEM_WB_Register $end
$var wire 32 B" ALUResult_i [31:0] $end
$var wire 32 C" MemData_i [31:0] $end
$var wire 1 Y MemtoReg_i $end
$var wire 5 D" RDaddr_i [4:0] $end
$var wire 1 V RegWrite_i $end
$var wire 1 ! clk_i $end
$var wire 1 " rst_i $end
$var reg 32 E" ALUResult_o [31:0] $end
$var reg 32 F" MemData_o [31:0] $end
$var reg 1 > MemtoReg_o $end
$var reg 5 G" RDaddr_o [4:0] $end
$var reg 1 < RegWrite_o $end
$upscope $end
$scope module MUX $end
$var wire 1 P sel $end
$var wire 32 H" src2_i [31:0] $end
$var wire 32 I" src1_i [31:0] $end
$var reg 32 J" mux_o [31:0] $end
$upscope $end
$scope module MUX2 $end
$var wire 1 > sel $end
$var wire 32 K" src1_i [31:0] $end
$var wire 32 L" src2_i [31:0] $end
$var reg 32 M" mux_o [31:0] $end
$upscope $end
$scope module MUX32_ForwardA $end
$var wire 2 N" sel [1:0] $end
$var wire 32 O" src1_i [31:0] $end
$var wire 32 P" src2_i [31:0] $end
$var wire 32 Q" src3_i [31:0] $end
$var reg 32 R" mux_o [31:0] $end
$upscope $end
$scope module MUX32_ForwardB $end
$var wire 2 S" sel [1:0] $end
$var wire 32 T" src1_i [31:0] $end
$var wire 32 U" src2_i [31:0] $end
$var wire 32 V" src3_i [31:0] $end
$var reg 32 W" mux_o [31:0] $end
$upscope $end
$scope module MUX32_PC $end
$var wire 1 C sel $end
$var wire 32 X" src1_i [31:0] $end
$var wire 32 Y" src2_i [31:0] $end
$var reg 32 Z" mux_o [31:0] $end
$upscope $end
$scope module PC $end
$var wire 1 5 PCWrite_i $end
$var wire 1 ! clk_i $end
$var wire 32 [" pc_i [31:0] $end
$var wire 1 " rst_i $end
$var reg 32 \" pc_o [31:0] $end
$upscope $end
$scope module Registers $end
$var wire 5 ]" RDaddr_i [4:0] $end
$var wire 32 ^" RDdata_i [31:0] $end
$var wire 5 _" RS1addr_i [4:0] $end
$var wire 5 `" RS2addr_i [4:0] $end
$var wire 1 < RegWrite_i $end
$var wire 1 ! clk_i $end
$var wire 1 " rst_i $end
$var wire 32 a" RS2data_o [31:0] $end
$var wire 32 b" RS1data_o [31:0] $end
$var integer 32 c" i [31:0] $end
$upscope $end
$upscope $end
$upscope $end
$enddefinitions $end
#0
$dumpvars
bx c"
bx b"
bx a"
bx `"
bx _"
bx ^"
bx ]"
bx \"
bx ["
bx Z"
bx Y"
bx X"
bx W"
bx V"
bx U"
bx T"
bx S"
bx R"
bx Q"
bx P"
bx O"
bx N"
bx M"
bx L"
bx K"
bx J"
bx I"
bx H"
bx G"
bx F"
bx E"
bx D"
bx C"
bx B"
bx A"
bx @"
bx ?"
bx >"
bx ="
bx <"
bx ;"
bx :"
bx 9"
bx 8"
bx 7"
bx 6"
bx 5"
bx 4"
bx 3"
bx 2"
bx 1"
bx 0"
bx /"
bx ."
bx -"
bx ,"
bx +"
bx *"
bx )"
b0 ("
bx '"
bx &"
bx %"
bx $"
bx #"
bx ""
bx !"
bx ~
bx }
bx |
bx {
bx z
bx y
bx x
bx w
bx v
bx u
bx t
b0 s
bx r
bx q
bx p
bx o
bx n
bx0 m
bx l
bx k
b100 j
bx i
bx h
bx g
bx f
bx e
bx d
bx c
bx b
bx a
b0 `
bx _
0^
0]
bx \
x[
xZ
xY
bx X
bx W
xV
bx U
bx T
bx S
bx R
bx Q
xP
xO
xN
xM
bx L
bx K
bx J
bx I
bx H
xG
bx F
bx E
bx D
0C
bx B
bx A
bx @
bx ?
x>
bx =
x<
bx ;
bx :
09
08
07
06
15
bx 4
bx 3
bx 2
01
00
bx /
0.
bx -
bx ,
bx +
bx *
bx )
bx (
b0 '
b11 &
b100000 %
b0 $
b0 #
1"
0!
$end
#6
1.
b0 /
b0 o
b0 Y"
b0 m
b0 _
b0 a
b0 w
b0 e
b0 3
b0 q
b0 0"
b0 b"
b0 2
b0 p
b0 /"
b0 a"
b0 -
b0 ."
b0 ?"
b0 `"
b0 _"
b0 r
b0 &"
b0 %"
b0 )"
b0 +"
b0 *"
b0 ,"
b0 -"
b0 ;
b0 b
b0 J"
b11 *
b11 d
b11 i
b0 T
b0 c
b0 R"
b0 R
b0 y
b0 I"
b0 W"
b0 :
b0 t
b0 C"
b0 4
b0 M"
b0 P"
b0 U"
b0 ^"
b0 S
b0 $"
b0 S"
b0 U
b0 #"
b0 N"
b101000000000001000010011 ,
b101000000000001000010011 :"
b101000000000001000010011 @"
b100 +
b100 Z"
b100 ["
b0 B
b0 n
b0 <"
b0 A
b0 ="
b0 >"
b0 L
b0 x
b0 '"
b0 2"
b0 I
b0 !"
b0 5"
b0 K
b0 ""
b0 3"
b0 F
b0 g
b0 7"
b0 E
b0 f
b0 8"
b0 D
b0 9"
b0 H"
b0 H
b0 6"
b0 T"
b0 J
b0 4"
b0 O"
0P
b0 Q
b0 h
b0 1"
0N
0O
0M
0G
b0 X
b0 |
b0 }
b0 D"
b0 W
b0 u
b0 {
b0 \
b0 v
b0 z
b0 B"
b0 Q"
b0 V"
0Z
0[
0Y
0V
b0 =
b0 ~
b0 G"
b0 ]"
b0 ?
b0 F"
b0 L"
b0 @
b0 E"
b0 K"
0>
0<
b100 )
b100 l
b100 X"
b0 (
b0 k
b0 ;"
b0 A"
b0 \"
b100000 c"
0"
#12
1"
#25
b10100 /
b10100 o
b10100 Y"
b10100 m
11
1^
b110000000000001010010011 ,
b110000000000001010010011 :"
b110000000000001010010011 @"
b1000 +
b1000 Z"
b1000 ["
b1010 -
b1010 ."
b1010 ?"
b1010 `"
b10011 r
b1010 &"
b100 )"
b1010 +"
b1000 )
b1000 l
b1000 X"
b100 (
b100 k
b100 ;"
b100 A"
b100 \"
b101000000000001000010011 A
b101000000000001000010011 ="
b101000000000001000010011 >"
b1 #
1!
#50
0!
#75
b11000 m
b1010 _
b1010 a
b1010 w
b1010 e
b1100 -
b1100 ."
b1100 ?"
b1100 `"
b1100 &"
b101 )"
b1100 +"
b1010 ;
b1010 b
b1010 J"
b11111111001100000000001100010011 ,
b11111111001100000000001100010011 :"
b11111111001100000000001100010011 @"
b1100 +
b1100 Z"
b1100 ["
b11100 /
b11100 o
b11100 Y"
b100 B
b100 n
b100 <"
b110000000000001010010011 A
b110000000000001010010011 ="
b110000000000001010010011 >"
b100 L
b100 x
b100 '"
b100 2"
b1010 I
b1010 !"
b1010 5"
b1010 D
b1010 9"
b1010 H"
1P
1G
b1100 )
b1100 l
b1100 X"
b1000 (
b1000 k
b1000 ;"
b1000 A"
b1000 \"
b10 #
1!
#100
0!
#125
b1100 _
b1100 a
b1100 w
b1100 e
b11111111111111111111111111100110 m
b1000000000000001110010011 ,
b1000000000000001110010011 :"
b1000000000000001110010011 @"
b1100 ;
b1100 b
b1100 J"
b10000 +
b10000 Z"
b10000 ["
b11111111111111111111111111110011 -
b11111111111111111111111111110011 ."
b11111111111111111111111111110011 ?"
b10011 `"
b10011 &"
b110 )"
b10011 +"
b1111111 -"
b10000 )
b10000 l
b10000 X"
b1100 (
b1100 k
b1100 ;"
b1100 A"
b1100 \"
b100 X
b100 |
b100 }
b100 D"
b1010 \
b1010 v
b1010 z
b1010 B"
b1010 Q"
b1010 V"
1V
b101 L
b101 x
b101 '"
b101 2"
b1100 I
b1100 !"
b1100 5"
b1100 D
b1100 9"
b1100 H"
b11111111111111111111111111101110 /
b11111111111111111111111111101110 o
b11111111111111111111111111101110 Y"
b1000 B
b1000 n
b1000 <"
b11111111001100000000001100010011 A
b11111111001100000000001100010011 ="
b11111111001100000000001100010011 >"
b11 #
1!
#150
0!
#175
b100000 m
b11111111111111111111111111110011 _
b11111111111111111111111111110011 a
b11111111111111111111111111110011 w
b11111111111111111111111111110011 e
b10000 -
b10000 ."
b10000 ?"
b10000 `"
b10000 &"
b111 )"
b10000 +"
b0 -"
b11111111111111111111111111110011 ;
b11111111111111111111111111110011 b
b11111111111111111111111111110011 J"
b1010 4
b1010 M"
b1010 P"
b1010 U"
b1010 ^"
b10010000000011 ,
b10010000000011 :"
b10010000000011 @"
b10100 +
b10100 Z"
b10100 ["
b101100 /
b101100 o
b101100 Y"
b1100 B
b1100 n
b1100 <"
b1000000000000001110010011 A
b1000000000000001110010011 ="
b1000000000000001110010011 >"
b110 L
b110 x
b110 '"
b110 2"
b10011 I
b10011 !"
b10011 5"
b1111111 E
b1111111 f
b1111111 8"
b11111111111111111111111111110011 D
b11111111111111111111111111110011 9"
b11111111111111111111111111110011 H"
b101 X
b101 |
b101 }
b101 D"
b1100 \
b1100 v
b1100 z
b1100 B"
b1100 Q"
b1100 V"
b100 =
b100 ~
b100 G"
b100 ]"
b1010 @
b1010 E"
b1010 K"
1<
b10100 )
b10100 l
b10100 X"
b10000 (
b10000 k
b10000 ;"
b10000 A"
b10000 \"
b100 #
1!
#200
0!
#225
b10000 _
b10000 a
b10000 w
b10000 e
b0 m
19
17
b10 `
b10 s
b10 ("
b10000000010010010000011 ,
b10000000010010010000011 :"
b10000000010010010000011 @"
b1100 4
b1100 M"
b1100 P"
b1100 U"
b1100 ^"
b10000 ;
b10000 b
b10000 J"
b11000 +
b11000 Z"
b11000 ["
b0 -
b0 ."
b0 ?"
b0 `"
b11 r
b0 &"
b1000 )"
b0 +"
b10 ,"
b11000 )
b11000 l
b11000 X"
b10100 (
b10100 k
b10100 ;"
b10100 A"
b10100 \"
b101 =
b101 ~
b101 G"
b101 ]"
b1100 @
b1100 E"
b1100 K"
b110 X
b110 |
b110 }
b110 D"
b11111111111111111111111111110011 \
b11111111111111111111111111110011 v
b11111111111111111111111111110011 z
b11111111111111111111111111110011 B"
b11111111111111111111111111110011 Q"
b11111111111111111111111111110011 V"
b111 L
b111 x
b111 '"
b111 2"
b10000 I
b10000 !"
b10000 5"
b0 E
b0 f
b0 8"
b10000 D
b10000 9"
b10000 H"
b10000 /
b10000 o
b10000 Y"
b10000 B
b10000 n
b10000 <"
b10010000000011 A
b10010000000011 ="
b10010000000011 >"
b101 #
1!
#250
0!
#275
0.
b1000 m
b1010 2
b1010 p
b1010 /"
b1010 a"
b0 _
b0 a
b0 w
b0 e
b100 -
b100 ."
b100 ?"
b100 `"
b100 &"
b1001 )"
b100 +"
b0 ;
b0 b
b0 J"
b11111111111111111111111111110011 4
b11111111111111111111111111110011 M"
b11111111111111111111111111110011 P"
b11111111111111111111111111110011 U"
b11111111111111111111111111110011 ^"
b100000000010010100000011 ,
b100000000010010100000011 :"
b100000000010010100000011 @"
b11100 +
b11100 Z"
b11100 ["
b11100 /
b11100 o
b11100 Y"
b10100 B
b10100 n
b10100 <"
b10000000010010010000011 A
b10000000010010010000011 ="
b10000000010010010000011 >"
b1000 L
b1000 x
b1000 '"
b1000 2"
b0 I
b0 !"
b0 5"
b10 F
b10 g
b10 7"
b0 D
b0 9"
b0 H"
b10 Q
b10 h
b10 1"
1O
1M
b111 X
b111 |
b111 }
b111 D"
b10000 \
b10000 v
b10000 z
b10000 B"
b10000 Q"
b10000 V"
b110 =
b110 ~
b110 G"
b110 ]"
b11111111111111111111111111110011 @
b11111111111111111111111111110011 E"
b11111111111111111111111111110011 K"
b11100 )
b11100 l
b11100 X"
b11000 (
b11000 k
b11000 ;"
b11000 A"
b11000 \"
b110 #
1!
#300
0!
#325
1.
b100 _
b100 a
b100 w
b100 e
b10000 m
b0 2
b0 p
b0 /"
b0 a"
b11000101010000000100011 ,
b11000101010000000100011 :"
b11000101010000000100011 @"
b10000 4
b10000 M"
b10000 P"
b10000 U"
b10000 ^"
b101 :
b101 t
b101 C"
b100 ;
b100 b
b100 J"
b1010 R
b1010 y
b1010 I"
b1010 W"
b100000 +
b100000 Z"
b100000 ["
b1000 -
b1000 ."
b1000 ?"
b1000 `"
b1000 &"
b1010 )"
b1000 +"
b100000 )
b100000 l
b100000 X"
b11100 (
b11100 k
b11100 ;"
b11100 A"
b11100 \"
b111 =
b111 ~
b111 G"
b111 ]"
b10000 @
b10000 E"
b10000 K"
b1000 X
b1000 |
b1000 }
b1000 D"
b0 \
b0 v
b0 z
b0 B"
b0 Q"
b0 V"
1[
1Y
b1001 L
b1001 x
b1001 '"
b1001 2"
b100 I
b100 !"
b100 5"
b100 D
b100 9"
b100 H"
b1010 H
b1010 6"
b1010 T"
b101000 /
b101000 o
b101000 Y"
b11000 B
b11000 n
b11000 <"
b100000000010010100000011 A
b100000000010010100000011 ="
b100000000010010100000011 >"
b111 #
1!
#350
0!
#375
0.
b0 m
b1100 3
b1100 q
b1100 0"
b1100 b"
18
09
07
01
b1000 _
b1000 a
b1000 w
b1000 e
b110 :
b110 t
b110 C"
b11111111111111111111111111110011 2
b11111111111111111111111111110011 p
b11111111111111111111111111110011 /"
b11111111111111111111111111110011 a"
b0 -
b0 ."
b0 ?"
b110 `"
b101 _"
b100011 r
b110 &"
b101 %"
b0 )"
b110 +"
b101 *"
b1000 ;
b1000 b
b1000 J"
b101 R
b101 y
b101 I"
b101 W"
b1 S
b1 $"
b1 S"
b101 4
b101 M"
b101 P"
b101 U"
b101 ^"
b11100111000000100000110011 ,
b11100111000000100000110011 :"
b11100111000000100000110011 @"
b100100 +
b100100 Z"
b100100 ["
b11100 /
b11100 o
b11100 Y"
b11100 B
b11100 n
b11100 <"
b11000101010000000100011 A
b11000101010000000100011 ="
b11000101010000000100011 >"
b1010 L
b1010 x
b1010 '"
b1010 2"
b1000 I
b1000 !"
b1000 5"
b1000 D
b1000 9"
b1000 H"
b0 H
b0 6"
b0 T"
b1001 X
b1001 |
b1001 }
b1001 D"
b1010 W
b1010 u
b1010 {
b100 \
b100 v
b100 z
b100 B"
b100 Q"
b100 V"
b1000 =
b1000 ~
b1000 G"
b1000 ]"
b101 ?
b101 F"
b101 L"
b0 @
b0 E"
b0 K"
1>
b100100 )
b100100 l
b100100 X"
b100000 (
b100000 k
b100000 ;"
b100000 A"
b100000 \"
b1000 #
1!
#400
0!
#425
b1010 :
b1010 t
b1010 C"
b11111111111111111111111111110011 R
b11111111111111111111111111110011 y
b11111111111111111111111111110011 I"
b11111111111111111111111111110011 W"
b1100 _
b1100 a
b1100 w
b1100 e
b1110010 m
b11111111111111111111111111100111 2
b11111111111111111111111111100111 p
b11111111111111111111111111100111 /"
b11111111111111111111111111100111 a"
b11111111111111111111111111101000 3
b11111111111111111111111111101000 q
b11111111111111111111111111101000 0"
b11111111111111111111111111101000 b"
08
11
0^
b1 `
b1 s
b1 ("
b11101111010000100010110011 ,
b11101111010000100010110011 :"
b11101111010000100010110011 @"
b110 4
b110 M"
b110 P"
b110 U"
b110 ^"
b0 S
b0 $"
b0 S"
b0 ;
b0 b
b0 J"
b1100 T
b1100 c
b1100 R"
b101000 +
b101000 Z"
b101000 ["
b111001 -
b111001 ."
b111001 ?"
b11001 `"
b11000 _"
b110011 r
b11001 &"
b11000 %"
b10000 )"
b11001 +"
b11000 *"
b0 ,"
b1 -"
b101000 )
b101000 l
b101000 X"
b100100 (
b100100 k
b100100 ;"
b100100 A"
b100100 \"
b1001 =
b1001 ~
b1001 G"
b1001 ]"
b110 ?
b110 F"
b110 L"
b100 @
b100 E"
b100 K"
b1010 X
b1010 |
b1010 }
b1010 D"
b101 W
b101 u
b101 {
b1000 \
b1000 v
b1000 z
b1000 B"
b1000 Q"
b1000 V"
b0 L
b0 x
b0 '"
b0 2"
b110 I
b110 !"
b110 5"
b101 K
b101 ""
b101 3"
b0 D
b0 9"
b0 H"
b11111111111111111111111111110011 H
b11111111111111111111111111110011 6"
b11111111111111111111111111110011 T"
b1100 J
b1100 4"
b1100 O"
1N
0O
0M
0G
b10010010 /
b10010010 o
b10010010 Y"
b100000 B
b100000 n
b100000 <"
b11100111000000100000110011 A
b11100111000000100000110011 ="
b11100111000000100000110011 >"
b1001 #
1!
#450
0!
#475
b1110110 m
b11111111111111111111111111100101 2
b11111111111111111111111111100101 p
b11111111111111111111111111100101 /"
b11111111111111111111111111100101 a"
b11111111111111111111111111100110 3
b11111111111111111111111111100110 q
b11111111111111111111111111100110 0"
b11111111111111111111111111100110 b"
b1001011000 _
b1001011000 a
b1001011000 w
b1001011000 e
b111011 -
b111011 ."
b111011 ?"
b11011 `"
b11010 _"
b11011 &"
b11010 %"
b10001 )"
b11011 +"
b11010 *"
b11111111111111111111111111100111 ;
b11111111111111111111111111100111 b
b11111111111111111111111111100111 J"
b101 *
b101 d
b101 i
b11111111111111111111111111101000 T
b11111111111111111111111111101000 c
b11111111111111111111111111101000 R"
b11111111111111111111111111100111 R
b11111111111111111111111111100111 y
b11111111111111111111111111100111 I"
b11111111111111111111111111100111 W"
b0 :
b0 t
b0 C"
b1010 4
b1010 M"
b1010 P"
b1010 U"
b1010 ^"
b11110111100000100100110011 ,
b11110111100000100100110011 :"
b11110111100000100100110011 @"
b101100 +
b101100 Z"
b101100 ["
b10011010 /
b10011010 o
b10011010 Y"
b100100 B
b100100 n
b100100 <"
b11101111010000100010110011 A
b11101111010000100010110011 ="
b11101111010000100010110011 >"
b10000 L
b10000 x
b10000 '"
b10000 2"
b11001 I
b11001 !"
b11001 5"
b11000 K
b11000 ""
b11000 3"
b0 F
b0 g
b0 7"
b1 E
b1 f
b1 8"
b111001 D
b111001 9"
b111001 H"
b11111111111111111111111111100111 H
b11111111111111111111111111100111 6"
b11111111111111111111111111100111 T"
b11111111111111111111111111101000 J
b11111111111111111111111111101000 4"
b11111111111111111111111111101000 O"
0P
b1 Q
b1 h
b1 1"
0N
1G
b0 X
b0 |
b0 }
b0 D"
b11111111111111111111111111110011 W
b11111111111111111111111111110011 u
b11111111111111111111111111110011 {
b1100 \
b1100 v
b1100 z
b1100 B"
b1100 Q"
b1100 V"
1Z
0[
0Y
0V
b1010 =
b1010 ~
b1010 G"
b1010 ]"
b1010 ?
b1010 F"
b1010 L"
b1000 @
b1000 E"
b1000 K"
b101100 )
b101100 l
b101100 X"
b101000 (
b101000 k
b101000 ;"
b101000 A"
b101000 \"
b1010 #
1!
#500
0!
#525
b1010111110 _
b1010111110 a
b1010111110 w
b1010111110 e
b1111010 m
b111010 2
b111010 p
b111010 /"
b111010 a"
b111000 3
b111000 q
b111000 0"
b111000 b"
b11111111110000100110110011 ,
b11111111110000100110110011 :"
b11111111110000100110110011 @"
b1100 4
b1100 M"
b1100 P"
b1100 U"
b1100 ^"
b11111111111111111111111111100101 ;
b11111111111111111111111111100101 b
b11111111111111111111111111100101 J"
b11111111111111111111111111100101 R
b11111111111111111111111111100101 y
b11111111111111111111111111100101 I"
b11111111111111111111111111100101 W"
b11111111111111111111111111100110 T
b11111111111111111111111111100110 c
b11111111111111111111111111100110 R"
b110000 +
b110000 Z"
b110000 ["
b111101 -
b111101 ."
b111101 ?"
b11101 `"
b11100 _"
b11101 &"
b11100 %"
b10010 )"
b11101 +"
b11100 *"
b110000 )
b110000 l
b110000 X"
b101100 (
b101100 k
b101100 ;"
b101100 A"
b101100 \"
b0 =
b0 ~
b0 G"
b0 ]"
b0 ?
b0 F"
b0 L"
b1100 @
b1100 E"
b1100 K"
0>
0<
b10000 X
b10000 |
b10000 }
b10000 D"
b11111111111111111111111111100111 W
b11111111111111111111111111100111 u
b11111111111111111111111111100111 {
b1001011000 \
b1001011000 v
b1001011000 z
b1001011000 B"
b1001011000 Q"
b1001011000 V"
0Z
1V
b10001 L
b10001 x
b10001 '"
b10001 2"
b11011 I
b11011 !"
b11011 5"
b11010 K
b11010 ""
b11010 3"
b111011 D
b111011 9"
b111011 H"
b11111111111111111111111111100101 H
b11111111111111111111111111100101 6"
b11111111111111111111111111100101 T"
b11111111111111111111111111100110 J
b11111111111111111111111111100110 4"
b11111111111111111111111111100110 O"
b10100010 /
b10100010 o
b10100010 Y"
b101000 B
b101000 n
b101000 <"
b11110111100000100100110011 A
b11110111100000100100110011 ="
b11110111100000100100110011 >"
b1011 #
1!
#550
0!
#575
b1111110 m
b111110 2
b111110 p
b111110 /"
b111110 a"
b111100 3
b111100 q
b111100 0"
b111100 b"
b110010110000 _
b110010110000 a
b110010110000 w
b110010110000 e
b111111 -
b111111 ."
b111111 ?"
b11111 `"
b11110 _"
b11111 &"
b11110 %"
b10011 )"
b11111 +"
b11110 *"
b111010 ;
b111010 b
b111010 J"
b111000 T
b111000 c
b111000 R"
b111010 R
b111010 y
b111010 I"
b111010 W"
b1001011000 4
b1001011000 M"
b1001011000 P"
b1001011000 U"
b1001011000 ^"
b1000000111010000000100011 ,
b1000000111010000000100011 :"
b1000000111010000000100011 @"
b110100 +
b110100 Z"
b110100 ["
b10101010 /
b10101010 o
b10101010 Y"
b101100 B
b101100 n
b101100 <"
b11111111110000100110110011 A
b11111111110000100110110011 ="
b11111111110000100110110011 >"
b10010 L
b10010 x
b10010 '"
b10010 2"
b11101 I
b11101 !"
b11101 5"
b11100 K
b11100 ""
b11100 3"
b111101 D
b111101 9"
b111101 H"
b111010 H
b111010 6"
b111010 T"
b111000 J
b111000 4"
b111000 O"
b10001 X
b10001 |
b10001 }
b10001 D"
b11111111111111111111111111100101 W
b11111111111111111111111111100101 u
b11111111111111111111111111100101 {
b1010111110 \
b1010111110 v
b1010111110 z
b1010111110 B"
b1010111110 Q"
b1010111110 V"
b10000 =
b10000 ~
b10000 G"
b10000 ]"
b1001011000 @
b1001011000 E"
b1001011000 K"
1<
b110100 )
b110100 l
b110100 X"
b110000 (
b110000 k
b110000 ;"
b110000 A"
b110000 \"
b1100 #
1!
#600
0!
