lab2/lab2/log/waveform_1.vcd
$date
	Fri Nov 17 15:57:48 2023
$end
$version
	Icarus Verilog
$end
$timescale
	1s
$end
$scope module TestBench $end
$var reg 1 ! Clk $end
$var reg 1 " Reset $end
$var integer 32 # counter [31:0] $end
$var integer 32 $ flush [31:0] $end
$var integer 32 % i [31:0] $end
$var integer 32 & outfile [31:0] $end
$var integer 32 ' stall [31:0] $end
$scope module CPU $end
$var wire 1 ! clk_i $end
$var wire 1 " rst_i $end
$var wire 32 ( pc_o [31:0] $end
$var wire 32 ) pc_i [31:0] $end
$var wire 3 * operation [2:0] $end
$var wire 32 + muxPCResult [31:0] $end
$var wire 32 , instr [31:0] $end
$var wire 32 - immediate [31:0] $end
$var wire 32 . branchAddr [31:0] $end
$var wire 1 / Stall $end
$var wire 1 0 RegWrite $end
$var wire 32 1 RS2data [31:0] $end
$var wire 32 2 RS1data [31:0] $end
$var wire 32 3 RDdata [31:0] $end
$var wire 1 4 PCWrite $end
$var wire 1 5 NoOp $end
$var wire 1 6 MemtoReg $end
$var wire 1 7 MemWrite $end
$var wire 1 8 MemRead $end
$var wire 32 9 MemData [31:0] $end
$var wire 32 : MUXResult [31:0] $end
$var wire 32 ; ForwardBData [31:0] $end
$var wire 2 < ForwardB [1:0] $end
$var wire 32 = ForwardAData [31:0] $end
$var wire 2 > ForwardA [1:0] $end
$var wire 1 ? Branch $end
$var wire 1 @ ALUSrc $end
$var wire 32 A ALUResult [31:0] $end
$var wire 2 B ALUOp [1:0] $end
$var reg 32 C EX_MEM_ALUResult [31:0] $end
$var reg 1 D EX_MEM_MemRead $end
$var reg 1 E EX_MEM_MemWrite $end
$var reg 1 F EX_MEM_MemtoReg $end
$var reg 5 G EX_MEM_RDaddr [4:0] $end
$var reg 32 H EX_MEM_RS2data [31:0] $end
$var reg 1 I EX_MEM_RegWrite $end
$var reg 2 J ID_EX_ALUOp [1:0] $end
$var reg 1 K ID_EX_ALUSrc $end
$var reg 1 L ID_EX_MemRead $end
$var reg 1 M ID_EX_MemWrite $end
$var reg 1 N ID_EX_MemtoReg $end
$var reg 5 O ID_EX_RDaddr [4:0] $end
$var reg 5 P ID_EX_RS1addr [4:0] $end
$var reg 32 Q ID_EX_RS1data [31:0] $end
$var reg 5 R ID_EX_RS2addr [4:0] $end
$var reg 32 S ID_EX_RS2data [31:0] $end
$var reg 1 T ID_EX_RegWrite $end
$var reg 3 U ID_EX_func3 [2:0] $end
$var reg 7 V ID_EX_func7 [6:0] $end
$var reg 32 W ID_EX_immediate [31:0] $end
$var reg 1 X ID_FlushIF $end
$var reg 32 Y IF_ID_PC [31:0] $end
$var reg 32 Z IF_ID_instr [31:0] $end
$var reg 32 [ MEM_WB_ALUResult [31:0] $end
$var reg 32 \ MEM_WB_MemData [31:0] $end
$var reg 1 ] MEM_WB_MemtoReg $end
$var reg 5 ^ MEM_WB_RDaddr [4:0] $end
$var reg 1 _ MEM_WB_RegWrite $end
$var reg 1 ` equal $end
$scope module ALU $end
$var wire 32 a ALUResult_o [31:0] $end
$var wire 32 b src2_i [31:0] $end
$var wire 32 c src1_i [31:0] $end
$var wire 3 d op_i [2:0] $end
$var reg 32 e tmpResult [31:0] $end
$upscope $end
$scope module ALU_Control $end
$var wire 2 f ALUOp_i [1:0] $end
$var wire 3 g funct3_i [14:12] $end
$var wire 7 h funct7_i [31:25] $end
$var reg 3 i op_o [2:0] $end
$upscope $end
$scope module Add $end
$var wire 32 j src2_i [31:0] $end
$var wire 32 k src1_i [31:0] $end
$var wire 32 l adder_o [31:0] $end
$upscope $end
$scope module Add2 $end
$var wire 32 m src1_i [31:0] $end
$var wire 32 n src2_i [31:0] $end
$var wire 32 o adder_o [31:0] $end
$upscope $end
$scope module Control $end
$var wire 7 p opcode_i [6:0] $end
$var wire 1 5 NoOp_i $end
$var reg 2 q ALUOp_o [1:0] $end
$var reg 1 @ ALUSrc_o $end
$var reg 1 ? Branch_o $end
$var reg 1 8 MemRead_o $end
$var reg 1 7 MemWrite_o $end
$var reg 1 6 MemtoReg_o $end
$var reg 1 0 RegWrite_o $end
$upscope $end
$scope module Data_Memory $end
$var wire 1 D MemRead_i $end
$var wire 1 E MemWrite_i $end
$var wire 32 r addr_i [31:0] $end
$var wire 1 ! clk_i $end
$var wire 32 s data_i [31:0] $end
$var wire 32 t data_o [31:0] $end
$upscope $end
$scope module Forwarding $end
$var wire 5 u EX_MEM_RDaddr_i [4:0] $end
$var wire 1 I EX_MEM_RegWrite_i $end
$var wire 5 v ID_EX_RS1addr_i [4:0] $end
$var wire 5 w ID_EX_RS2addr_i [4:0] $end
$var wire 5 x MEM_WB_RDaddr_i [4:0] $end
$var wire 1 _ MEM_WB_RegWrite_i $end
$var reg 2 y ForwardA_o [1:0] $end
$var reg 2 z ForwardB_o [1:0] $end
$upscope $end
$scope module Hazard_Detection $end
$var wire 1 L ID_EX_MemRead_i $end
$var wire 5 { ID_EX_RDaddr_i [4:0] $end
$var wire 5 | RS1addr_i [4:0] $end
$var wire 5 } RS2addr_i [4:0] $end
$var wire 1 ! clk_i $end
$var wire 1 " rst_i $end
$var reg 1 5 NoOp_o $end
$var reg 1 4 PCWrite_o $end
$var reg 1 / Stall_o $end
$upscope $end
$scope module Imm_Gen $end
$var wire 32 ~ imm_i [31:0] $end
$var reg 32 !" imm_o [31:0] $end
$upscope $end
$scope module Instruction_Memory $end
$var wire 32 "" instr_o [31:0] $end
$var wire 32 #" addr_i [31:0] $end
$upscope $end
$scope module MUX $end
$var wire 1 K sel $end
$var wire 32 $" src2_i [31:0] $end
$var wire 32 %" src1_i [31:0] $end
$var reg 32 &" mux_o [31:0] $end
$upscope $end
$scope module MUX2 $end
$var wire 1 ] sel $end
$var wire 32 '" src1_i [31:0] $end
$var wire 32 (" src2_i [31:0] $end
$var reg 32 )" mux_o [31:0] $end
$upscope $end
$scope module MUX32_ForwardA $end
$var wire 2 *" sel [1:0] $end
$var wire 32 +" src1_i [31:0] $end
$var wire 32 ," src2_i [31:0] $end
$var wire 32 -" src3_i [31:0] $end
$var reg 32 ." mux_o [31:0] $end
$upscope $end
$scope module MUX32_ForwardB $end
$var wire 2 /" sel [1:0] $end
$var wire 32 0" src1_i [31:0] $end
$var wire 32 1" src2_i [31:0] $end
$var wire 32 2" src3_i [31:0] $end
$var reg 32 3" mux_o [31:0] $end
$upscope $end
$scope module MUX32_PC $end
$var wire 1 X sel $end
$var wire 32 4" src1_i [31:0] $end
$var wire 32 5" src2_i [31:0] $end
$var reg 32 6" mux_o [31:0] $end
$upscope $end
$scope module PC $end
$var wire 1 4 PCWrite_i $end
$var wire 1 ! clk_i $end
$var wire 32 7" pc_i [31:0] $end
$var wire 1 " rst_i $end
$var reg 32 8" pc_o [31:0] $end
$upscope $end
$scope module Registers $end
$var wire 5 9" RDaddr_i [4:0] $end
$var wire 32 :" RDdata_i [31:0] $end
$var wire 5 ;" RS1addr_i [4:0] $end
$var wire 5 <" RS2addr_i [4:0] $end
$var wire 1 _ RegWrite_i $end
$var wire 1 ! clk_i $end
$var wire 1 " rst_i $end
$var wire 32 =" RS2data_o [31:0] $end
$var wire 32 >" RS1data_o [31:0] $end
$var integer 32 ?" i [31:0] $end
$upscope $end
$upscope $end
$upscope $end
$enddefinitions $end
#0
$dumpvars
bx ?"
bx >"
bx ="
bx <"
bx ;"
bx :"
bx 9"
bx 8"
bx 7"
bx 6"
bx 5"
bx 4"
bx 3"
bx 2"
bx 1"
bx 0"
bx /"
bx ."
bx -"
bx ,"
bx +"
bx *"
bx )"
bx ("
bx '"
bx &"
bx %"
bx $"
bx #"
bx ""
bx !"
bx ~
bx }
bx |
bx {
bx z
bx y
bx x
bx w
bx v
bx u
bx t
bx s
bx r
b0 q
bx p
bx o
bx n
bx0 m
bx l
bx k
b100 j
bx i
bx h
bx g
bx f
bx e
bx d
bx c
bx b
bx a
x`
x_
bx ^
x]
bx \
bx [
bx Z
bx Y
xX
bx W
bx V
bx U
xT
bx S
bx R
bx Q
bx P
bx O
xN
xM
xL
xK
bx J
xI
bx H
bx G
xF
xE
xD
bx C
b0 B
bx A
0@
0?
bx >
bx =
bx <
bx ;
bx :
bx 9
08
07
06
05
14
bx 3
bx 2
bx 1
00
0/
bx .
bx -
bx ,
bx +
bx *
bx )
bx (
b0 '
b11 &
b100000 %
b0 $
b0 #
1"
0!
$end
#6
b0 A
b0 a
b0 e
b0 :
b0 b
b0 &"
b0 2
b0 >"
b0 1
b0 ="
b0 .
b0 o
b0 5"
b0 m
b101000000000001000010011 ,
b101000000000001000010011 ""
b100 +
b100 6"
b0 3
b0 )"
b0 ,"
b0 1"
b0 :"
b0 9
b0 t
b0 <
b0 z
b0 /"
b0 >
b0 y
b0 *"
b0 ;
b0 %"
b0 3"
b0 =
b0 c
b0 ."
b11 *
b11 d
b11 i
b0 |
b0 }
b0 p
b0 ;"
b0 <"
b0 -
b0 !"
b100 )
b100 l
b100 4"
b100 7"
b0 (
b0 k
b0 #"
b0 8"
b0 ^
b0 x
b0 9"
b0 \
b0 ("
b0 [
b0 '"
0]
0_
b0 G
b0 u
b0 H
b0 s
b0 C
b0 r
b0 -"
b0 2"
0E
0D
0F
0I
b0 O
b0 {
b0 R
b0 w
b0 P
b0 v
b0 U
b0 g
b0 V
b0 h
b0 W
b0 $"
b0 S
b0 0"
b0 Q
b0 +"
0K
b0 J
b0 f
0M
0L
0N
0T
b0 Y
b0 n
b0 Z
b0 ~
b100000 ?"
0"
#12
1"
#25
10
1@
b10100 .
b10100 o
b10100 5"
b10100 m
b1010 }
b10011 p
b1010 <"
b1010 -
b1010 !"
b110000000000001010010011 ,
b110000000000001010010011 ""
b1000 +
b1000 6"
0X
1`
b101000000000001000010011 Z
b101000000000001000010011 ~
b1000 )
b1000 l
b1000 4"
b1000 7"
b100 (
b100 k
b100 #"
b100 8"
b1 #
1!
#50
0!
#75
b1010 A
b1010 a
b1010 e
b11000 m
b11111111001100000000001100010011 ,
b11111111001100000000001100010011 ""
b1010 :
b1010 b
b1010 &"
b1100 +
b1100 6"
b1100 }
b1100 <"
b1100 -
b1100 !"
b1100 )
b1100 l
b1100 4"
b1100 7"
b1000 (
b1000 k
b1000 #"
b1000 8"
b100 O
b100 {
b1010 R
b1010 w
b1010 W
b1010 $"
1K
1T
b11100 .
b11100 o
b11100 5"
b100 Y
b100 n
b110000000000001010010011 Z
b110000000000001010010011 ~
b10 #
1!
#100
0!
#125
b1100 A
b1100 a
b1100 e
b11111111111111111111111111100110 m
b1100 :
b1100 b
b1100 &"
b10011 }
b10011 <"
b11111111111111111111111111110011 -
b11111111111111111111111111110011 !"
b1000000000000001110010011 ,
b1000000000000001110010011 ""
b10000 +
b10000 6"
b100 G
b100 u
b1010 C
b1010 r
b1010 -"
b1010 2"
1I
b101 O
b101 {
b1100 R
b1100 w
b1100 W
b1100 $"
b11111111111111111111111111101110 .
b11111111111111111111111111101110 o
b11111111111111111111111111101110 5"
b1000 Y
b1000 n
b11111111001100000000001100010011 Z
b11111111001100000000001100010011 ~
b10000 )
b10000 l
b10000 4"
b10000 7"
b1100 (
b1100 k
b1100 #"
b1100 8"
b11 #
1!
#150
0!
#175
b11111111111111111111111111110011 A
b11111111111111111111111111110011 a
b11111111111111111111111111110011 e
b100000 m
b10010000000011 ,
b10010000000011 ""
b1010 3
b1010 )"
b1010 ,"
b1010 1"
b1010 :"
b11111111111111111111111111110011 :
b11111111111111111111111111110011 b
b11111111111111111111111111110011 &"
b10100 +
b10100 6"
b10000 }
b10000 <"
b10000 -
b10000 !"
b10100 )
b10100 l
b10100 4"
b10100 7"
b10000 (
b10000 k
b10000 #"
b10000 8"
b100 ^
b100 x
b100 9"
b1010 [
b1010 '"
1_
b101 G
b101 u
b1100 C
b1100 r
b1100 -"
b1100 2"
b110 O
b110 {
b10011 R
b10011 w
b1111111 V
b1111111 h
b11111111111111111111111111110011 W
b11111111111111111111111111110011 $"
b101100 .
b101100 o
b101100 5"
b1100 Y
b1100 n
b1000000000000001110010011 Z
b1000000000000001110010011 ~
b100 #
1!
#200
0!
#225
b10000 A
b10000 a
b10000 e
18
16
b10 B
b10 q
b0 m
b1100 3
b1100 )"
b1100 ,"
b1100 1"
b1100 :"
b10000 :
b10000 b
b10000 &"
b0 }
b11 p
b0 <"
b0 -
b0 !"
b10000000010010010000011 ,
b10000000010010010000011 ""
b11000 +
b11000 6"
b101 ^
b101 x
b101 9"
b1100 [
b1100 '"
b110 G
b110 u
b11111111111111111111111111110011 C
b11111111111111111111111111110011 r
b11111111111111111111111111110011 -"
b11111111111111111111111111110011 2"
b111 O
b111 {
b10000 R
b10000 w
b0 V
b0 h
b10000 W
b10000 $"
b10000 .
b10000 o
b10000 5"
b10000 Y
b10000 n
b10010000000011 Z
b10010000000011 ~
b11000 )
b11000 l
b11000 4"
b11000 7"
b10100 (
b10100 k
b10100 #"
b10100 8"
b101 #
1!
#250
0!
#275
b0 A
b0 a
b0 e
b1010 1
b1010 ="
b1000 m
b100000000010010100000011 ,
b100000000010010100000011 ""
b11111111111111111111111111110011 3
b11111111111111111111111111110011 )"
b11111111111111111111111111110011 ,"
b11111111111111111111111111110011 1"
b11111111111111111111111111110011 :"
b0 :
b0 b
b0 &"
b11100 +
b11100 6"
b100 }
b100 <"
b100 -
b100 !"
b11100 )
b11100 l
b11100 4"
b11100 7"
b11000 (
b11000 k
b11000 #"
b11000 8"
b110 ^
b110 x
b110 9"
b11111111111111111111111111110011 [
b11111111111111111111111111110011 '"
b111 G
b111 u
b10000 C
b10000 r
b10000 -"
b10000 2"
b1000 O
b1000 {
b0 R
b0 w
b10 U
b10 g
b0 W
b0 $"
b10 J
b10 f
1L
1N
b11100 .
b11100 o
b11100 5"
b10100 Y
b10100 n
b10000000010010010000011 Z
b10000000010010010000011 ~
b110 #
1!
#300
0!
#325
b100 A
b100 a
b100 e
b0 1
b0 ="
b10000 m
b10000 3
b10000 )"
b10000 ,"
b10000 1"
b10000 :"
b101 9
b101 t
b100 :
b100 b
b100 &"
b1010 ;
b1010 %"
b1010 3"
b1000 }
b1000 <"
b1000 -
b1000 !"
b11000101010000000100011 ,
b11000101010000000100011 ""
b100000 +
b100000 6"
0`
b111 ^
b111 x
b111 9"
b10000 [
b10000 '"
b1000 G
b1000 u
b0 C
b0 r
b0 -"
b0 2"
1D
1F
b1001 O
b1001 {
b100 R
b100 w
b100 W
b100 $"
b1010 S
b1010 0"
b101000 .
b101000 o
b101000 5"
b11000 Y
b11000 n
b100000000010010100000011 Z
b100000000010010100000011 ~
b100000 )
b100000 l
b100000 4"
b100000 7"
b11100 (
b11100 k
b11100 #"
b11100 8"
b111 #
1!
#350
0!
#375
b110 9
b110 t
b1000 A
b1000 a
b1000 e
17
08
06
00
b1100 2
b1100 >"
b11111111111111111111111111110011 1
b11111111111111111111111111110011 ="
b0 m
b11100111000000100000110011 ,
b11100111000000100000110011 ""
b101 3
b101 )"
b101 ,"
b101 1"
b101 :"
b1 <
b1 z
b1 /"
b1000 :
b1000 b
b1000 &"
b101 ;
b101 %"
b101 3"
b100100 +
b100100 6"
b101 |
b110 }
b100011 p
b101 ;"
b110 <"
b0 -
b0 !"
1`
b100100 )
b100100 l
b100100 4"
b100100 7"
b100000 (
b100000 k
b100000 #"
b100000 8"
b1000 ^
b1000 x
b1000 9"
b101 \
b101 ("
b0 [
b0 '"
1]
b1001 G
b1001 u
b1010 H
b1010 s
b100 C
b100 r
b100 -"
b100 2"
b1010 O
b1010 {
b1000 R
b1000 w
b1000 W
b1000 $"
b0 S
b0 0"
b11100 .
b11100 o
b11100 5"
b11100 Y
b11100 n
b11000101010000000100011 Z
b11000101010000000100011 ~
b1000 #
1!
#400
0!
#425
b1010 9
b1010 t
b11111111111111111111111111110011 ;
b11111111111111111111111111110011 %"
b11111111111111111111111111110011 3"
b1100 A
b1100 a
b1100 e
07
10
0@
b1 B
b1 q
b11111111111111111111111111101000 2
b11111111111111111111111111101000 >"
b11111111111111111111111111100111 1
b11111111111111111111111111100111 ="
b1110010 m
b110 3
b110 )"
b110 ,"
b110 1"
b110 :"
b0 <
b0 z
b0 /"
b0 :
b0 b
b0 &"
b1100 =
b1100 c
b1100 ."
b11000 |
b11001 }
b110011 p
b11000 ;"
b11001 <"
b111001 -
b111001 !"
b11101111010000100010110011 ,
b11101111010000100010110011 ""
b101000 +
b101000 6"
0`
b1001 ^
b1001 x
b1001 9"
b110 \
b110 ("
b100 [
b100 '"
b1010 G
b1010 u
b101 H
b101 s
b1000 C
b1000 r
b1000 -"
b1000 2"
b0 O
b0 {
b110 R
b110 w
b101 P
b101 v
b0 W
b0 $"
b11111111111111111111111111110011 S
b11111111111111111111111111110011 0"
b1100 Q
b1100 +"
1M
0L
0N
0T
b10010010 .
b10010010 o
b10010010 5"
b100000 Y
b100000 n
b11100111000000100000110011 Z
b11100111000000100000110011 ~
b101000 )
b101000 l
b101000 4"
b101000 7"
b100100 (
b100100 k
b100100 #"
b100100 8"
b1001 #
1!
#450
0!
#475
b1001011000 A
b1001011000 a
b1001011000 e
b11111111111111111111111111100110 2
b11111111111111111111111111100110 >"
b11111111111111111111111111100101 1
b11111111111111111111111111100101 ="
b1110110 m
b11110111100000100100110011 ,
b11110111100000100100110011 ""
b1010 3
b1010 )"
b1010 ,"
b1010 1"
b1010 :"
b0 9
b0 t
b11111111111111111111111111100111 ;
b11111111111111111111111111100111 %"
b11111111111111111111111111100111 3"
b11111111111111111111111111101000 =
b11111111111111111111111111101000 c
b11111111111111111111111111101000 ."
b11111111111111111111111111100111 :
b11111111111111111111111111100111 b
b11111111111111111111111111100111 &"
b101 *
b101 d
b101 i
b101100 +
b101100 6"
b11010 |
b11011 }
b11010 ;"
b11011 <"
b111011 -
b111011 !"
b101100 )
b101100 l
b101100 4"
b101100 7"
b101000 (
b101000 k
b101000 #"
b101000 8"
b1010 ^
b1010 x
b1010 9"
b1010 \
b1010 ("
b1000 [
b1000 '"
b0 G
b0 u
b11111111111111111111111111110011 H
b11111111111111111111111111110011 s
b1100 C
b1100 r
b1100 -"
b1100 2"
1E
0D
0F
0I
b10000 O
b10000 {
b11001 R
b11001 w
b11000 P
b11000 v
b0 U
b0 g
b1 V
b1 h
b111001 W
b111001 $"
b11111111111111111111111111100111 S
b11111111111111111111111111100111 0"
b11111111111111111111111111101000 Q
b11111111111111111111111111101000 +"
0K
b1 J
b1 f
0M
1T
b10011010 .
b10011010 o
b10011010 5"
b100100 Y
b100100 n
b11101111010000100010110011 Z
b11101111010000100010110011 ~
b1010 #
1!
#500
0!
#525
b1010111110 A
b1010111110 a
b1010111110 e
b111000 2
b111000 >"
b111010 1
b111010 ="
b1111010 m
b1100 3
b1100 )"
b1100 ,"
b1100 1"
b1100 :"
b11111111111111111111111111100101 :
b11111111111111111111111111100101 b
b11111111111111111111111111100101 &"
b11111111111111111111111111100101 ;
b11111111111111111111111111100101 %"
b11111111111111111111111111100101 3"
b11111111111111111111111111100110 =
b11111111111111111111111111100110 c
b11111111111111111111111111100110 ."
b11100 |
b11101 }
b11100 ;"
b11101 <"
b111101 -
b111101 !"
b11111111110000100110110011 ,
b11111111110000100110110011 ""
b110000 +
b110000 6"
b0 ^
b0 x
b0 9"
b0 \
b0 ("
b1100 [
b1100 '"
0]
0_
b10000 G
b10000 u
b11111111111111111111111111100111 H
b11111111111111111111111111100111 s
b1001011000 C
b1001011000 r
b1001011000 -"
b1001011000 2"
0E
1I
b10001 O
b10001 {
b11011 R
b11011 w
b11010 P
b11010 v
b111011 W
b111011 $"
b11111111111111111111111111100101 S
b11111111111111111111111111100101 0"
b11111111111111111111111111100110 Q
b11111111111111111111111111100110 +"
b10100010 .
b10100010 o
b10100010 5"
b101000 Y
b101000 n
b11110111100000100100110011 Z
b11110111100000100100110011 ~
b110000 )
b110000 l
b110000 4"
b110000 7"
b101100 (
b101100 k
b101100 #"
b101100 8"
b1011 #
1!
#550
0!
#575
b110010110000 A
b110010110000 a
b110010110000 e
b111100 2
b111100 >"
b111110 1
b111110 ="
b1111110 m
b1000000111010000000100011 ,
b1000000111010000000100011 ""
b1001011000 3
b1001011000 )"
b1001011000 ,"
b1001011000 1"
b1001011000 :"
b111010 :
b111010 b
b111010 &"
b111010 ;
b111010 %"
b111010 3"
b111000 =
b111000 c
b111000 ."
b110100 +
b110100 6"
b11110 |
b11111 }
b11110 ;"
b11111 <"
b111111 -
b111111 !"
b110100 )
b110100 l
b110100 4"
b110100 7"
b110000 (
b110000 k
b110000 #"
b110000 8"
b10000 ^
b10000 x
b10000 9"
b1001011000 [
b1001011000 '"
1_
b10001 G
b10001 u
b11111111111111111111111111100101 H
b11111111111111111111111111100101 s
b1010111110 C
b1010111110 r
b1010111110 -"
b1010111110 2"
b10010 O
b10010 {
b11101 R
b11101 w
b11100 P
b11100 v
b111101 W
b111101 $"
b111010 S
b111010 0"
b111000 Q
b111000 +"
b10101010 .
b10101010 o
b10101010 5"
b101100 Y
b101100 n
b11111111110000100110110011 Z
b11111111110000100110110011 ~
b1100 #
1!
#600
0!
#625
b111010001000 A
b111010001000 a
b111010001000 e
17
00
1@
b10 B
b10 q
b10000 2
b10000 >"
b1001011000 1
b1001011000 ="
b0 m
b1010111110 3
b1010111110 )"
b1010111110 ,"
b1010111110 1"
b1010111110 :"
b111110 :
b111110 b
b111110 &"
b111110 ;
b111110 %"
b111110 3"
b111100 =
b111100 c
b111100 ."
b111 |
b10000 }
b100011 p
b111 ;"
b10000 <"
b0 -
b0 !"
b1000100000010001000100011 ,
b1000100000010001000100011 ""
b111000 +
b111000 6"
b10001 ^
b10001 x
b10001 9"
b1010111110 [
b1010111110 '"
b10010 G
b10010 u
b111010 H
b111010 s
b110010110000 C
b110010110000 r
b110010110000 -"
b110010110000 2"
b10011 O
b10011 {
b11111 R
b11111 w
b11110 P
b11110 v
b111111 W
b111111 $"
b111110 S
b111110 0"
b111100 Q
b111100 +"
b110000 .
b110000 o
b110000 5"
b110000 Y
b110000 n
b1000000111010000000100011 Z
b1000000111010000000100011 ~
b111000 )
b111000 l
b111000 4"
b111000 7"
b110100 (
b110100 k
b110100 #"
b110100 8"
b1101 #
1!
#650
0!
#675
b10000 A
b10000 a
b10000 e
b0 2
b0 >"
b1010111110 1
b1010111110 ="
b1000 m
b0 ,
b0 ""
b110010110000 3
b110010110000 )"
b110010110000 ,"
b110010110000 1"
b110010110000 :"
b1001011000 ;
b1001011000 %"
b1001011000 3"
b10000 =
b10000 c
b10000 ."
b0 :
b0 b
b0 &"
b11 *
b11 d
b11 i
b111100 +
b111100 6"
b0 |
b10001 }
b0 ;"
b10001 <"
b100 -
b100 !"
b111100 )
b111100 l
b111100 4"
b111100 7"
b111000 (
b111000 k
b111000 #"
b111000 8"
b10010 ^
b10010 x
b10010 9"
b110010110000 [
b110010110000 '"
b10011 G
b10011 u
b111110 H
b111110 s
b111010001000 C
b111010001000 r
b111010001000 -"
b111010001000 2"
b0 O
b0 {
b10000 R
b10000 w
b111 P
b111 v
b10 U
b10 g
b0 V
b0 h
b0 W
b0 $"
b1001011000 S
b1001011000 0"
b10000 Q
b10000 +"
1K
b10 J
b10 f
1M
0T
b111100 .
b111100 o
b111100 5"
b110100 Y
b110100 n
b1000100000010001000100011 Z
b1000100000010001000100011 ~
b1110 #
1!
#700
0!
#725
b100 A
b100 a
b100 e
07
0@
b0 B
b0 q
b0 1
b0 ="
b0 m
b111010001000 3
b111010001000 )"
b111010001000 ,"
b111010001000 1"
b111010001000 :"
b100 :
b100 b
b100 &"
b1010111110 ;
b1010111110 %"
b1010111110 3"
b0 =
b0 c
b0 ."
b0 }
b0 p
b0 <"
b0 -
b0 !"
b1000000 +
b1000000 6"
b10011 ^
b10011 x
b10011 9"
b111010001000 [
b111010001000 '"
b0 G
b0 u
b1001011000 H
b1001011000 s
b10000 C
b10000 r
b10000 -"
b10000 2"
1E
0I
b100 O
b100 {
b10001 R
b10001 w
b0 P
b0 v
b100 W
b100 $"
b1010111110 S
b1010111110 0"
b0 Q
b0 +"
b111000 .
b111000 o
b111000 5"
b111000 Y
b111000 n
b0 Z
b0 ~
b1000000 )
b1000000 l
b1000000 4"
b1000000 7"
b111100 (
b111100 k
b111100 #"
b111100 8"
b1111 #
1!
#750
0!
#775
b0 A
b0 a
b0 e
b10000 3
b10000 )"
b10000 ,"
b10000 1"
b10000 :"
b0 ;
b0 %"
b0 3"
b0 :
b0 b
b0 &"
b1000100 +
b1000100 6"
1`
b1000100 )
b1000100 l
b1000100 4"
b1000100 7"
b1000000 (
b1000000 k
b1000000 #"
b1000000 8"
b0 ^
b0 x
b0 9"
b10000 [
b10000 '"
0_
b100 G
b100 u
b1010111110 H
b1010111110 s
b100 C
b100 r
b100 -"
b100 2"
b0 O
b0 {
b0 R
b0 w
b0 U
b0 g
b0 W
b0 $"
b0 S
b0 0"
0K
b0 J
b0 f
0M
b111100 .
b111100 o
b111100 5"
b111100 Y
b111100 n
b10000 #
1!
#800
0!
#825
b100 3
b100 )"
b100 ,"
b100 1"
b100 :"
b1001000 +
b1001000 6"
b100 ^
b100 x
b100 9"
b100 [
b100 '"
b0 G
b0 u
b0 H
b0 s
b0 C
b0 r
b0 -"
b0 2"
0E
b1000000 .
b1000000 o
b1000000 5"
b1000000 Y
b1000000 n
b1001000 )
b1001000 l
b1001000 4"
b1001000 7"
b1000100 (
b1000100 k
b1000100 #"
b1000100 8"
b10001 #
1!
#850
0!
#875
b0 3
b0 )"
b0 ,"
b0 1"
b0 :"
b1001100 +
b1001100 6"
b1001100 )
b1001100 l
b1001100 4"
b1001100 7"
b1001000 (
b1001000 k
b1001000 #"
b1001000 8"
b0 ^
b0 x
b0 9"
b0 [
b0 '"
b1000100 .
b1000100 o
b1000100 5"
b1000100 Y
b1000100 n
b10010 #
1!
#900
0!
#925
b1010000 +
b1010000 6"
b1001000 .
b1001000 o
b1001000 5"
b1001000 Y
b1001000 n
b1010000 )
b1010000 l
b1010000 4"
b1010000 7"
b1001100 (
b1001100 k
b1001100 #"
b1001100 8"
b10011 #
1!
#950
0!
#975
b1010100 +
b1010100 6"
b1010100 )
b1010100 l
b1010100 4"
b1010100 7"
b1010000 (
b1010000 k
b1010000 #"
b1010000 8"
b1001100 .
b1001100 o
b1001100 5"
b1001100 Y
b1001100 n
b10100 #
1!
#1000
0!
#1025
b1011000 +
b1011000 6"
b1010000 .
b1010000 o
b1010000 5"
b1010000 Y
b1010000 n
b1011000 )
b1011000 l
b1011000 4"
b1011000 7"
b1010100 (
b1010100 k
b1010100 #"
b1010100 8"
b10101 #
1!
#1050
0!
#1075
b1011100 +
b1011100 6"
b1011100 )
b1011100 l
b1011100 4"
b1011100 7"
b1011000 (
b1011000 k
b1011000 #"
b1011000 8"
b1010100 .
b1010100 o
b1010100 5"
b1010100 Y
b1010100 n
b10110 #
1!
#1100
0!
#1125
b1100000 +
b1100000 6"
b1011000 .
b1011000 o
b1011000 5"
b1011000 Y
b1011000 n
b1100000 )
b1100000 l
b1100000 4"
b1100000 7"
b1011100 (
b1011100 k
b1011100 #"
b1011100 8"
b10111 #
1!
#1150
0!
#1175
b1100100 +
b1100100 6"
b1100100 )
b1100100 l
b1100100 4"
b1100100 7"
b1100000 (
b1100000 k
b1100000 #"
b1100000 8"
b1011100 .
b1011100 o
b1011100 5"
b1011100 Y
b1011100 n
b11000 #
1!
#1200
0!
#1225
b1101000 +
b1101000 6"
b1100000 .
b1100000 o
b1100000 5"
b1100000 Y
b1100000 n
b1101000 )
b1101000 l
b1101000 4"
b1101000 7"
b1100100 (
b1100100 k
b1100100 #"
b1100100 8"
b11001 #
1!
#1250
0!
#1275
b1101100 +
b1101100 6"
b1101100 )
b1101100 l
b1101100 4"
b1101100 7"
b1101000 (
b1101000 k
b1101000 #"
b1101000 8"
b1100100 .
b1100100 o
b1100100 5"
b1100100 Y
b1100100 n
b11010 #
1!
#1300
0!
#1325
b1110000 +
b1110000 6"
b1101000 .
b1101000 o
b1101000 5"
b1101000 Y
b1101000 n
b1110000 )
b1110000 l
b1110000 4"
b1110000 7"
b1101100 (
b1101100 k
b1101100 #"
b1101100 8"
b11011 #
1!
#1350
0!
#1375
b1110100 +
b1110100 6"
b1110100 )
b1110100 l
b1110100 4"
b1110100 7"
b1110000 (
b1110000 k
b1110000 #"
b1110000 8"
b1101100 .
b1101100 o
b1101100 5"
b1101100 Y
b1101100 n
b11100 #
1!
#1400
0!
#1425
b1111000 +
b1111000 6"
b1110000 .
b1110000 o
b1110000 5"
b1110000 Y
b1110000 n
b1111000 )
b1111000 l
b1111000 4"
b1111000 7"
b1110100 (
b1110100 k
b1110100 #"
b1110100 8"
b11101 #
1!
#1450
0!
#1475
b1111100 +
b1111100 6"
b1111100 )
b1111100 l
b1111100 4"
b1111100 7"
b1111000 (
b1111000 k
b1111000 #"
b1111000 8"
b1110100 .
b1110100 o
b1110100 5"
b1110100 Y
b1110100 n
b11110 #
1!
#1500
0!
#1525
b10000000 +
b10000000 6"
b1111000 .
b1111000 o
b1111000 5"
b1111000 Y
b1111000 n
b10000000 )
b10000000 l
b10000000 4"
b10000000 7"
b1111100 (
b1111100 k
b1111100 #"
b1111100 8"
b11111 #
1!
#1550
0!
#1575
b10000100 +
b10000100 6"
b10000100 )
b10000100 l
b10000100 4"
b10000100 7"
b10000000 (
b10000000 k
b10000000 #"
b10000000 8"
b1111100 .
b1111100 o
b1111100 5"
b1111100 Y
b1111100 n
b100000 #
1!
#1600
0!
#1625
b10001000 +
b10001000 6"
b10000000 .
b10000000 o
b10000000 5"
b10000000 Y
b10000000 n
b10001000 )
b10001000 l
b10001000 4"
b10001000 7"
b10000100 (
b10000100 k
b10000100 #"
b10000100 8"
b100001 #
1!
#1650
0!
