lab2/lab2/log/waveform_4.vcd
$date
	Sat Nov 18 04:08:06 2023
$end
$version
	Icarus Verilog
$end
$timescale
	1s
$end
$scope module TestBench $end
$var reg 1 ! Clk $end
$var reg 1 " Reset $end
$var integer 32 # counter [31:0] $end
$var integer 32 $ flush [31:0] $end
$var integer 32 % i [31:0] $end
$var integer 32 & outfile [31:0] $end
$var integer 32 ' stall [31:0] $end
$scope module CPU $end
$var wire 1 ! clk_i $end
$var wire 1 " rst_i $end
$var wire 32 ( pc_o [31:0] $end
$var wire 32 ) pc_i [31:0] $end
$var wire 3 * operation [2:0] $end
$var wire 32 + muxPCResult [31:0] $end
$var wire 32 , instr [31:0] $end
$var wire 32 - immediate [31:0] $end
$var wire 1 . equal $end
$var wire 32 / branchAddr [31:0] $end
$var wire 1 0 Stall $end
$var wire 1 1 RegWrite $end
$var wire 32 2 RS2data [31:0] $end
$var wire 32 3 RS1data [31:0] $end
$var wire 32 4 RDdata [31:0] $end
$var wire 1 5 PCWrite $end
$var wire 1 6 NoOp $end
$var wire 1 7 MemtoReg $end
$var wire 1 8 MemWrite $end
$var wire 1 9 MemRead $end
$var wire 32 : MemData [31:0] $end
$var wire 32 ; MUXResult [31:0] $end
$var wire 1 < ID_FlushIF $end
$var wire 32 = ForwardBData [31:0] $end
$var wire 2 > ForwardB [1:0] $end
$var wire 32 ? ForwardAData [31:0] $end
$var wire 2 @ ForwardA [1:0] $end
$var wire 1 A Branch $end
$var wire 1 B ALUSrc $end
$var wire 32 C ALUResult [31:0] $end
$var wire 2 D ALUOp [1:0] $end
$var reg 32 E EX_MEM_ALUResult [31:0] $end
$var reg 1 F EX_MEM_MemRead $end
$var reg 1 G EX_MEM_MemWrite $end
$var reg 1 H EX_MEM_MemtoReg $end
$var reg 5 I EX_MEM_RDaddr [4:0] $end
$var reg 32 J EX_MEM_RS2data [31:0] $end
$var reg 1 K EX_MEM_RegWrite $end
$var reg 2 L ID_EX_ALUOp [1:0] $end
$var reg 1 M ID_EX_ALUSrc $end
$var reg 1 N ID_EX_MemRead $end
$var reg 1 O ID_EX_MemWrite $end
$var reg 1 P ID_EX_MemtoReg $end
$var reg 5 Q ID_EX_RDaddr [4:0] $end
$var reg 5 R ID_EX_RS1addr [4:0] $end
$var reg 32 S ID_EX_RS1data [31:0] $end
$var reg 5 T ID_EX_RS2addr [4:0] $end
$var reg 32 U ID_EX_RS2data [31:0] $end
$var reg 1 V ID_EX_RegWrite $end
$var reg 3 W ID_EX_func3 [2:0] $end
$var reg 7 X ID_EX_func7 [6:0] $end
$var reg 32 Y ID_EX_immediate [31:0] $end
$var reg 32 Z IF_ID_PC [31:0] $end
$var reg 32 [ IF_ID_instr [31:0] $end
$var reg 32 \ MEM_WB_ALUResult [31:0] $end
$var reg 32 ] MEM_WB_MemData [31:0] $end
$var reg 1 ^ MEM_WB_MemtoReg $end
$var reg 5 _ MEM_WB_RDaddr [4:0] $end
$var reg 1 ` MEM_WB_RegWrite $end
$scope module ALU $end
$var wire 32 a ALUResult_o [31:0] $end
$var wire 32 b src2_i [31:0] $end
$var wire 32 c src1_i [31:0] $end
$var wire 3 d op_i [2:0] $end
$var reg 32 e tmpResult [31:0] $end
$upscope $end
$scope module ALU_Control $end
$var wire 2 f ALUOp_i [1:0] $end
$var wire 3 g funct3_i [14:12] $end
$var wire 7 h funct7_i [31:25] $end
$var reg 3 i op_o [2:0] $end
$upscope $end
$scope module Add $end
$var wire 32 j src2_i [31:0] $end
$var wire 32 k src1_i [31:0] $end
$var wire 32 l adder_o [31:0] $end
$upscope $end
$scope module Add2 $end
$var wire 32 m src1_i [31:0] $end
$var wire 32 n src2_i [31:0] $end
$var wire 32 o adder_o [31:0] $end
$upscope $end
$scope module Control $end
$var wire 7 p opcode_i [6:0] $end
$var wire 1 6 NoOp_i $end
$var reg 2 q ALUOp_o [1:0] $end
$var reg 1 B ALUSrc_o $end
$var reg 1 A Branch_o $end
$var reg 1 9 MemRead_o $end
$var reg 1 8 MemWrite_o $end
$var reg 1 7 MemtoReg_o $end
$var reg 1 1 RegWrite_o $end
$upscope $end
$scope module Data_Memory $end
$var wire 1 F MemRead_i $end
$var wire 1 G MemWrite_i $end
$var wire 32 r addr_i [31:0] $end
$var wire 1 ! clk_i $end
$var wire 32 s data_i [31:0] $end
$var wire 32 t data_o [31:0] $end
$upscope $end
$scope module Equal_Unit $end
$var wire 1 A Branch_i $end
$var wire 32 u src2_i [31:0] $end
$var wire 32 v src1_i [31:0] $end
$var reg 1 < flush_o $end
$var reg 1 . is_equal_o $end
$upscope $end
$scope module Forwarding $end
$var wire 5 w EX_MEM_RDaddr_i [4:0] $end
$var wire 1 K EX_MEM_RegWrite_i $end
$var wire 5 x ID_EX_RS1addr_i [4:0] $end
$var wire 5 y ID_EX_RS2addr_i [4:0] $end
$var wire 5 z MEM_WB_RDaddr_i [4:0] $end
$var wire 1 ` MEM_WB_RegWrite_i $end
$var reg 2 { ForwardA_o [1:0] $end
$var reg 2 | ForwardB_o [1:0] $end
$upscope $end
$scope module Hazard_Detection $end
$var wire 1 N ID_EX_MemRead_i $end
$var wire 5 } ID_EX_RDaddr_i [4:0] $end
$var wire 5 ~ RS1addr_i [4:0] $end
$var wire 5 !" RS2addr_i [4:0] $end
$var wire 1 ! clk_i $end
$var wire 1 " rst_i $end
$var reg 1 6 NoOp_o $end
$var reg 1 5 PCWrite_o $end
$var reg 1 0 Stall_o $end
$upscope $end
$scope module Imm_Gen $end
$var wire 32 "" imm_i [31:0] $end
$var reg 32 #" imm_o [31:0] $end
$upscope $end
$scope module Instruction_Memory $end
$var wire 32 $" instr_o [31:0] $end
$var wire 32 %" addr_i [31:0] $end
$upscope $end
$scope module MUX $end
$var wire 1 M sel $end
$var wire 32 &" src2_i [31:0] $end
$var wire 32 '" src1_i [31:0] $end
$var reg 32 (" mux_o [31:0] $end
$upscope $end
$scope module MUX2 $end
$var wire 1 ^ sel $end
$var wire 32 )" src1_i [31:0] $end
$var wire 32 *" src2_i [31:0] $end
$var reg 32 +" mux_o [31:0] $end
$upscope $end
$scope module MUX32_ForwardA $end
$var wire 2 ," sel [1:0] $end
$var wire 32 -" src1_i [31:0] $end
$var wire 32 ." src2_i [31:0] $end
$var wire 32 /" src3_i [31:0] $end
$var reg 32 0" mux_o [31:0] $end
$upscope $end
$scope module MUX32_ForwardB $end
$var wire 2 1" sel [1:0] $end
$var wire 32 2" src1_i [31:0] $end
$var wire 32 3" src2_i [31:0] $end
$var wire 32 4" src3_i [31:0] $end
$var reg 32 5" mux_o [31:0] $end
$upscope $end
$scope module MUX32_PC $end
$var wire 1 < sel $end
$var wire 32 6" src1_i [31:0] $end
$var wire 32 7" src2_i [31:0] $end
$var reg 32 8" mux_o [31:0] $end
$upscope $end
$scope module PC $end
$var wire 1 5 PCWrite_i $end
$var wire 1 ! clk_i $end
$var wire 32 9" pc_i [31:0] $end
$var wire 1 " rst_i $end
$var reg 32 :" pc_o [31:0] $end
$upscope $end
$scope module Registers $end
$var wire 5 ;" RDaddr_i [4:0] $end
$var wire 32 <" RDdata_i [31:0] $end
$var wire 5 =" RS1addr_i [4:0] $end
$var wire 5 >" RS2addr_i [4:0] $end
$var wire 1 ` RegWrite_i $end
$var wire 1 ! clk_i $end
$var wire 1 " rst_i $end
$var wire 32 ?" RS2data_o [31:0] $end
$var wire 32 @" RS1data_o [31:0] $end
$var integer 32 A" i [31:0] $end
$upscope $end
$upscope $end
$upscope $end
$enddefinitions $end
#0
$dumpvars
bx A"
bx @"
bx ?"
bx >"
bx ="
bx <"
bx ;"
bx :"
bx 9"
bx 8"
bx 7"
bx 6"
bx 5"
bx 4"
bx 3"
bx 2"
bx 1"
bx 0"
bx /"
bx ."
bx -"
bx ,"
bx +"
bx *"
bx )"
bx ("
bx '"
bx &"
bx %"
bx $"
bx #"
bx ""
bx !"
bx ~
bx }
bx |
bx {
bx z
bx y
bx x
bx w
bx v
bx u
bx t
bx s
bx r
b0 q
bx p
bx o
bx n
bx0 m
bx l
bx k
b100 j
bx i
bx h
bx g
bx f
bx e
bx d
bx c
bx b
bx a
x`
bx _
x^
bx ]
bx \
bx [
bx Z
bx Y
bx X
bx W
xV
bx U
bx T
bx S
bx R
bx Q
xP
xO
xN
xM
bx L
xK
bx J
bx I
xH
xG
xF
bx E
b0 D
bx C
0B
0A
bx @
bx ?
bx >
bx =
0<
bx ;
bx :
09
08
07
06
15
bx 4
bx 3
bx 2
01
00
bx /
0.
bx -
bx ,
bx +
bx *
bx )
bx (
b0 '
b11 &
b100000 %
b0 $
b0 #
1"
0!
$end
#6
b0 C
b0 a
b0 e
1.
b0 ;
b0 b
b0 ("
b0 3
b0 v
b0 @"
b0 2
b0 u
b0 ?"
b0 /
b0 o
b0 7"
b0 m
b110000010011 ,
b110000010011 $"
b100 +
b100 8"
b100 9"
b0 4
b0 +"
b0 ."
b0 3"
b0 <"
b0 :
b0 t
b0 >
b0 |
b0 1"
b0 @
b0 {
b0 ,"
b0 =
b0 '"
b0 5"
b0 ?
b0 c
b0 0"
b11 *
b11 d
b11 i
b0 ~
b0 !"
b0 p
b0 ="
b0 >"
b0 -
b0 #"
b100 )
b100 l
b100 6"
b0 (
b0 k
b0 %"
b0 :"
b0 _
b0 z
b0 ;"
b0 ]
b0 *"
b0 \
b0 )"
0^
0`
b0 I
b0 w
b0 J
b0 s
b0 E
b0 r
b0 /"
b0 4"
0G
0F
0H
0K
b0 Q
b0 }
b0 T
b0 y
b0 R
b0 x
b0 W
b0 g
b0 X
b0 h
b0 Y
b0 &"
b0 U
b0 2"
b0 S
b0 -"
0M
b0 L
b0 f
0O
0N
0P
0V
b0 Z
b0 n
b0 [
b0 ""
b100000 A"
0"
#12
1"
#25
11
1B
b10011 p
b10000000000110100010011 ,
b10000000000110100010011 $"
b1000 +
b1000 8"
b1000 9"
b110000010011 [
b110000010011 ""
b1000 )
b1000 l
b1000 6"
b100 (
b100 k
b100 %"
b100 :"
b1 #
1!
#50
0!
#75
b1000 m
b10000000000111000010011 ,
b10000000000111000010011 $"
b1100 +
b1100 8"
b1100 9"
b100 !"
b100 >"
b100 -
b100 #"
b1100 )
b1100 l
b1100 6"
b1000 (
b1000 k
b1000 %"
b1000 :"
b11000 Q
b11000 }
1M
1V
b1100 /
b1100 o
b1100 7"
b100 Z
b100 n
b10000000000110100010011 [
b10000000000110100010011 ""
b10 #
1!
#100
0!
#125
b100 C
b100 a
b100 e
b100 ;
b100 b
b100 ("
b11111111111100000000011110010011 ,
b11111111111100000000011110010011 $"
b10000 +
b10000 8"
b10000 9"
b11000 I
b11000 w
1K
b11010 Q
b11010 }
b100 T
b100 y
b100 Y
b100 &"
b10000 /
b10000 o
b10000 7"
b1000 Z
b1000 n
b10000000000111000010011 [
b10000000000111000010011 ""
b10000 )
b10000 l
b10000 6"
b1100 (
b1100 k
b1100 %"
b1100 :"
b11 #
1!
#150
0!
#175
0.
b111110 2
b111110 u
b111110 ?"
b11111111111111111111111111111110 m
b11110011010000110010110011 ,
b11110011010000110010110011 $"
b10100 +
b10100 8"
b10100 9"
b11111 !"
b11111 >"
b11111111111111111111111111111111 -
b11111111111111111111111111111111 #"
b10100 )
b10100 l
b10100 6"
b10000 (
b10000 k
b10000 %"
b10000 :"
b11000 _
b11000 z
b11000 ;"
1`
b11010 I
b11010 w
b100 E
b100 r
b100 /"
b100 4"
b11100 Q
b11100 }
b1010 /
b1010 o
b1010 7"
b1100 Z
b1100 n
b11111111111100000000011110010011 [
b11111111111100000000011110010011 ""
b100 #
1!
#200
0!
#225
b11111111111111111111111111111111 C
b11111111111111111111111111111111 a
b11111111111111111111111111111111 e
0B
b1 D
b1 q
b100 3
b100 v
b100 @"
b111000 2
b111000 u
b111000 ?"
b1111000 m
b100 4
b100 +"
b100 ."
b100 3"
b100 <"
b11111111111111111111111111111111 ;
b11111111111111111111111111111111 b
b11111111111111111111111111111111 ("
b111110 =
b111110 '"
b111110 5"
b11010 ~
b11100 !"
b110011 p
b11010 ="
b11100 >"
b111100 -
b111100 #"
b11111111111111010000110100010011 ,
b11111111111111010000110100010011 $"
b11000 +
b11000 8"
b11000 9"
b11010 _
b11010 z
b11010 ;"
b100 \
b100 )"
b11100 I
b11100 w
b1111 Q
b1111 }
b11111 T
b11111 y
b1111111 X
b1111111 h
b11111111111111111111111111111111 Y
b11111111111111111111111111111111 &"
b111110 U
b111110 2"
b10001000 /
b10001000 o
b10001000 7"
b10000 Z
b10000 n
b11110011010000110010110011 [
b11110011010000110010110011 ""
b11000 )
b11000 l
b11000 6"
b10100 (
b10100 k
b10100 %"
b10100 :"
b101 #
1!
#250
0!
#275
b10000 C
b10000 a
b10000 e
1B
b0 D
b0 q
b111110 2
b111110 u
b111110 ?"
b11111111111111111111111111111110 m
b11001010110110000011 ,
b11001010110110000011 $"
b1 >
b1 |
b1 1"
b100 =
b100 '"
b100 5"
b100 ?
b100 c
b100 0"
b100 ;
b100 b
b100 ("
b101 *
b101 d
b101 i
b11100 +
b11100 8"
b11100 9"
b11111 !"
b10011 p
b11111 >"
b11111111111111111111111111111111 -
b11111111111111111111111111111111 #"
b11100 )
b11100 l
b11100 6"
b11000 (
b11000 k
b11000 %"
b11000 :"
b11100 _
b11100 z
b11100 ;"
b1111 I
b1111 w
b111110 J
b111110 s
b11111111111111111111111111111111 E
b11111111111111111111111111111111 r
b11111111111111111111111111111111 /"
b11111111111111111111111111111111 4"
b11001 Q
b11001 }
b11100 T
b11100 y
b11010 R
b11010 x
b1 X
b1 h
b111100 Y
b111100 &"
b111000 U
b111000 2"
b100 S
b100 -"
0M
b1 L
b1 f
b10010 /
b10010 o
b10010 7"
b10100 Z
b10100 n
b11111111111111010000110100010011 [
b11111111111111010000110100010011 ""
b110 #
1!
#300
0!
#325
b111110 =
b111110 '"
b111110 5"
b11 C
b11 a
b11 e
19
17
b10 D
b10 q
b11111111111111111111111111100111 3
b11111111111111111111111111100111 v
b11111111111111111111111111100111 @"
b0 2
b0 u
b0 ?"
b0 m
b11111111111111111111111111111111 4
b11111111111111111111111111111111 +"
b11111111111111111111111111111111 ."
b11111111111111111111111111111111 3"
b11111111111111111111111111111111 <"
b0 >
b0 |
b0 1"
b11111111111111111111111111111111 ;
b11111111111111111111111111111111 b
b11111111111111111111111111111111 ("
b11 *
b11 d
b11 i
b11001 ~
b0 !"
b11 p
b11001 ="
b0 >"
b0 -
b0 #"
b1101111000000110000110011 ,
b1101111000000110000110011 $"
b100000 +
b100000 8"
b100000 9"
b1111 _
b1111 z
b1111 ;"
b11111111111111111111111111111111 \
b11111111111111111111111111111111 )"
b11001 I
b11001 w
b100 J
b100 s
b10000 E
b10000 r
b10000 /"
b10000 4"
b11010 Q
b11010 }
b11111 T
b11111 y
b1111111 X
b1111111 h
b11111111111111111111111111111111 Y
b11111111111111111111111111111111 &"
b111110 U
b111110 2"
1M
b0 L
b0 f
b11000 /
b11000 o
b11000 7"
b11000 Z
b11000 n
b11001010110110000011 [
b11001010110110000011 ""
b100000 )
b100000 l
b100000 6"
b11100 (
b11100 k
b11100 %"
b11100 :"
b111 #
1!
#350
0!
#375
b10000 C
b10000 a
b10000 e
09
07
01
0B
b0 D
b0 q
b0 3
b0 v
b0 @"
b11111111111111111111111111100101 2
b11111111111111111111111111100101 u
b11111111111111111111111111100101 ?"
b110110 m
b111111010000010001100011 ,
b111111010000010001100011 $"
b10000 4
b10000 +"
b10000 ."
b10000 3"
b10000 <"
b1 @
b1 {
b1 ,"
b0 ;
b0 b
b0 ("
b0 =
b0 '"
b0 5"
b10000 ?
b10000 c
b10000 0"
05
10
16
b100100 +
b100100 8"
b100100 9"
b11000 ~
b11011 !"
b110011 p
b11000 ="
b11011 >"
b11011 -
b11011 #"
b100100 )
b100100 l
b100100 6"
b100000 (
b100000 k
b100000 %"
b100000 :"
b11001 _
b11001 z
b11001 ;"
b10000 \
b10000 )"
b11010 I
b11010 w
b111110 J
b111110 s
b11 E
b11 r
b11 /"
b11 4"
b11011 Q
b11011 }
b0 T
b0 y
b11001 R
b11001 x
b10 W
b10 g
b0 X
b0 h
b0 Y
b0 &"
b0 U
b0 2"
b11111111111111111111111111100111 S
b11111111111111111111111111100111 -"
b10 L
b10 f
1N
1P
b1010010 /
b1010010 o
b1010010 7"
b11100 Z
b11100 n
b1101111000000110000110011 [
b1101111000000110000110011 ""
b1000 #
1!
#400
0!
#425
b10000 C
b10000 a
b10000 e
b0 ?
b0 c
b0 0"
b10000 ;
b10000 b
b10000 ("
11
b1 D
b1 q
b11 4
b11 +"
b11 ."
b11 3"
b11 <"
b11101 :
b11101 t
b10 >
b10 |
b10 1"
b0 @
b0 {
b0 ,"
b10000 =
b10000 '"
b10000 5"
15
00
06
b11010 _
b11010 z
b11010 ;"
b11 \
b11 )"
b11011 I
b11011 w
b0 J
b0 s
b10000 E
b10000 r
b10000 /"
b10000 4"
1F
1H
b11000 Q
b11000 }
b11011 T
b11011 y
b11000 R
b11000 x
b0 W
b0 g
b11011 Y
b11011 &"
b11111111111111111111111111100101 U
b11111111111111111111111111100101 2"
b0 S
b0 -"
0M
b0 L
b0 f
0N
0P
0V
b1001 #
b1 '
1!
#450
0!
#475
b11101 C
b11101 a
b11101 e
b11101 ;
b11101 b
b11101 ("
b11101 =
b11101 '"
b11101 5"
1A
01
b11 D
b11 q
b11 3
b11 v
b11 @"
b11111111111111111111111111111111 2
b11111111111111111111111111111111 u
b11111111111111111111111111111111 ?"
b1000 m
b11111110000000000000011011100011 ,
b11111110000000000000011011100011 $"
b11101 4
b11101 +"
b11101 ."
b11101 3"
b11101 <"
b0 :
b0 t
b1 >
b1 |
b1 1"
b101000 +
b101000 8"
b101000 9"
b11010 ~
b1111 !"
b1100011 p
b11010 ="
b1111 >"
b100 -
b100 #"
b101000 )
b101000 l
b101000 6"
b100100 (
b100100 k
b100100 %"
b100100 :"
b11011 _
b11011 z
b11011 ;"
b11101 ]
b11101 *"
b10000 \
b10000 )"
1^
b11000 I
b11000 w
b10000 J
b10000 s
0F
0H
0K
b1 L
b1 f
1V
b101000 /
b101000 o
b101000 7"
b100000 Z
b100000 n
b111111010000010001100011 [
b111111010000010001100011 ""
b1010 #
1!
#500
0!
#525
b11111111111111111111111111111111 ;
b11111111111111111111111111111111 b
b11111111111111111111111111111111 ("
1<
1.
b11111111111111111111111111111111 =
b11111111111111111111111111111111 '"
b11111111111111111111111111111111 5"
b100 C
b100 a
b100 e
b0 3
b0 v
b0 @"
b0 2
b0 u
b0 ?"
b11111111111111111111111111101100 m
b10000 4
b10000 +"
b10000 ."
b10000 3"
b10000 <"
b0 >
b0 |
b0 1"
b11 ?
b11 c
b11 0"
b100 *
b100 d
b100 i
b0 ~
b0 !"
b0 ="
b0 >"
b11111111111111111111111111110110 -
b11111111111111111111111111110110 #"
b1100000000010111000100011 ,
b1100000000010111000100011 $"
b10000 +
b10000 8"
b10000 9"
b11000 _
b11000 z
b11000 ;"
b0 ]
b0 *"
0^
0`
b11101 J
b11101 s
b11101 E
b11101 r
b11101 /"
b11101 4"
1K
b1000 Q
b1000 }
b1111 T
b1111 y
b11010 R
b11010 x
b100 Y
b100 &"
b11111111111111111111111111111111 U
b11111111111111111111111111111111 2"
b11 S
b11 -"
b11 L
b11 f
0V
b10000 /
b10000 o
b10000 7"
b100100 Z
b100100 n
b11111110000000000000011011100011 [
b11111110000000000000011011100011 ""
b101100 )
b101100 l
b101100 6"
b101000 (
b101000 k
b101000 %"
b101000 :"
b1011 #
1!
#550
0!
#575
0<
b0 C
b0 a
b0 e
0A
b0 D
b0 q
b0 m
b11110011010000110010110011 ,
b11110011010000110010110011 $"
b11101 4
b11101 +"
b11101 ."
b11101 3"
b11101 <"
b0 ;
b0 b
b0 ("
b0 =
b0 '"
b0 5"
b0 ?
b0 c
b0 0"
b10100 +
b10100 8"
b10100 9"
b0 p
b0 -
b0 #"
b10100 )
b10100 l
b10100 6"
b10000 (
b10000 k
b10000 %"
b10000 :"
b11101 \
b11101 )"
1`
b1000 I
b1000 w
b11111111111111111111111111111111 J
b11111111111111111111111111111111 s
b100 E
b100 r
b100 /"
b100 4"
0K
b1101 Q
b1101 }
b0 T
b0 y
b0 R
b0 x
b1111111 X
b1111111 h
b11111111111111111111111111110110 Y
b11111111111111111111111111110110 &"
b0 U
b0 2"
b0 S
b0 -"
b0 /
b0 o
b0 7"
b0 Z
b0 n
b0 [
b0 ""
b1100 #
b1 $
1!
#600
0!
#625
0.
11
b1 D
b1 q
b11 3
b11 v
b11 @"
b100 2
b100 u
b100 ?"
b1111000 m
b100 4
b100 +"
b100 ."
b100 3"
b100 <"
b11 *
b11 d
b11 i
b11010 ~
b11100 !"
b110011 p
b11010 ="
b11100 >"
b111100 -
b111100 #"
b11111111111111010000110100010011 ,
b11111111111111010000110100010011 $"
b11000 +
b11000 8"
b11000 9"
b1000 _
b1000 z
b1000 ;"
b100 \
b100 )"
0`
b1101 I
b1101 w
b0 J
b0 s
b0 E
b0 r
b0 /"
b0 4"
b0 Q
b0 }
b0 X
b0 h
b0 Y
b0 &"
b0 L
b0 f
b10001000 /
b10001000 o
b10001000 7"
b10000 Z
b10000 n
b11110011010000110010110011 [
b11110011010000110010110011 ""
b11000 )
b11000 l
b11000 6"
b10100 (
b10100 k
b10100 %"
b10100 :"
b1101 #
1!
#650
0!
#675
b1100 C
b1100 a
b1100 e
1B
b0 D
b0 q
b111110 2
b111110 u
b111110 ?"
b11111111111111111111111111111110 m
b11001010110110000011 ,
b11001010110110000011 $"
b0 4
b0 +"
b0 ."
b0 3"
b0 <"
b100 ;
b100 b
b100 ("
b100 =
b100 '"
b100 5"
b11 ?
b11 c
b11 0"
b101 *
b101 d
b101 i
b11100 +
b11100 8"
b11100 9"
b11111 !"
b10011 p
b11111 >"
b11111111111111111111111111111111 -
b11111111111111111111111111111111 #"
b11100 )
b11100 l
b11100 6"
b11000 (
b11000 k
b11000 %"
b11000 :"
b1101 _
b1101 z
b1101 ;"
b0 \
b0 )"
b0 I
b0 w
b11001 Q
b11001 }
b11100 T
b11100 y
b11010 R
b11010 x
b1 X
b1 h
b111100 Y
b111100 &"
b100 U
b100 2"
b11 S
b11 -"
b1 L
b1 f
1V
b10010 /
b10010 o
b10010 7"
b10100 Z
b10100 n
b11111111111111010000110100010011 [
b11111111111111010000110100010011 ""
b1110 #
1!
#700
0!
#725
b10 C
b10 a
b10 e
19
17
b10 D
b10 q
b10000 3
b10000 v
b10000 @"
b0 2
b0 u
b0 ?"
b0 m
b111110 =
b111110 '"
b111110 5"
b11111111111111111111111111111111 ;
b11111111111111111111111111111111 b
b11111111111111111111111111111111 ("
b11 *
b11 d
b11 i
b11001 ~
b0 !"
b11 p
b11001 ="
b0 >"
b0 -
b0 #"
b1101111000000110000110011 ,
b1101111000000110000110011 $"
b100000 +
b100000 8"
b100000 9"
b0 _
b0 z
b0 ;"
b11001 I
b11001 w
b100 J
b100 s
b1100 E
b1100 r
b1100 /"
b1100 4"
1K
b11010 Q
b11010 }
b11111 T
b11111 y
b1111111 X
b1111111 h
b11111111111111111111111111111111 Y
b11111111111111111111111111111111 &"
b111110 U
b111110 2"
1M
b0 L
b0 f
b11000 /
b11000 o
b11000 7"
b11000 Z
b11000 n
b11001010110110000011 [
b11001010110110000011 ""
b100000 )
b100000 l
b100000 6"
b11100 (
b11100 k
b11100 %"
b11100 :"
b1111 #
1!
#750
0!
#775
1.
b1100 C
b1100 a
b1100 e
09
07
01
0B
b0 D
b0 q
b11101 3
b11101 v
b11101 @"
b11101 2
b11101 u
b11101 ?"
b110110 m
b111111010000010001100011 ,
b111111010000010001100011 $"
b1100 4
b1100 +"
b1100 ."
b1100 3"
b1100 <"
b1 @
b1 {
b1 ,"
b0 ;
b0 b
b0 ("
b0 =
b0 '"
b0 5"
b1100 ?
b1100 c
b1100 0"
05
10
16
b100100 +
b100100 8"
b100100 9"
b11000 ~
b11011 !"
b110011 p
b11000 ="
b11011 >"
b11011 -
b11011 #"
b100100 )
b100100 l
b100100 6"
b100000 (
b100000 k
b100000 %"
b100000 :"
b11001 _
b11001 z
b11001 ;"
b1100 \
b1100 )"
1`
b11010 I
b11010 w
b111110 J
b111110 s
b10 E
b10 r
b10 /"
b10 4"
b11011 Q
b11011 }
b0 T
b0 y
b11001 R
b11001 x
b10 W
b10 g
b0 X
b0 h
b0 Y
b0 &"
b0 U
b0 2"
b10000 S
b10000 -"
b10 L
b10 f
1N
1P
b1010010 /
b1010010 o
b1010010 7"
b11100 Z
b11100 n
b1101111000000110000110011 [
b1101111000000110000110011 ""
b10000 #
1!
#800
0!
#825
b101001 C
b101001 a
b101001 e
b11101 ?
b11101 c
b11101 0"
b1100 ;
b1100 b
b1100 ("
11
b1 D
b1 q
b10 4
b10 +"
b10 ."
b10 3"
b10 <"
b10010 :
b10010 t
b10 >
b10 |
b10 1"
b0 @
b0 {
b0 ,"
b1100 =
b1100 '"
b1100 5"
15
00
06
b11010 _
b11010 z
b11010 ;"
b10 \
b10 )"
b11011 I
b11011 w
b0 J
b0 s
b1100 E
b1100 r
b1100 /"
b1100 4"
1F
1H
b11000 Q
b11000 }
b11011 T
b11011 y
b11000 R
b11000 x
b0 W
b0 g
b11011 Y
b11011 &"
b11101 U
b11101 2"
b11101 S
b11101 -"
0M
b0 L
b0 f
0N
0P
0V
b10001 #
b10 '
1!
#850
0!
#875
b101111 C
b101111 a
b101111 e
0.
b10010 ;
b10010 b
b10010 ("
1A
01
b11 D
b11 q
b10 3
b10 v
b10 @"
b11111111111111111111111111111111 2
b11111111111111111111111111111111 u
b11111111111111111111111111111111 ?"
b1000 m
b11111110000000000000011011100011 ,
b11111110000000000000011011100011 $"
b10010 4
b10010 +"
b10010 ."
b10010 3"
b10010 <"
b10010 =
b10010 '"
b10010 5"
b0 :
b0 t
b1 >
b1 |
b1 1"
b101000 +
b101000 8"
b101000 9"
b11010 ~
b1111 !"
b1100011 p
b11010 ="
b1111 >"
b100 -
b100 #"
b101000 )
b101000 l
b101000 6"
b100100 (
b100100 k
b100100 %"
b100100 :"
b11011 _
b11011 z
b11011 ;"
b10010 ]
b10010 *"
b1100 \
b1100 )"
1^
b11000 I
b11000 w
b1100 J
b1100 s
b101001 E
b101001 r
b101001 /"
b101001 4"
0F
0H
0K
b1 L
b1 f
1V
b101000 /
b101000 o
b101000 7"
b100000 Z
b100000 n
b111111010000010001100011 [
b111111010000010001100011 ""
b10010 #
1!
#900
0!
#925
b11111111111111111111111111111111 ;
b11111111111111111111111111111111 b
b11111111111111111111111111111111 ("
1<
1.
b11111111111111111111111111111111 =
b11111111111111111111111111111111 '"
b11111111111111111111111111111111 5"
b11 C
b11 a
b11 e
b0 3
b0 v
b0 @"
b0 2
b0 u
b0 ?"
b11111111111111111111111111101100 m
b101001 4
b101001 +"
b101001 ."
b101001 3"
b101001 <"
b0 >
b0 |
b0 1"
b10 ?
b10 c
b10 0"
b100 *
b100 d
b100 i
b0 ~
b0 !"
b0 ="
b0 >"
b11111111111111111111111111110110 -
b11111111111111111111111111110110 #"
b1100000000010111000100011 ,
b1100000000010111000100011 $"
b10000 +
b10000 8"
b10000 9"
b11000 _
b11000 z
b11000 ;"
b0 ]
b0 *"
b101001 \
b101001 )"
0^
0`
b10010 J
b10010 s
b101111 E
b101111 r
b101111 /"
b101111 4"
1K
b1000 Q
b1000 }
b1111 T
b1111 y
b11010 R
b11010 x
b100 Y
b100 &"
b11111111111111111111111111111111 U
b11111111111111111111111111111111 2"
b10 S
b10 -"
b11 L
b11 f
0V
b10000 /
b10000 o
b10000 7"
b100100 Z
b100100 n
b11111110000000000000011011100011 [
b11111110000000000000011011100011 ""
b101100 )
b101100 l
b101100 6"
b101000 (
b101000 k
b101000 %"
b101000 :"
b10011 #
1!
#950
0!
#975
0<
b0 C
b0 a
b0 e
0A
b0 D
b0 q
b0 m
b11110011010000110010110011 ,
b11110011010000110010110011 $"
b101111 4
b101111 +"
b101111 ."
b101111 3"
b101111 <"
b0 ;
b0 b
b0 ("
b0 =
b0 '"
b0 5"
b0 ?
b0 c
b0 0"
b10100 +
b10100 8"
b10100 9"
b0 p
b0 -
b0 #"
b10100 )
b10100 l
b10100 6"
b10000 (
b10000 k
b10000 %"
b10000 :"
b101111 \
b101111 )"
1`
b1000 I
b1000 w
b11111111111111111111111111111111 J
b11111111111111111111111111111111 s
b11 E
b11 r
b11 /"
b11 4"
0K
b1101 Q
b1101 }
b0 T
b0 y
b0 R
b0 x
b1111111 X
b1111111 h
b11111111111111111111111111110110 Y
b11111111111111111111111111110110 &"
b0 U
b0 2"
b0 S
b0 -"
b0 /
b0 o
b0 7"
b0 Z
b0 n
b0 [
b0 ""
b10100 #
b10 $
1!
#1000
0!
#1025
0.
11
b1 D
b1 q
b10 3
b10 v
b10 @"
b100 2
b100 u
b100 ?"
b1111000 m
b11 4
b11 +"
b11 ."
b11 3"
b11 <"
b11 *
b11 d
b11 i
b11010 ~
b11100 !"
b110011 p
b11010 ="
b11100 >"
b111100 -
b111100 #"
b11111111111111010000110100010011 ,
b11111111111111010000110100010011 $"
b11000 +
b11000 8"
b11000 9"
b1000 _
b1000 z
b1000 ;"
b11 \
b11 )"
0`
b1101 I
b1101 w
b0 J
b0 s
b0 E
b0 r
b0 /"
b0 4"
b0 Q
b0 }
b0 X
b0 h
b0 Y
b0 &"
b0 L
b0 f
b10001000 /
b10001000 o
b10001000 7"
b10000 Z
b10000 n
b11110011010000110010110011 [
b11110011010000110010110011 ""
b11000 )
b11000 l
b11000 6"
b10100 (
b10100 k
b10100 %"
b10100 :"
b10101 #
1!
#1050
0!
