lab2/lab2/log/waveform_2.vcd
$date
	Fri Nov 17 15:57:48 2023
$end
$version
	Icarus Verilog
$end
$timescale
	1s
$end
$scope module TestBench $end
$var reg 1 ! Clk $end
$var reg 1 " Reset $end
$var integer 32 # counter [31:0] $end
$var integer 32 $ flush [31:0] $end
$var integer 32 % i [31:0] $end
$var integer 32 & outfile [31:0] $end
$var integer 32 ' stall [31:0] $end
$scope module CPU $end
$var wire 1 ! clk_i $end
$var wire 1 " rst_i $end
$var wire 32 ( pc_o [31:0] $end
$var wire 32 ) pc_i [31:0] $end
$var wire 3 * operation [2:0] $end
$var wire 32 + muxPCResult [31:0] $end
$var wire 32 , instr [31:0] $end
$var wire 32 - immediate [31:0] $end
$var wire 32 . branchAddr [31:0] $end
$var wire 1 / Stall $end
$var wire 1 0 RegWrite $end
$var wire 32 1 RS2data [31:0] $end
$var wire 32 2 RS1data [31:0] $end
$var wire 32 3 RDdata [31:0] $end
$var wire 1 4 PCWrite $end
$var wire 1 5 NoOp $end
$var wire 1 6 MemtoReg $end
$var wire 1 7 MemWrite $end
$var wire 1 8 MemRead $end
$var wire 32 9 MemData [31:0] $end
$var wire 32 : MUXResult [31:0] $end
$var wire 32 ; ForwardBData [31:0] $end
$var wire 2 < ForwardB [1:0] $end
$var wire 32 = ForwardAData [31:0] $end
$var wire 2 > ForwardA [1:0] $end
$var wire 1 ? Branch $end
$var wire 1 @ ALUSrc $end
$var wire 32 A ALUResult [31:0] $end
$var wire 2 B ALUOp [1:0] $end
$var reg 32 C EX_MEM_ALUResult [31:0] $end
$var reg 1 D EX_MEM_MemRead $end
$var reg 1 E EX_MEM_MemWrite $end
$var reg 1 F EX_MEM_MemtoReg $end
$var reg 5 G EX_MEM_RDaddr [4:0] $end
$var reg 32 H EX_MEM_RS2data [31:0] $end
$var reg 1 I EX_MEM_RegWrite $end
$var reg 2 J ID_EX_ALUOp [1:0] $end
$var reg 1 K ID_EX_ALUSrc $end
$var reg 1 L ID_EX_MemRead $end
$var reg 1 M ID_EX_MemWrite $end
$var reg 1 N ID_EX_MemtoReg $end
$var reg 5 O ID_EX_RDaddr [4:0] $end
$var reg 5 P ID_EX_RS1addr [4:0] $end
$var reg 32 Q ID_EX_RS1data [31:0] $end
$var reg 5 R ID_EX_RS2addr [4:0] $end
$var reg 32 S ID_EX_RS2data [31:0] $end
$var reg 1 T ID_EX_RegWrite $end
$var reg 3 U ID_EX_func3 [2:0] $end
$var reg 7 V ID_EX_func7 [6:0] $end
$var reg 32 W ID_EX_immediate [31:0] $end
$var reg 1 X ID_FlushIF $end
$var reg 32 Y IF_ID_PC [31:0] $end
$var reg 32 Z IF_ID_instr [31:0] $end
$var reg 32 [ MEM_WB_ALUResult [31:0] $end
$var reg 32 \ MEM_WB_MemData [31:0] $end
$var reg 1 ] MEM_WB_MemtoReg $end
$var reg 5 ^ MEM_WB_RDaddr [4:0] $end
$var reg 1 _ MEM_WB_RegWrite $end
$var reg 1 ` equal $end
$scope module ALU $end
$var wire 32 a ALUResult_o [31:0] $end
$var wire 32 b src2_i [31:0] $end
$var wire 32 c src1_i [31:0] $end
$var wire 3 d op_i [2:0] $end
$var reg 32 e tmpResult [31:0] $end
$upscope $end
$scope module ALU_Control $end
$var wire 2 f ALUOp_i [1:0] $end
$var wire 3 g funct3_i [14:12] $end
$var wire 7 h funct7_i [31:25] $end
$var reg 3 i op_o [2:0] $end
$upscope $end
$scope module Add $end
$var wire 32 j src2_i [31:0] $end
$var wire 32 k src1_i [31:0] $end
$var wire 32 l adder_o [31:0] $end
$upscope $end
$scope module Add2 $end
$var wire 32 m src1_i [31:0] $end
$var wire 32 n src2_i [31:0] $end
$var wire 32 o adder_o [31:0] $end
$upscope $end
$scope module Control $end
$var wire 7 p opcode_i [6:0] $end
$var wire 1 5 NoOp_i $end
$var reg 2 q ALUOp_o [1:0] $end
$var reg 1 @ ALUSrc_o $end
$var reg 1 ? Branch_o $end
$var reg 1 8 MemRead_o $end
$var reg 1 7 MemWrite_o $end
$var reg 1 6 MemtoReg_o $end
$var reg 1 0 RegWrite_o $end
$upscope $end
$scope module Data_Memory $end
$var wire 1 D MemRead_i $end
$var wire 1 E MemWrite_i $end
$var wire 32 r addr_i [31:0] $end
$var wire 1 ! clk_i $end
$var wire 32 s data_i [31:0] $end
$var wire 32 t data_o [31:0] $end
$upscope $end
$scope module Forwarding $end
$var wire 5 u EX_MEM_RDaddr_i [4:0] $end
$var wire 1 I EX_MEM_RegWrite_i $end
$var wire 5 v ID_EX_RS1addr_i [4:0] $end
$var wire 5 w ID_EX_RS2addr_i [4:0] $end
$var wire 5 x MEM_WB_RDaddr_i [4:0] $end
$var wire 1 _ MEM_WB_RegWrite_i $end
$var reg 2 y ForwardA_o [1:0] $end
$var reg 2 z ForwardB_o [1:0] $end
$upscope $end
$scope module Hazard_Detection $end
$var wire 1 L ID_EX_MemRead_i $end
$var wire 5 { ID_EX_RDaddr_i [4:0] $end
$var wire 5 | RS1addr_i [4:0] $end
$var wire 5 } RS2addr_i [4:0] $end
$var wire 1 ! clk_i $end
$var wire 1 " rst_i $end
$var reg 1 5 NoOp_o $end
$var reg 1 4 PCWrite_o $end
$var reg 1 / Stall_o $end
$upscope $end
$scope module Imm_Gen $end
$var wire 32 ~ imm_i [31:0] $end
$var reg 32 !" imm_o [31:0] $end
$upscope $end
$scope module Instruction_Memory $end
$var wire 32 "" instr_o [31:0] $end
$var wire 32 #" addr_i [31:0] $end
$upscope $end
$scope module MUX $end
$var wire 1 K sel $end
$var wire 32 $" src2_i [31:0] $end
$var wire 32 %" src1_i [31:0] $end
$var reg 32 &" mux_o [31:0] $end
$upscope $end
$scope module MUX2 $end
$var wire 1 ] sel $end
$var wire 32 '" src1_i [31:0] $end
$var wire 32 (" src2_i [31:0] $end
$var reg 32 )" mux_o [31:0] $end
$upscope $end
$scope module MUX32_ForwardA $end
$var wire 2 *" sel [1:0] $end
$var wire 32 +" src1_i [31:0] $end
$var wire 32 ," src2_i [31:0] $end
$var wire 32 -" src3_i [31:0] $end
$var reg 32 ." mux_o [31:0] $end
$upscope $end
$scope module MUX32_ForwardB $end
$var wire 2 /" sel [1:0] $end
$var wire 32 0" src1_i [31:0] $end
$var wire 32 1" src2_i [31:0] $end
$var wire 32 2" src3_i [31:0] $end
$var reg 32 3" mux_o [31:0] $end
$upscope $end
$scope module MUX32_PC $end
$var wire 1 X sel $end
$var wire 32 4" src1_i [31:0] $end
$var wire 32 5" src2_i [31:0] $end
$var reg 32 6" mux_o [31:0] $end
$upscope $end
$scope module PC $end
$var wire 1 4 PCWrite_i $end
$var wire 1 ! clk_i $end
$var wire 32 7" pc_i [31:0] $end
$var wire 1 " rst_i $end
$var reg 32 8" pc_o [31:0] $end
$upscope $end
$scope module Registers $end
$var wire 5 9" RDaddr_i [4:0] $end
$var wire 32 :" RDdata_i [31:0] $end
$var wire 5 ;" RS1addr_i [4:0] $end
$var wire 5 <" RS2addr_i [4:0] $end
$var wire 1 _ RegWrite_i $end
$var wire 1 ! clk_i $end
$var wire 1 " rst_i $end
$var wire 32 =" RS2data_o [31:0] $end
$var wire 32 >" RS1data_o [31:0] $end
$var integer 32 ?" i [31:0] $end
$upscope $end
$upscope $end
$upscope $end
$enddefinitions $end
#0
$dumpvars
bx ?"
bx >"
bx ="
bx <"
bx ;"
bx :"
bx 9"
bx 8"
bx 7"
bx 6"
bx 5"
bx 4"
bx 3"
bx 2"
bx 1"
bx 0"
bx /"
bx ."
bx -"
bx ,"
bx +"
bx *"
bx )"
bx ("
bx '"
bx &"
bx %"
bx $"
bx #"
bx ""
bx !"
bx ~
bx }
bx |
bx {
bx z
bx y
bx x
bx w
bx v
bx u
bx t
bx s
bx r
b0 q
bx p
bx o
bx n
bx0 m
bx l
bx k
b100 j
bx i
bx h
bx g
bx f
bx e
bx d
bx c
bx b
bx a
x`
x_
bx ^
x]
bx \
bx [
bx Z
bx Y
xX
bx W
bx V
bx U
xT
bx S
bx R
bx Q
bx P
bx O
xN
xM
xL
xK
bx J
xI
bx H
bx G
xF
xE
xD
bx C
b0 B
bx A
0@
0?
bx >
bx =
bx <
bx ;
bx :
bx 9
08
07
06
05
14
bx 3
bx 2
bx 1
00
0/
bx .
bx -
bx ,
bx +
bx *
bx )
bx (
b0 '
b11 &
b100000 %
b0 $
b0 #
1"
0!
$end
#6
b0 A
b0 a
b0 e
b0 :
b0 b
b0 &"
b0 2
b0 >"
b0 1
b0 ="
b0 .
b0 o
b0 5"
b0 m
b1100010000000100000110011 ,
b1100010000000100000110011 ""
b100 +
b100 6"
b0 3
b0 )"
b0 ,"
b0 1"
b0 :"
b0 9
b0 t
b0 <
b0 z
b0 /"
b0 >
b0 y
b0 *"
b0 ;
b0 %"
b0 3"
b0 =
b0 c
b0 ."
b11 *
b11 d
b11 i
b0 |
b0 }
b0 p
b0 ;"
b0 <"
b0 -
b0 !"
b100 )
b100 l
b100 4"
b100 7"
b0 (
b0 k
b0 #"
b0 8"
b0 ^
b0 x
b0 9"
b0 \
b0 ("
b0 [
b0 '"
0]
0_
b0 G
b0 u
b0 H
b0 s
b0 C
b0 r
b0 -"
b0 2"
0E
0D
0F
0I
b0 O
b0 {
b0 R
b0 w
b0 P
b0 v
b0 U
b0 g
b0 V
b0 h
b0 W
b0 $"
b0 S
b0 0"
b0 Q
b0 +"
0K
b0 J
b0 f
0M
0L
0N
0T
b0 Y
b0 n
b0 Z
b0 ~
b100000 ?"
0"
#12
1"
#25
10
b1 B
b1 q
b11111111111111111111111111101000 1
b11111111111111111111111111101000 ="
b110000 .
b110000 o
b110000 5"
b110000 m
b10000 |
b11000 }
b110011 p
b10000 ;"
b11000 <"
b11000 -
b11000 !"
b1100110000000100000110011 ,
b1100110000000100000110011 ""
b1000 +
b1000 6"
0X
1`
b1100010000000100000110011 Z
b1100010000000100000110011 ~
b1000 )
b1000 l
b1000 4"
b1000 7"
b100 (
b100 k
b100 #"
b100 8"
b1 #
1!
#50
0!
#75
b11111111111111111111111111101000 A
b11111111111111111111111111101000 a
b11111111111111111111111111101000 e
b11111111111111111111111111100111 1
b11111111111111111111111111100111 ="
b110010 m
b1101010000000100000110011 ,
b1101010000000100000110011 ""
b11111111111111111111111111101000 :
b11111111111111111111111111101000 b
b11111111111111111111111111101000 &"
b11111111111111111111111111101000 ;
b11111111111111111111111111101000 %"
b11111111111111111111111111101000 3"
b1100 +
b1100 6"
b11001 }
b11001 <"
b11001 -
b11001 !"
0`
b1100 )
b1100 l
b1100 4"
b1100 7"
b1000 (
b1000 k
b1000 #"
b1000 8"
b10000 O
b10000 {
b11000 R
b11000 w
b10000 P
b10000 v
b11000 W
b11000 $"
b11111111111111111111111111101000 S
b11111111111111111111111111101000 0"
b1 J
b1 f
1T
b110110 .
b110110 o
b110110 5"
b100 Y
b100 n
b1100110000000100000110011 Z
b1100110000000100000110011 ~
b10 #
1!
#100
0!
#125
b11111111111111111111111111001111 A
b11111111111111111111111111001111 a
b11111111111111111111111111001111 e
b11111111111111111111111111100110 1
b11111111111111111111111111100110 ="
b110100 m
b11111111111111111111111111101000 =
b11111111111111111111111111101000 c
b11111111111111111111111111101000 ."
b10 >
b10 y
b10 *"
b11111111111111111111111111100111 :
b11111111111111111111111111100111 b
b11111111111111111111111111100111 &"
b11111111111111111111111111100111 ;
b11111111111111111111111111100111 %"
b11111111111111111111111111100111 3"
b11010 }
b11010 <"
b11010 -
b11010 !"
b1110010000000100000110011 ,
b1110010000000100000110011 ""
b10000 +
b10000 6"
b10000 G
b10000 u
b11111111111111111111111111101000 H
b11111111111111111111111111101000 s
b11111111111111111111111111101000 C
b11111111111111111111111111101000 r
b11111111111111111111111111101000 -"
b11111111111111111111111111101000 2"
1I
b11001 R
b11001 w
b11001 W
b11001 $"
b11111111111111111111111111100111 S
b11111111111111111111111111100111 0"
b111100 .
b111100 o
b111100 5"
b1000 Y
b1000 n
b1101010000000100000110011 Z
b1101010000000100000110011 ~
b10000 )
b10000 l
b10000 4"
b10000 7"
b1100 (
b1100 k
b1100 #"
b1100 8"
b11 #
1!
#150
0!
#175
b11111111111111111111111111101000 2
b11111111111111111111111111101000 >"
b11111111111111111111111110110101 A
b11111111111111111111111110110101 a
b11111111111111111111111110110101 e
b111000 1
b111000 ="
b111000 m
b1000000000010110000100011 ,
b1000000000010110000100011 ""
b11111111111111111111111111101000 3
b11111111111111111111111111101000 )"
b11111111111111111111111111101000 ,"
b11111111111111111111111111101000 1"
b11111111111111111111111111101000 :"
b11111111111111111111111111001111 =
b11111111111111111111111111001111 c
b11111111111111111111111111001111 ."
b11111111111111111111111111100110 :
b11111111111111111111111111100110 b
b11111111111111111111111111100110 &"
b11111111111111111111111111100110 ;
b11111111111111111111111111100110 %"
b11111111111111111111111111100110 3"
b10100 +
b10100 6"
b11100 }
b11100 <"
b11100 -
b11100 !"
b10100 )
b10100 l
b10100 4"
b10100 7"
b10000 (
b10000 k
b10000 #"
b10000 8"
b10000 ^
b10000 x
b10000 9"
b11111111111111111111111111101000 [
b11111111111111111111111111101000 '"
1_
b11111111111111111111111111100111 H
b11111111111111111111111111100111 s
b11111111111111111111111111001111 C
b11111111111111111111111111001111 r
b11111111111111111111111111001111 -"
b11111111111111111111111111001111 2"
b11010 R
b11010 w
b11010 W
b11010 $"
b11111111111111111111111111100110 S
b11111111111111111111111111100110 0"
b1000100 .
b1000100 o
b1000100 5"
b1100 Y
b1100 n
b1110010000000100000110011 Z
b1110010000000100000110011 ~
b100 #
1!
#200
0!
#225
b0 2
b0 >"
b11111111111111111111111111101101 A
b11111111111111111111111111101101 a
b11111111111111111111111111101101 e
17
00
1@
b10 B
b10 q
b11111111111111111111111111001111 1
b11111111111111111111111111001111 ="
b110000 m
b11111111111111111111111111001111 3
b11111111111111111111111111001111 )"
b11111111111111111111111111001111 ,"
b11111111111111111111111111001111 1"
b11111111111111111111111111001111 :"
b111000 :
b111000 b
b111000 &"
b111000 ;
b111000 %"
b111000 3"
b11111111111111111111111110110101 =
b11111111111111111111111110110101 c
b11111111111111111111111110110101 ."
b0 |
b10000 }
b100011 p
b0 ;"
b10000 <"
b11000 -
b11000 !"
b1000001111011111000000010110011 ,
b1000001111011111000000010110011 ""
b11000 +
b11000 6"
b11111111111111111111111111001111 [
b11111111111111111111111111001111 '"
b11111111111111111111111111100110 H
b11111111111111111111111111100110 s
b11111111111111111111111110110101 C
b11111111111111111111111110110101 r
b11111111111111111111111110110101 -"
b11111111111111111111111110110101 2"
b11100 R
b11100 w
b11100 W
b11100 $"
b111000 S
b111000 0"
b11111111111111111111111111101000 Q
b11111111111111111111111111101000 +"
b1000000 .
b1000000 o
b1000000 5"
b10000 Y
b10000 n
b1000000000010110000100011 Z
b1000000000010110000100011 ~
b11000 )
b11000 l
b11000 4"
b11000 7"
b10100 (
b10100 k
b10100 #"
b10100 8"
b101 #
1!
#250
0!
#275
b111100 1
b111100 ="
b11000 A
b11000 a
b11000 e
07
10
0@
b1 B
b1 q
b111110 2
b111110 >"
b100000111100 m
b1111000001000000100110011 ,
b1111000001000000100110011 ""
b11111111111111111111111110110101 3
b11111111111111111111111110110101 )"
b11111111111111111111111110110101 ,"
b11111111111111111111111110110101 1"
b11111111111111111111111110110101 :"
b10 <
b10 z
b10 /"
b0 >
b0 y
b0 *"
b11111111111111111111111111101101 ;
b11111111111111111111111111101101 %"
b11111111111111111111111111101101 3"
b0 =
b0 c
b0 ."
b11000 :
b11000 b
b11000 &"
b11100 +
b11100 6"
b11111 |
b11110 }
b110011 p
b11111 ;"
b11110 <"
b10000011110 -
b10000011110 !"
b11100 )
b11100 l
b11100 4"
b11100 7"
b11000 (
b11000 k
b11000 #"
b11000 8"
b11111111111111111111111110110101 [
b11111111111111111111111110110101 '"
b111000 H
b111000 s
b11111111111111111111111111101101 C
b11111111111111111111111111101101 r
b11111111111111111111111111101101 -"
b11111111111111111111111111101101 2"
b11000 O
b11000 {
b10000 R
b10000 w
b0 P
b0 v
b10 U
b10 g
b11000 W
b11000 $"
b11111111111111111111111111001111 S
b11111111111111111111111111001111 0"
b0 Q
b0 +"
1K
b10 J
b10 f
1M
0T
b100001010000 .
b100001010000 o
b100001010000 5"
b10100 Y
b10100 n
b1000001111011111000000010110011 Z
b1000001111011111000000010110011 ~
b110 #
1!
#300
0!
#325
b10 A
b10 a
b10 e
b0 2
b0 >"
b111100 m
b11111111111111111111111111101101 3
b11111111111111111111111111101101 )"
b11111111111111111111111111101101 ,"
b11111111111111111111111111101101 1"
b11111111111111111111111111101101 :"
b0 <
b0 z
b0 /"
b111100 ;
b111100 %"
b111100 3"
b111110 =
b111110 c
b111110 ."
b111100 :
b111100 b
b111100 &"
b100 *
b100 d
b100 i
b1 |
b1 ;"
b11110 -
b11110 !"
b1000000001000010101000110010011 ,
b1000000001000010101000110010011 ""
b100000 +
b100000 6"
b11111111111111111111111111101101 [
b11111111111111111111111111101101 '"
b11000 G
b11000 u
b11111111111111111111111111101101 H
b11111111111111111111111111101101 s
b11000 C
b11000 r
b11000 -"
b11000 2"
1E
0I
b1 O
b1 {
b11110 R
b11110 w
b11111 P
b11111 v
b0 U
b0 g
b100000 V
b100000 h
b10000011110 W
b10000011110 $"
b111100 S
b111100 0"
b111110 Q
b111110 +"
0K
b1 J
b1 f
0M
1T
b1010100 .
b1010100 o
b1010100 5"
b11000 Y
b11000 n
b1111000001000000100110011 Z
b1111000001000000100110011 ~
b100000 )
b100000 l
b100000 4"
b100000 7"
b11100 (
b11100 k
b11100 #"
b11100 8"
b111 #
1!
#350
0!
#375
b111110 A
b111110 a
b111110 e
1@
b0 B
b0 q
b0 1
b0 ="
b100000000100 m
b1000000000011010010011 ,
b1000000000011010010011 ""
b11000 3
b11000 )"
b11000 ,"
b11000 1"
b11000 :"
b10 >
b10 y
b10 *"
b11 *
b11 d
b11 i
b10 =
b10 c
b10 ."
b100100 +
b100100 6"
b10 |
b10 }
b10011 p
b10 ;"
b10 <"
b10000000010 -
b10000000010 !"
b100100 )
b100100 l
b100100 4"
b100100 7"
b100000 (
b100000 k
b100000 #"
b100000 8"
b11000 ^
b11000 x
b11000 9"
b11000 [
b11000 '"
0_
b1 G
b1 u
b111100 H
b111100 s
b10 C
b10 r
b10 -"
b10 2"
0E
1I
b10 O
b10 {
b1 P
b1 v
b0 V
b0 h
b11110 W
b11110 $"
b0 Q
b0 +"
b100000100000 .
b100000100000 o
b100000100000 5"
b11100 Y
b11100 n
b1000000001000010101000110010011 Z
b1000000001000010101000110010011 ~
b1000 #
1!
#400
0!
#425
b1111 A
b1111 a
b1111 e
b100 m
b10 3
b10 )"
b10 ,"
b10 1"
b10 :"
b111110 =
b111110 c
b111110 ."
b10 <
b10 z
b10 /"
b111110 ;
b111110 %"
b111110 3"
b10000000010 :
b10000000010 b
b10000000010 &"
b111 *
b111 d
b111 i
b0 |
b0 ;"
b10 -
b10 !"
b110111110001011110110011 ,
b110111110001011110110011 ""
b101000 +
b101000 6"
1`
b1 ^
b1 x
b1 9"
b10 [
b10 '"
1_
b10 G
b10 u
b111110 C
b111110 r
b111110 -"
b111110 2"
b11 O
b11 {
b10 R
b10 w
b10 P
b10 v
b101 U
b101 g
b100000 V
b100000 h
b10000000010 W
b10000000010 $"
b0 S
b0 0"
1K
b0 J
b0 f
b100100 .
b100100 o
b100100 5"
b100000 Y
b100000 n
b1000000000011010010011 Z
b1000000000011010010011 ~
b101000 )
b101000 l
b101000 4"
b101000 7"
b100100 (
b100100 k
b100100 #"
b100100 8"
b1001 #
1!
#450
0!
#475
b10 A
b10 a
b10 e
0@
b1 B
b1 q
b111100 2
b111100 >"
b11010 m
b1100000010101000100011 ,
b1100000010101000100011 ""
b111110 3
b111110 )"
b111110 ,"
b111110 1"
b111110 :"
b0 =
b0 c
b0 ."
b111110 ;
b111110 %"
b111110 3"
b1 <
b1 z
b1 /"
b0 >
b0 y
b0 *"
b11 *
b11 d
b11 i
b10 :
b10 b
b10 &"
b101100 +
b101100 6"
b11110 |
b1101 }
b110011 p
b11110 ;"
b1101 <"
b1101 -
b1101 !"
b101100 )
b101100 l
b101100 4"
b101100 7"
b101000 (
b101000 k
b101000 #"
b101000 8"
b10 ^
b10 x
b10 9"
b111110 [
b111110 '"
b11 G
b11 u
b111110 H
b111110 s
b1111 C
b1111 r
b1111 -"
b1111 2"
b1101 O
b1101 {
b0 P
b0 v
b0 U
b0 g
b0 V
b0 h
b10 W
b10 $"
b111110 .
b111110 o
b111110 5"
b100100 Y
b100100 n
b110111110001011110110011 Z
b110111110001011110110011 ~
b1010 #
1!
#500
0!
#525
b1111 1
b1111 ="
b11110000 A
b11110000 a
b11110000 e
17
00
1@
b10 B
b10 q
b0 2
b0 >"
b101000 m
b1111 3
b1111 )"
b1111 ,"
b1111 1"
b1111 :"
b10 ;
b10 %"
b10 3"
b10 <
b10 z
b10 /"
b111100 =
b111100 c
b111100 ."
b10 :
b10 b
b10 &"
b10 *
b10 d
b10 i
b0 |
b11 }
b100011 p
b0 ;"
b11 <"
b10100 -
b10100 !"
b10101000000011 ,
b10101000000011 ""
b110000 +
b110000 6"
0`
b11 ^
b11 x
b11 9"
b1111 [
b1111 '"
b1101 G
b1101 u
b10 C
b10 r
b10 -"
b10 2"
b1111 O
b1111 {
b1101 R
b1101 w
b11110 P
b11110 v
b1 U
b1 g
b1101 W
b1101 $"
b111100 Q
b111100 +"
0K
b1 J
b1 f
b1010000 .
b1010000 o
b1010000 5"
b101000 Y
b101000 n
b1100000010101000100011 Z
b1100000010101000100011 ~
b110000 )
b110000 l
b110000 4"
b110000 7"
b101100 (
b101100 k
b101100 #"
b101100 8"
b1011 #
1!
#550
0!
#575
b0 1
b0 ="
b10100 A
b10100 a
b10100 e
07
18
16
10
b0 m
b10000000010101010000011 ,
b10000000010101010000011 ""
b10 3
b10 )"
b10 ,"
b10 1"
b10 :"
b0 <
b0 z
b0 /"
b1111 ;
b1111 %"
b1111 3"
b0 =
b0 c
b0 ."
b10100 :
b10100 b
b10100 &"
b11 *
b11 d
b11 i
b110100 +
b110100 6"
b0 }
b11 p
b0 <"
b0 -
b0 !"
b110100 )
b110100 l
b110100 4"
b110100 7"
b110000 (
b110000 k
b110000 #"
b110000 8"
b1101 ^
b1101 x
b1101 9"
b10 [
b10 '"
b1111 G
b1111 u
b10 H
b10 s
b11110000 C
b11110000 r
b11110000 -"
b11110000 2"
b10100 O
b10100 {
b11 R
b11 w
b0 P
b0 v
b10 U
b10 g
b10100 W
b10100 $"
b1111 S
b1111 0"
b0 Q
b0 +"
1K
b10 J
b10 f
1M
0T
b101100 .
b101100 o
b101100 5"
b101100 Y
b101100 n
b10101000000011 Z
b10101000000011 ~
b1100 #
1!
#600
0!
#625
b0 A
b0 a
b0 e
b1000 m
b11110000 3
b11110000 )"
b11110000 ,"
b11110000 1"
b11110000 :"
b0 :
b0 b
b0 &"
b0 ;
b0 %"
b0 3"
b100 }
b100 <"
b100 -
b100 !"
b100000000010101100000011 ,
b100000000010101100000011 ""
b111000 +
b111000 6"
1`
b1111 ^
b1111 x
b1111 9"
b11110000 [
b11110000 '"
b10100 G
b10100 u
b1111 H
b1111 s
b10100 C
b10100 r
b10100 -"
b10100 2"
1E
0I
b0 R
b0 w
b0 W
b0 $"
b0 S
b0 0"
0M
1L
1N
1T
b111000 .
b111000 o
b111000 5"
b110000 Y
b110000 n
b10000000010101010000011 Z
b10000000010101010000011 ~
b111000 )
b111000 l
b111000 4"
b111000 7"
b110100 (
b110100 k
b110100 #"
b110100 8"
b1101 #
1!
#650
0!
#675
b100 A
b100 a
b100 e
b10000 m
b0 ,
b0 ""
b10100 3
b10100 )"
b10100 ,"
b10100 1"
b10100 :"
b101 9
b101 t
b100 :
b100 b
b100 &"
b111100 +
b111100 6"
b1000 }
b1000 <"
b1000 -
b1000 !"
b111100 )
b111100 l
b111100 4"
b111100 7"
b111000 (
b111000 k
b111000 #"
b111000 8"
b10100 ^
b10100 x
b10100 9"
b10100 [
b10100 '"
0_
b0 H
b0 s
b0 C
b0 r
b0 -"
b0 2"
0E
1D
1F
1I
b10101 O
b10101 {
b100 R
b100 w
b100 W
b100 $"
b1000100 .
b1000100 o
b1000100 5"
b110100 Y
b110100 n
b100000000010101100000011 Z
b100000000010101100000011 ~
b1110 #
1!
#700
0!
#725
b110 9
b110 t
b1000 A
b1000 a
b1000 e
08
06
00
0@
b0 B
b0 q
b0 m
b101 3
b101 )"
b101 ,"
b101 1"
b101 :"
b1000 :
b1000 b
b1000 &"
b0 }
b0 p
b0 <"
b0 -
b0 !"
b1000000 +
b1000000 6"
b101 \
b101 ("
b0 [
b0 '"
1]
1_
b10101 G
b10101 u
b100 C
b100 r
b100 -"
b100 2"
b10110 O
b10110 {
b1000 R
b1000 w
b1000 W
b1000 $"
b111000 .
b111000 o
b111000 5"
b111000 Y
b111000 n
b0 Z
b0 ~
b1000000 )
b1000000 l
b1000000 4"
b1000000 7"
b111100 (
b111100 k
b111100 #"
b111100 8"
b1111 #
1!
#750
0!
#775
b1010 9
b1010 t
b0 A
b0 a
b0 e
b110 3
b110 )"
b110 ,"
b110 1"
b110 :"
b0 :
b0 b
b0 &"
b1000100 +
b1000100 6"
b1000100 )
b1000100 l
b1000100 4"
b1000100 7"
b1000000 (
b1000000 k
b1000000 #"
b1000000 8"
b10101 ^
b10101 x
b10101 9"
b110 \
b110 ("
b100 [
b100 '"
b10110 G
b10110 u
b1000 C
b1000 r
b1000 -"
b1000 2"
b0 O
b0 {
b0 R
b0 w
b0 U
b0 g
b0 W
b0 $"
0K
b0 J
b0 f
0L
0N
0T
b111100 .
b111100 o
b111100 5"
b111100 Y
b111100 n
b10000 #
1!
#800
0!
#825
b1010 3
b1010 )"
b1010 ,"
b1010 1"
b1010 :"
b0 9
b0 t
b1001000 +
b1001000 6"
b10110 ^
b10110 x
b10110 9"
b1010 \
b1010 ("
b1000 [
b1000 '"
b0 G
b0 u
b0 C
b0 r
b0 -"
b0 2"
0D
0F
0I
b1000000 .
b1000000 o
b1000000 5"
b1000000 Y
b1000000 n
b1001000 )
b1001000 l
b1001000 4"
b1001000 7"
b1000100 (
b1000100 k
b1000100 #"
b1000100 8"
b10001 #
1!
#850
0!
#875
b0 3
b0 )"
b0 ,"
b0 1"
b0 :"
b1001100 +
b1001100 6"
b1001100 )
b1001100 l
b1001100 4"
b1001100 7"
b1001000 (
b1001000 k
b1001000 #"
b1001000 8"
b0 ^
b0 x
b0 9"
b0 \
b0 ("
b0 [
b0 '"
0]
0_
b1000100 .
b1000100 o
b1000100 5"
b1000100 Y
b1000100 n
b10010 #
1!
#900
0!
#925
b1010000 +
b1010000 6"
b1001000 .
b1001000 o
b1001000 5"
b1001000 Y
b1001000 n
b1010000 )
b1010000 l
b1010000 4"
b1010000 7"
b1001100 (
b1001100 k
b1001100 #"
b1001100 8"
b10011 #
1!
#950
0!
#975
b1010100 +
b1010100 6"
b1010100 )
b1010100 l
b1010100 4"
b1010100 7"
b1010000 (
b1010000 k
b1010000 #"
b1010000 8"
b1001100 .
b1001100 o
b1001100 5"
b1001100 Y
b1001100 n
b10100 #
1!
#1000
0!
#1025
b1011000 +
b1011000 6"
b1010000 .
b1010000 o
b1010000 5"
b1010000 Y
b1010000 n
b1011000 )
b1011000 l
b1011000 4"
b1011000 7"
b1010100 (
b1010100 k
b1010100 #"
b1010100 8"
b10101 #
1!
#1050
0!
#1075
b1011100 +
b1011100 6"
b1011100 )
b1011100 l
b1011100 4"
b1011100 7"
b1011000 (
b1011000 k
b1011000 #"
b1011000 8"
b1010100 .
b1010100 o
b1010100 5"
b1010100 Y
b1010100 n
b10110 #
1!
#1100
0!
#1125
b1100000 +
b1100000 6"
b1011000 .
b1011000 o
b1011000 5"
b1011000 Y
b1011000 n
b1100000 )
b1100000 l
b1100000 4"
b1100000 7"
b1011100 (
b1011100 k
b1011100 #"
b1011100 8"
b10111 #
1!
#1150
0!
#1175
b1100100 +
b1100100 6"
b1100100 )
b1100100 l
b1100100 4"
b1100100 7"
b1100000 (
b1100000 k
b1100000 #"
b1100000 8"
b1011100 .
b1011100 o
b1011100 5"
b1011100 Y
b1011100 n
b11000 #
1!
#1200
0!
#1225
b1101000 +
b1101000 6"
b1100000 .
b1100000 o
b1100000 5"
b1100000 Y
b1100000 n
b1101000 )
b1101000 l
b1101000 4"
b1101000 7"
b1100100 (
b1100100 k
b1100100 #"
b1100100 8"
b11001 #
1!
#1250
0!
#1275
b1101100 +
b1101100 6"
b1101100 )
b1101100 l
b1101100 4"
b1101100 7"
b1101000 (
b1101000 k
b1101000 #"
b1101000 8"
b1100100 .
b1100100 o
b1100100 5"
b1100100 Y
b1100100 n
b11010 #
1!
#1300
0!
#1325
b1110000 +
b1110000 6"
b1101000 .
b1101000 o
b1101000 5"
b1101000 Y
b1101000 n
b1110000 )
b1110000 l
b1110000 4"
b1110000 7"
b1101100 (
b1101100 k
b1101100 #"
b1101100 8"
b11011 #
1!
#1350
0!
#1375
b1110100 +
b1110100 6"
b1110100 )
b1110100 l
b1110100 4"
b1110100 7"
b1110000 (
b1110000 k
b1110000 #"
b1110000 8"
b1101100 .
b1101100 o
b1101100 5"
b1101100 Y
b1101100 n
b11100 #
1!
#1400
0!
#1425
b1111000 +
b1111000 6"
b1110000 .
b1110000 o
b1110000 5"
b1110000 Y
b1110000 n
b1111000 )
b1111000 l
b1111000 4"
b1111000 7"
b1110100 (
b1110100 k
b1110100 #"
b1110100 8"
b11101 #
1!
#1450
0!
#1475
b1111100 +
b1111100 6"
b1111100 )
b1111100 l
b1111100 4"
b1111100 7"
b1111000 (
b1111000 k
b1111000 #"
b1111000 8"
b1110100 .
b1110100 o
b1110100 5"
b1110100 Y
b1110100 n
b11110 #
1!
