lab2/lab2/log/waveform_3.vcd
$date
	Fri Nov 17 15:57:48 2023
$end
$version
	Icarus Verilog
$end
$timescale
	1s
$end
$scope module TestBench $end
$var reg 1 ! Clk $end
$var reg 1 " Reset $end
$var integer 32 # counter [31:0] $end
$var integer 32 $ flush [31:0] $end
$var integer 32 % i [31:0] $end
$var integer 32 & outfile [31:0] $end
$var integer 32 ' stall [31:0] $end
$scope module CPU $end
$var wire 1 ! clk_i $end
$var wire 1 " rst_i $end
$var wire 32 ( pc_o [31:0] $end
$var wire 32 ) pc_i [31:0] $end
$var wire 3 * operation [2:0] $end
$var wire 32 + muxPCResult [31:0] $end
$var wire 32 , instr [31:0] $end
$var wire 32 - immediate [31:0] $end
$var wire 32 . branchAddr [31:0] $end
$var wire 1 / Stall $end
$var wire 1 0 RegWrite $end
$var wire 32 1 RS2data [31:0] $end
$var wire 32 2 RS1data [31:0] $end
$var wire 32 3 RDdata [31:0] $end
$var wire 1 4 PCWrite $end
$var wire 1 5 NoOp $end
$var wire 1 6 MemtoReg $end
$var wire 1 7 MemWrite $end
$var wire 1 8 MemRead $end
$var wire 32 9 MemData [31:0] $end
$var wire 32 : MUXResult [31:0] $end
$var wire 32 ; ForwardBData [31:0] $end
$var wire 2 < ForwardB [1:0] $end
$var wire 32 = ForwardAData [31:0] $end
$var wire 2 > ForwardA [1:0] $end
$var wire 1 ? Branch $end
$var wire 1 @ ALUSrc $end
$var wire 32 A ALUResult [31:0] $end
$var wire 2 B ALUOp [1:0] $end
$var reg 32 C EX_MEM_ALUResult [31:0] $end
$var reg 1 D EX_MEM_MemRead $end
$var reg 1 E EX_MEM_MemWrite $end
$var reg 1 F EX_MEM_MemtoReg $end
$var reg 5 G EX_MEM_RDaddr [4:0] $end
$var reg 32 H EX_MEM_RS2data [31:0] $end
$var reg 1 I EX_MEM_RegWrite $end
$var reg 2 J ID_EX_ALUOp [1:0] $end
$var reg 1 K ID_EX_ALUSrc $end
$var reg 1 L ID_EX_MemRead $end
$var reg 1 M ID_EX_MemWrite $end
$var reg 1 N ID_EX_MemtoReg $end
$var reg 5 O ID_EX_RDaddr [4:0] $end
$var reg 5 P ID_EX_RS1addr [4:0] $end
$var reg 32 Q ID_EX_RS1data [31:0] $end
$var reg 5 R ID_EX_RS2addr [4:0] $end
$var reg 32 S ID_EX_RS2data [31:0] $end
$var reg 1 T ID_EX_RegWrite $end
$var reg 3 U ID_EX_func3 [2:0] $end
$var reg 7 V ID_EX_func7 [6:0] $end
$var reg 32 W ID_EX_immediate [31:0] $end
$var reg 1 X ID_FlushIF $end
$var reg 32 Y IF_ID_PC [31:0] $end
$var reg 32 Z IF_ID_instr [31:0] $end
$var reg 32 [ MEM_WB_ALUResult [31:0] $end
$var reg 32 \ MEM_WB_MemData [31:0] $end
$var reg 1 ] MEM_WB_MemtoReg $end
$var reg 5 ^ MEM_WB_RDaddr [4:0] $end
$var reg 1 _ MEM_WB_RegWrite $end
$var reg 1 ` equal $end
$scope module ALU $end
$var wire 32 a ALUResult_o [31:0] $end
$var wire 32 b src2_i [31:0] $end
$var wire 32 c src1_i [31:0] $end
$var wire 3 d op_i [2:0] $end
$var reg 32 e tmpResult [31:0] $end
$upscope $end
$scope module ALU_Control $end
$var wire 2 f ALUOp_i [1:0] $end
$var wire 3 g funct3_i [14:12] $end
$var wire 7 h funct7_i [31:25] $end
$var reg 3 i op_o [2:0] $end
$upscope $end
$scope module Add $end
$var wire 32 j src2_i [31:0] $end
$var wire 32 k src1_i [31:0] $end
$var wire 32 l adder_o [31:0] $end
$upscope $end
$scope module Add2 $end
$var wire 32 m src1_i [31:0] $end
$var wire 32 n src2_i [31:0] $end
$var wire 32 o adder_o [31:0] $end
$upscope $end
$scope module Control $end
$var wire 7 p opcode_i [6:0] $end
$var wire 1 5 NoOp_i $end
$var reg 2 q ALUOp_o [1:0] $end
$var reg 1 @ ALUSrc_o $end
$var reg 1 ? Branch_o $end
$var reg 1 8 MemRead_o $end
$var reg 1 7 MemWrite_o $end
$var reg 1 6 MemtoReg_o $end
$var reg 1 0 RegWrite_o $end
$upscope $end
$scope module Data_Memory $end
$var wire 1 D MemRead_i $end
$var wire 1 E MemWrite_i $end
$var wire 32 r addr_i [31:0] $end
$var wire 1 ! clk_i $end
$var wire 32 s data_i [31:0] $end
$var wire 32 t data_o [31:0] $end
$upscope $end
$scope module Forwarding $end
$var wire 5 u EX_MEM_RDaddr_i [4:0] $end
$var wire 1 I EX_MEM_RegWrite_i $end
$var wire 5 v ID_EX_RS1addr_i [4:0] $end
$var wire 5 w ID_EX_RS2addr_i [4:0] $end
$var wire 5 x MEM_WB_RDaddr_i [4:0] $end
$var wire 1 _ MEM_WB_RegWrite_i $end
$var reg 2 y ForwardA_o [1:0] $end
$var reg 2 z ForwardB_o [1:0] $end
$upscope $end
$scope module Hazard_Detection $end
$var wire 1 L ID_EX_MemRead_i $end
$var wire 5 { ID_EX_RDaddr_i [4:0] $end
$var wire 5 | RS1addr_i [4:0] $end
$var wire 5 } RS2addr_i [4:0] $end
$var wire 1 ! clk_i $end
$var wire 1 " rst_i $end
$var reg 1 5 NoOp_o $end
$var reg 1 4 PCWrite_o $end
$var reg 1 / Stall_o $end
$upscope $end
$scope module Imm_Gen $end
$var wire 32 ~ imm_i [31:0] $end
$var reg 32 !" imm_o [31:0] $end
$upscope $end
$scope module Instruction_Memory $end
$var wire 32 "" instr_o [31:0] $end
$var wire 32 #" addr_i [31:0] $end
$upscope $end
$scope module MUX $end
$var wire 1 K sel $end
$var wire 32 $" src2_i [31:0] $end
$var wire 32 %" src1_i [31:0] $end
$var reg 32 &" mux_o [31:0] $end
$upscope $end
$scope module MUX2 $end
$var wire 1 ] sel $end
$var wire 32 '" src1_i [31:0] $end
$var wire 32 (" src2_i [31:0] $end
$var reg 32 )" mux_o [31:0] $end
$upscope $end
$scope module MUX32_ForwardA $end
$var wire 2 *" sel [1:0] $end
$var wire 32 +" src1_i [31:0] $end
$var wire 32 ," src2_i [31:0] $end
$var wire 32 -" src3_i [31:0] $end
$var reg 32 ." mux_o [31:0] $end
$upscope $end
$scope module MUX32_ForwardB $end
$var wire 2 /" sel [1:0] $end
$var wire 32 0" src1_i [31:0] $end
$var wire 32 1" src2_i [31:0] $end
$var wire 32 2" src3_i [31:0] $end
$var reg 32 3" mux_o [31:0] $end
$upscope $end
$scope module MUX32_PC $end
$var wire 1 X sel $end
$var wire 32 4" src1_i [31:0] $end
$var wire 32 5" src2_i [31:0] $end
$var reg 32 6" mux_o [31:0] $end
$upscope $end
$scope module PC $end
$var wire 1 4 PCWrite_i $end
$var wire 1 ! clk_i $end
$var wire 32 7" pc_i [31:0] $end
$var wire 1 " rst_i $end
$var reg 32 8" pc_o [31:0] $end
$upscope $end
$scope module Registers $end
$var wire 5 9" RDaddr_i [4:0] $end
$var wire 32 :" RDdata_i [31:0] $end
$var wire 5 ;" RS1addr_i [4:0] $end
$var wire 5 <" RS2addr_i [4:0] $end
$var wire 1 _ RegWrite_i $end
$var wire 1 ! clk_i $end
$var wire 1 " rst_i $end
$var wire 32 =" RS2data_o [31:0] $end
$var wire 32 >" RS1data_o [31:0] $end
$var integer 32 ?" i [31:0] $end
$upscope $end
$upscope $end
$upscope $end
$enddefinitions $end
#0
$dumpvars
bx ?"
bx >"
bx ="
bx <"
bx ;"
bx :"
bx 9"
bx 8"
bx 7"
bx 6"
bx 5"
bx 4"
bx 3"
bx 2"
bx 1"
bx 0"
bx /"
bx ."
bx -"
bx ,"
bx +"
bx *"
bx )"
bx ("
bx '"
bx &"
bx %"
bx $"
bx #"
bx ""
bx !"
bx ~
bx }
bx |
bx {
bx z
bx y
bx x
bx w
bx v
bx u
bx t
bx s
bx r
b0 q
bx p
bx o
bx n
bx0 m
bx l
bx k
b100 j
bx i
bx h
bx g
bx f
bx e
bx d
bx c
bx b
bx a
x`
x_
bx ^
x]
bx \
bx [
bx Z
bx Y
xX
bx W
bx V
bx U
xT
bx S
bx R
bx Q
bx P
bx O
xN
xM
xL
xK
bx J
xI
bx H
bx G
xF
xE
xD
bx C
b0 B
bx A
0@
0?
bx >
bx =
bx <
bx ;
bx :
bx 9
08
07
06
05
14
bx 3
bx 2
bx 1
00
0/
bx .
bx -
bx ,
bx +
bx *
bx )
bx (
b0 '
b11 &
b100000 %
b0 $
b0 #
1"
0!
$end
#6
b0 A
b0 a
b0 e
b0 :
b0 b
b0 &"
b0 2
b0 >"
b0 1
b0 ="
b0 .
b0 o
b0 5"
b0 m
b10010000000011 ,
b10010000000011 ""
b100 +
b100 6"
b0 3
b0 )"
b0 ,"
b0 1"
b0 :"
b0 9
b0 t
b0 <
b0 z
b0 /"
b0 >
b0 y
b0 *"
b0 ;
b0 %"
b0 3"
b0 =
b0 c
b0 ."
b11 *
b11 d
b11 i
b0 |
b0 }
b0 p
b0 ;"
b0 <"
b0 -
b0 !"
b100 )
b100 l
b100 4"
b100 7"
b0 (
b0 k
b0 #"
b0 8"
b0 ^
b0 x
b0 9"
b0 \
b0 ("
b0 [
b0 '"
0]
0_
b0 G
b0 u
b0 H
b0 s
b0 C
b0 r
b0 -"
b0 2"
0E
0D
0F
0I
b0 O
b0 {
b0 R
b0 w
b0 P
b0 v
b0 U
b0 g
b0 V
b0 h
b0 W
b0 $"
b0 S
b0 0"
b0 Q
b0 +"
0K
b0 J
b0 f
0M
0L
0N
0T
b0 Y
b0 n
b0 Z
b0 ~
b100000 ?"
0"
#12
1"
#25
18
16
10
1@
b10 B
b10 q
b11 p
b100001000000010010110011 ,
b100001000000010010110011 ""
b1000 +
b1000 6"
0X
1`
b10010000000011 Z
b10010000000011 ~
b1000 )
b1000 l
b1000 4"
b1000 7"
b100 (
b100 k
b100 #"
b100 8"
b1 #
1!
#50
0!
#75
08
06
00
0@
b0 B
b0 q
b10000 m
b10000000010010100000011 ,
b10000000010010100000011 ""
04
1/
15
b1100 +
b1100 6"
b1000 |
b1000 }
b110011 p
b1000 ;"
b1000 <"
b1000 -
b1000 !"
b1100 )
b1100 l
b1100 4"
b1100 7"
b1000 (
b1000 k
b1000 #"
b1000 8"
b1000 O
b1000 {
b10 U
b10 g
1K
b10 J
b10 f
1L
1N
1T
b10100 .
b10100 o
b10100 5"
b100 Y
b100 n
b100001000000010010110011 Z
b100001000000010010110011 ~
b10 #
1!
#100
0!
#125
10
b1 B
b1 q
b101 9
b101 t
b10 <
b10 z
b10 /"
b10 >
b10 y
b10 *"
14
0/
05
b1000 G
b1000 u
1D
1F
1I
b1001 O
b1001 {
b1000 R
b1000 w
b1000 P
b1000 v
b0 U
b0 g
b1000 W
b1000 $"
0K
b0 J
b0 f
0L
0N
0T
b11 #
b1 '
1!
#150
0!
#175
b101 :
b101 b
b101 &"
b1010 A
b1010 a
b1010 e
b101 ;
b101 %"
b101 3"
b101 =
b101 c
b101 ."
18
16
1@
b10 B
b10 q
b1000 m
b101001010000010110110011 ,
b101001010000010110110011 ""
b101 3
b101 )"
b101 ,"
b101 1"
b101 :"
b0 9
b0 t
b1 <
b1 z
b1 /"
b1 >
b1 y
b1 *"
b10000 +
b10000 6"
b0 |
b100 }
b11 p
b0 ;"
b100 <"
b100 -
b100 !"
b10000 )
b10000 l
b10000 4"
b10000 7"
b1100 (
b1100 k
b1100 #"
b1100 8"
b1000 ^
b1000 x
b1000 9"
b101 \
b101 ("
1]
1_
b1001 G
b1001 u
0D
0F
0I
b1 J
b1 f
1T
b10000 .
b10000 o
b10000 5"
b1000 Y
b1000 n
b10000000010010100000011 Z
b10000000010010100000011 ~
b100 #
1!
#200
0!
#225
b100 A
b100 a
b100 e
08
06
00
0@
b0 B
b0 q
b10100 m
b0 3
b0 )"
b0 ,"
b0 1"
b0 :"
b0 =
b0 c
b0 ."
b0 ;
b0 %"
b0 3"
b0 <
b0 z
b0 /"
b0 >
b0 y
b0 *"
b100 :
b100 b
b100 &"
04
1/
15
b1010 |
b1010 }
b110011 p
b1010 ;"
b1010 <"
b1010 -
b1010 !"
b100000000010011000000011 ,
b100000000010011000000011 ""
b10100 +
b10100 6"
b1001 ^
b1001 x
b1001 9"
b0 \
b0 ("
0]
0_
b101 H
b101 s
b1010 C
b1010 r
b1010 -"
b1010 2"
1I
b1010 O
b1010 {
b100 R
b100 w
b0 P
b0 v
b10 U
b10 g
b100 W
b100 $"
1K
b10 J
b10 f
1L
1N
b100000 .
b100000 o
b100000 5"
b1100 Y
b1100 n
b101001010000010110110011 Z
b101001010000010110110011 ~
b10100 )
b10100 l
b10100 4"
b10100 7"
b10000 (
b10000 k
b10000 #"
b10000 8"
b101 #
1!
#250
0!
#275
b1000 A
b1000 a
b1000 e
10
b1 B
b1 q
b1010 3
b1010 )"
b1010 ,"
b1010 1"
b1010 :"
b100 =
b100 c
b100 ."
b100 ;
b100 %"
b100 3"
b110 9
b110 t
b10 <
b10 z
b10 /"
b10 >
b10 y
b10 *"
b100 :
b100 b
b100 &"
14
0/
05
b1010 [
b1010 '"
1_
b1010 G
b1010 u
b0 H
b0 s
b100 C
b100 r
b100 -"
b100 2"
1D
1F
b1011 O
b1011 {
b1010 R
b1010 w
b1010 P
b1010 v
b0 U
b0 g
b1010 W
b1010 $"
0K
b0 J
b0 f
0L
0N
0T
b110 #
b10 '
1!
#300
0!
#325
b1100 A
b1100 a
b1100 e
b110 :
b110 b
b110 &"
18
16
1@
b10 B
b10 q
b101 1
b101 ="
b10000 m
b110 3
b110 )"
b110 ,"
b110 1"
b110 :"
b110 =
b110 c
b110 ."
b110 ;
b110 %"
b110 3"
b0 9
b0 t
b1 <
b1 z
b1 /"
b1 >
b1 y
b1 *"
b0 |
b1000 }
b11 p
b0 ;"
b1000 <"
b1000 -
b1000 !"
b110001100000011010110011 ,
b110001100000011010110011 ""
b11000 +
b11000 6"
b1010 ^
b1010 x
b1010 9"
b110 \
b110 ("
b100 [
b100 '"
1]
b1011 G
b1011 u
b100 H
b100 s
b1000 C
b1000 r
b1000 -"
b1000 2"
0D
0F
0I
b1 J
b1 f
1T
b100000 .
b100000 o
b100000 5"
b10000 Y
b10000 n
b100000000010011000000011 Z
b100000000010011000000011 ~
b11000 )
b11000 l
b11000 4"
b11000 7"
b10100 (
b10100 k
b10100 #"
b10100 8"
b111 #
1!
#350
0!
#375
b101 ;
b101 %"
b101 3"
b1000 A
b1000 a
b1000 e
08
06
00
0@
b0 B
b0 q
b0 1
b0 ="
b11000 m
b110000000010011100000011 ,
b110000000010011100000011 ""
b1000 3
b1000 )"
b1000 ,"
b1000 1"
b1000 :"
b0 =
b0 c
b0 ."
b0 <
b0 z
b0 /"
b0 >
b0 y
b0 *"
b1000 :
b1000 b
b1000 &"
04
1/
15
b11100 +
b11100 6"
b1100 |
b1100 }
b110011 p
b1100 ;"
b1100 <"
b1100 -
b1100 !"
0`
b11100 )
b11100 l
b11100 4"
b11100 7"
b11000 (
b11000 k
b11000 #"
b11000 8"
b1011 ^
b1011 x
b1011 9"
b0 \
b0 ("
b1000 [
b1000 '"
0]
0_
b110 H
b110 s
b1100 C
b1100 r
b1100 -"
b1100 2"
1I
b1100 O
b1100 {
b1000 R
b1000 w
b0 P
b0 v
b10 U
b10 g
b1000 W
b1000 $"
b101 S
b101 0"
1K
b10 J
b10 f
1L
1N
b101100 .
b101100 o
b101100 5"
b10100 Y
b10100 n
b110001100000011010110011 Z
b110001100000011010110011 ~
b1000 #
1!
#400
0!
#425
b10000 A
b10000 a
b10000 e
10
b1 B
b1 q
b1100 3
b1100 )"
b1100 ,"
b1100 1"
b1100 :"
b1000 =
b1000 c
b1000 ."
b1010 9
b1010 t
b10 <
b10 z
b10 /"
b10 >
b10 y
b10 *"
b1000 ;
b1000 %"
b1000 3"
b1000 :
b1000 b
b1000 &"
14
0/
05
1`
b1100 [
b1100 '"
1_
b1100 G
b1100 u
b101 H
b101 s
b1000 C
b1000 r
b1000 -"
b1000 2"
1D
1F
b1101 O
b1101 {
b1100 R
b1100 w
b1100 P
b1100 v
b0 U
b0 g
b1100 W
b1100 $"
b0 S
b0 0"
0K
b0 J
b0 f
0L
0N
0T
b1001 #
b11 '
1!
#450
0!
#475
b1010 1
b1010 ="
b10100 A
b10100 a
b10100 e
b1010 :
b1010 b
b1010 &"
18
16
1@
b10 B
b10 q
b111001110000011110110011 ,
b111001110000011110110011 ""
b1010 3
b1010 )"
b1010 ,"
b1010 1"
b1010 :"
b1010 =
b1010 c
b1010 ."
b1010 ;
b1010 %"
b1010 3"
b0 9
b0 t
b1 <
b1 z
b1 /"
b1 >
b1 y
b1 *"
b100000 +
b100000 6"
b0 |
b11 p
b0 ;"
b100000 )
b100000 l
b100000 4"
b100000 7"
b11100 (
b11100 k
b11100 #"
b11100 8"
b1100 ^
b1100 x
b1100 9"
b1010 \
b1010 ("
b1000 [
b1000 '"
1]
b1101 G
b1101 u
b1000 H
b1000 s
b10000 C
b10000 r
b10000 -"
b10000 2"
0D
0F
0I
b1 J
b1 f
1T
b110000 .
b110000 o
b110000 5"
b11000 Y
b11000 n
b110000000010011100000011 Z
b110000000010011100000011 ~
b1010 #
1!
#500
0!
#525
b0 1
b0 ="
b1100 A
b1100 a
b1100 e
08
06
00
0@
b0 B
b0 q
b11100 m
b10000 3
b10000 )"
b10000 ,"
b10000 1"
b10000 :"
b0 =
b0 c
b0 ."
b0 <
b0 z
b0 /"
b0 >
b0 y
b0 *"
b1100 :
b1100 b
b1100 &"
04
1/
15
b1110 |
b1110 }
b110011 p
b1110 ;"
b1110 <"
b1110 -
b1110 !"
b1110011000000100000110011 ,
b1110011000000100000110011 ""
b100100 +
b100100 6"
0`
b1101 ^
b1101 x
b1101 9"
b0 \
b0 ("
b10000 [
b10000 '"
0]
0_
b1010 H
b1010 s
b10100 C
b10100 r
b10100 -"
b10100 2"
1I
b1110 O
b1110 {
b0 P
b0 v
b10 U
b10 g
b1010 S
b1010 0"
1K
b10 J
b10 f
1L
1N
b111000 .
b111000 o
b111000 5"
b11100 Y
b11100 n
b111001110000011110110011 Z
b111001110000011110110011 ~
b100100 )
b100100 l
b100100 4"
b100100 7"
b100000 (
b100000 k
b100000 #"
b100000 8"
b1011 #
1!
#550
0!
#575
b10010 9
b10010 t
b11000 A
b11000 a
b11000 e
10
b1 B
b1 q
b10100 3
b10100 )"
b10100 ,"
b10100 1"
b10100 :"
b1100 =
b1100 c
b1100 ."
b10 <
b10 z
b10 /"
b10 >
b10 y
b10 *"
b1100 ;
b1100 %"
b1100 3"
b1100 :
b1100 b
b1100 &"
14
0/
05
1`
b10100 [
b10100 '"
1_
b1110 G
b1110 u
b1100 C
b1100 r
b1100 -"
b1100 2"
1D
1F
b1111 O
b1111 {
b1110 R
b1110 w
b1110 P
b1110 v
b0 U
b0 g
b1110 W
b1110 $"
b0 S
b0 0"
0K
b0 J
b0 f
0L
0N
0T
b1100 #
b100 '
1!
#600
0!
#625
b100100 A
b100100 a
b100100 e
b10010 :
b10010 b
b10010 &"
b11111111111111111111111111101000 2
b11111111111111111111111111101000 >"
b111000 1
b111000 ="
b111000 m
b10010 3
b10010 )"
b10010 ,"
b10010 1"
b10010 :"
b10010 =
b10010 c
b10010 ."
b10010 ;
b10010 %"
b10010 3"
b0 9
b0 t
b1 <
b1 z
b1 /"
b1 >
b1 y
b1 *"
b11000 |
b11100 }
b11000 ;"
b11100 <"
b11100 -
b11100 !"
b1110111001000100010110011 ,
b1110111001000100010110011 ""
b101000 +
b101000 6"
b1110 ^
b1110 x
b1110 9"
b10010 \
b10010 ("
b1100 [
b1100 '"
1]
b1111 G
b1111 u
b1100 H
b1100 s
b11000 C
b11000 r
b11000 -"
b11000 2"
0D
0F
0I
b1 J
b1 f
1T
b1011000 .
b1011000 o
b1011000 5"
b100000 Y
b100000 n
b1110011000000100000110011 Z
b1110011000000100000110011 ~
b101000 )
b101000 l
b101000 4"
b101000 7"
b100100 (
b100100 k
b100100 #"
b100100 8"
b1101 #
1!
#650
0!
#675
b111000 :
b111000 b
b111000 &"
b100000 A
b100000 a
b100000 e
b111000 ;
b111000 %"
b111000 3"
b11111111111111111111111111101000 =
b11111111111111111111111111101000 c
b11111111111111111111111111101000 ."
b11111111111111111111111111100111 2
b11111111111111111111111111100111 >"
b111010 1
b111010 ="
b111010 m
b1111011010000100100110011 ,
b1111011010000100100110011 ""
b11000 3
b11000 )"
b11000 ,"
b11000 1"
b11000 :"
b0 <
b0 z
b0 /"
b0 >
b0 y
b0 *"
b101100 +
b101100 6"
b11001 |
b11101 }
b11001 ;"
b11101 <"
b11101 -
b11101 !"
0`
b101100 )
b101100 l
b101100 4"
b101100 7"
b101000 (
b101000 k
b101000 #"
b101000 8"
b1111 ^
b1111 x
b1111 9"
b0 \
b0 ("
b11000 [
b11000 '"
0]
0_
b10010 H
b10010 s
b100100 C
b100100 r
b100100 -"
b100100 2"
1I
b10000 O
b10000 {
b11100 R
b11100 w
b11000 P
b11000 v
b11100 W
b11100 $"
b111000 S
b111000 0"
b11111111111111111111111111101000 Q
b11111111111111111111111111101000 +"
b1011110 .
b1011110 o
b1011110 5"
b100100 Y
b100100 n
b1110111001000100010110011 Z
b1110111001000100010110011 ~
b1110 #
1!
#700
0!
#725
b100001 A
b100001 a
b100001 e
b11111111111111111111111111100110 2
b11111111111111111111111111100110 >"
b111100 1
b111100 ="
b111100 m
b100100 3
b100100 )"
b100100 ,"
b100100 1"
b100100 :"
b111010 :
b111010 b
b111010 &"
b111010 ;
b111010 %"
b111010 3"
b11111111111111111111111111100111 =
b11111111111111111111111111100111 c
b11111111111111111111111111100111 ."
b11010 |
b11110 }
b11010 ;"
b11110 <"
b11110 -
b11110 !"
b1111111011000100110110011 ,
b1111111011000100110110011 ""
b110000 +
b110000 6"
b100100 [
b100100 '"
1_
b10000 G
b10000 u
b111000 H
b111000 s
b100000 C
b100000 r
b100000 -"
b100000 2"
b10001 O
b10001 {
b11101 R
b11101 w
b11001 P
b11001 v
b11101 W
b11101 $"
b111010 S
b111010 0"
b11111111111111111111111111100111 Q
b11111111111111111111111111100111 +"
b1100100 .
b1100100 o
b1100100 5"
b101000 Y
b101000 n
b1111011010000100100110011 Z
b1111011010000100100110011 ~
b110000 )
b110000 l
b110000 4"
b110000 7"
b101100 (
b101100 k
b101100 #"
b101100 8"
b1111 #
1!
#750
0!
#775
b100010 A
b100010 a
b100010 e
b11111111111111111111111111100101 2
b11111111111111111111111111100101 >"
b111110 1
b111110 ="
b111110 m
b10000010000011 ,
b10000010000011 ""
b100000 3
b100000 )"
b100000 ,"
b100000 1"
b100000 :"
b111100 :
b111100 b
b111100 &"
b111100 ;
b111100 %"
b111100 3"
b11111111111111111111111111100110 =
b11111111111111111111111111100110 c
b11111111111111111111111111100110 ."
b110100 +
b110100 6"
b11011 |
b11111 }
b11011 ;"
b11111 <"
b11111 -
b11111 !"
b110100 )
b110100 l
b110100 4"
b110100 7"
b110000 (
b110000 k
b110000 #"
b110000 8"
b10000 ^
b10000 x
b10000 9"
b100000 [
b100000 '"
b10001 G
b10001 u
b111010 H
b111010 s
b100001 C
b100001 r
b100001 -"
b100001 2"
b10010 O
b10010 {
b11110 R
b11110 w
b11010 P
b11010 v
b11110 W
b11110 $"
b111100 S
b111100 0"
b11111111111111111111111111100110 Q
b11111111111111111111111111100110 +"
b1101010 .
b1101010 o
b1101010 5"
b101100 Y
b101100 n
b1111111011000100110110011 Z
b1111111011000100110110011 ~
b10000 #
1!
#800
0!
#825
b100011 A
b100011 a
b100011 e
18
16
1@
b10 B
b10 q
b0 2
b0 >"
b0 1
b0 ="
b0 m
b100001 3
b100001 )"
b100001 ,"
b100001 1"
b100001 :"
b111110 :
b111110 b
b111110 &"
b111110 ;
b111110 %"
b111110 3"
b11111111111111111111111111100101 =
b11111111111111111111111111100101 c
b11111111111111111111111111100101 ."
b0 |
b0 }
b11 p
b0 ;"
b0 <"
b0 -
b0 !"
b111110011100000000000010010011 ,
b111110011100000000000010010011 ""
b111000 +
b111000 6"
b10001 ^
b10001 x
b10001 9"
b100001 [
b100001 '"
b10010 G
b10010 u
b111100 H
b111100 s
b100010 C
b100010 r
b100010 -"
b100010 2"
b10011 O
b10011 {
b11111 R
b11111 w
b11011 P
b11011 v
b11111 W
b11111 $"
b111110 S
b111110 0"
b11111111111111111111111111100101 Q
b11111111111111111111111111100101 +"
b110000 .
b110000 o
b110000 5"
b110000 Y
b110000 n
b10000010000011 Z
b10000010000011 ~
b111000 )
b111000 l
b111000 4"
b111000 7"
b110100 (
b110100 k
b110100 #"
b110100 8"
b10001 #
1!
#850
0!
#875
b0 A
b0 a
b0 e
08
06
b0 B
b0 q
b11111001110 m
b10000100000011 ,
b10000100000011 ""
b100010 3
b100010 )"
b100010 ,"
b100010 1"
b100010 :"
b0 ;
b0 %"
b0 3"
b0 =
b0 c
b0 ."
b0 :
b0 b
b0 &"
b111100 +
b111100 6"
b111 }
b10011 p
b111 <"
b1111100111 -
b1111100111 !"
1`
b111100 )
b111100 l
b111100 4"
b111100 7"
b111000 (
b111000 k
b111000 #"
b111000 8"
b10010 ^
b10010 x
b10010 9"
b100010 [
b100010 '"
b10011 G
b10011 u
b111110 H
b111110 s
b100011 C
b100011 r
b100011 -"
b100011 2"
b1 O
b1 {
b0 R
b0 w
b0 P
b0 v
b10 U
b10 g
b0 W
b0 $"
b0 S
b0 0"
b0 Q
b0 +"
1K
b10 J
b10 f
1L
1N
b100000000010 .
b100000000010 o
b100000000010 5"
b110100 Y
b110100 n
b111110011100000000000010010011 Z
b111110011100000000000010010011 ~
b10010 #
1!
#900
0!
#925
b101 9
b101 t
b1111100111 A
b1111100111 a
b1111100111 e
18
16
b10 B
b10 q
b0 m
b100011 3
b100011 )"
b100011 ,"
b100011 1"
b100011 :"
b1111100111 :
b1111100111 b
b1111100111 &"
b0 }
b11 p
b0 <"
b0 -
b0 !"
b110111100000000000000100010011 ,
b110111100000000000000100010011 ""
b1000000 +
b1000000 6"
b10011 ^
b10011 x
b10011 9"
b100011 [
b100011 '"
b1 G
b1 u
b0 H
b0 s
b0 C
b0 r
b0 -"
b0 2"
1D
1F
b111 R
b111 w
b0 U
b0 g
b11111 V
b11111 h
b1111100111 W
b1111100111 $"
b0 J
b0 f
0L
0N
b111000 .
b111000 o
b111000 5"
b111000 Y
b111000 n
b10000100000011 Z
b10000100000011 ~
b1000000 )
b1000000 l
b1000000 4"
b1000000 7"
b111100 (
b111100 k
b111100 #"
b111100 8"
b10011 #
1!
#950
0!
#975
b0 A
b0 a
b0 e
08
06
b0 B
b0 q
b11111111111111111111111111101000 1
b11111111111111111111111111101000 ="
b11011110000 m
b10000110000011 ,
b10000110000011 ""
b101 3
b101 )"
b101 ,"
b101 1"
b101 :"
b0 9
b0 t
b0 :
b0 b
b0 &"
b1000100 +
b1000100 6"
b11000 }
b10011 p
b11000 <"
b1101111000 -
b1101111000 !"
b1000100 )
b1000100 l
b1000100 4"
b1000100 7"
b1000000 (
b1000000 k
b1000000 #"
b1000000 8"
b1 ^
b1 x
b1 9"
b101 \
b101 ("
b0 [
b0 '"
1]
b1111100111 C
b1111100111 r
b1111100111 -"
b1111100111 2"
0D
0F
b10 O
b10 {
b0 R
b0 w
b10 U
b10 g
b0 V
b0 h
b0 W
b0 $"
b10 J
b10 f
1L
1N
b11100101100 .
b11100101100 o
b11100101100 5"
b111100 Y
b111100 n
b110111100000000000000100010011 Z
b110111100000000000000100010011 ~
b10100 #
1!
#1000
0!
#1025
b1101111000 A
b1101111000 a
b1101111000 e
18
16
b10 B
b10 q
b0 1
b0 ="
b0 m
b1111100111 3
b1111100111 )"
b1111100111 ,"
b1111100111 1"
b1111100111 :"
b101 9
b101 t
b1101111000 :
b1101111000 b
b1101111000 &"
b11111111111111111111111111101000 ;
b11111111111111111111111111101000 %"
b11111111111111111111111111101000 3"
b0 }
b11 p
b0 <"
b0 -
b0 !"
b110000100100000000000110010011 ,
b110000100100000000000110010011 ""
b1001000 +
b1001000 6"
0`
b0 \
b0 ("
b1111100111 [
b1111100111 '"
0]
b10 G
b10 u
b0 C
b0 r
b0 -"
b0 2"
1D
1F
b11000 R
b11000 w
b0 U
b0 g
b11011 V
b11011 h
b1101111000 W
b1101111000 $"
b11111111111111111111111111101000 S
b11111111111111111111111111101000 0"
b0 J
b0 f
0L
0N
b1000000 .
b1000000 o
b1000000 5"
b1000000 Y
b1000000 n
b10000110000011 Z
b10000110000011 ~
b1001000 )
b1001000 l
b1001000 4"
b1001000 7"
b1000100 (
b1000100 k
b1000100 #"
b1000100 8"
b10101 #
1!
#1050
0!
#1075
b0 A
b0 a
b0 e
08
06
b0 B
b0 q
b1010 1
b1010 ="
b11000010010 m
b0 ,
b0 ""
b101 3
b101 )"
b101 ,"
b101 1"
b101 :"
b0 9
b0 t
b0 :
b0 b
b0 &"
b0 ;
b0 %"
b0 3"
b1001100 +
b1001100 6"
b1001 }
b10011 p
b1001 <"
b1100001001 -
b1100001001 !"
1`
b1001100 )
b1001100 l
b1001100 4"
b1001100 7"
b1001000 (
b1001000 k
b1001000 #"
b1001000 8"
b10 ^
b10 x
b10 9"
b101 \
b101 ("
b0 [
b0 '"
1]
b11111111111111111111111111101000 H
b11111111111111111111111111101000 s
b1101111000 C
b1101111000 r
b1101111000 -"
b1101111000 2"
0D
0F
b11 O
b11 {
b0 R
b0 w
b10 U
b10 g
b0 V
b0 h
b0 W
b0 $"
b0 S
b0 0"
b10 J
b10 f
1L
1N
b11001010110 .
b11001010110 o
b11001010110 5"
b1000100 Y
b1000100 n
b110000100100000000000110010011 Z
b110000100100000000000110010011 ~
b10110 #
1!
#1100
0!
