lab2/lab2/log/waveform_2.vcd
$date
	Sat Nov 18 04:08:06 2023
$end
$version
	Icarus Verilog
$end
$timescale
	1s
$end
$scope module TestBench $end
$var reg 1 ! Clk $end
$var reg 1 " Reset $end
$var integer 32 # counter [31:0] $end
$var integer 32 $ flush [31:0] $end
$var integer 32 % i [31:0] $end
$var integer 32 & outfile [31:0] $end
$var integer 32 ' stall [31:0] $end
$scope module CPU $end
$var wire 1 ! clk_i $end
$var wire 1 " rst_i $end
$var wire 32 ( pc_o [31:0] $end
$var wire 32 ) pc_i [31:0] $end
$var wire 3 * operation [2:0] $end
$var wire 32 + muxPCResult [31:0] $end
$var wire 32 , instr [31:0] $end
$var wire 32 - immediate [31:0] $end
$var wire 1 . equal $end
$var wire 32 / branchAddr [31:0] $end
$var wire 1 0 Stall $end
$var wire 1 1 RegWrite $end
$var wire 32 2 RS2data [31:0] $end
$var wire 32 3 RS1data [31:0] $end
$var wire 32 4 RDdata [31:0] $end
$var wire 1 5 PCWrite $end
$var wire 1 6 NoOp $end
$var wire 1 7 MemtoReg $end
$var wire 1 8 MemWrite $end
$var wire 1 9 MemRead $end
$var wire 32 : MemData [31:0] $end
$var wire 32 ; MUXResult [31:0] $end
$var wire 1 < ID_FlushIF $end
$var wire 32 = ForwardBData [31:0] $end
$var wire 2 > ForwardB [1:0] $end
$var wire 32 ? ForwardAData [31:0] $end
$var wire 2 @ ForwardA [1:0] $end
$var wire 1 A Branch $end
$var wire 1 B ALUSrc $end
$var wire 32 C ALUResult [31:0] $end
$var wire 2 D ALUOp [1:0] $end
$var reg 32 E EX_MEM_ALUResult [31:0] $end
$var reg 1 F EX_MEM_MemRead $end
$var reg 1 G EX_MEM_MemWrite $end
$var reg 1 H EX_MEM_MemtoReg $end
$var reg 5 I EX_MEM_RDaddr [4:0] $end
$var reg 32 J EX_MEM_RS2data [31:0] $end
$var reg 1 K EX_MEM_RegWrite $end
$var reg 2 L ID_EX_ALUOp [1:0] $end
$var reg 1 M ID_EX_ALUSrc $end
$var reg 1 N ID_EX_MemRead $end
$var reg 1 O ID_EX_MemWrite $end
$var reg 1 P ID_EX_MemtoReg $end
$var reg 5 Q ID_EX_RDaddr [4:0] $end
$var reg 5 R ID_EX_RS1addr [4:0] $end
$var reg 32 S ID_EX_RS1data [31:0] $end
$var reg 5 T ID_EX_RS2addr [4:0] $end
$var reg 32 U ID_EX_RS2data [31:0] $end
$var reg 1 V ID_EX_RegWrite $end
$var reg 3 W ID_EX_func3 [2:0] $end
$var reg 7 X ID_EX_func7 [6:0] $end
$var reg 32 Y ID_EX_immediate [31:0] $end
$var reg 32 Z IF_ID_PC [31:0] $end
$var reg 32 [ IF_ID_instr [31:0] $end
$var reg 32 \ MEM_WB_ALUResult [31:0] $end
$var reg 32 ] MEM_WB_MemData [31:0] $end
$var reg 1 ^ MEM_WB_MemtoReg $end
$var reg 5 _ MEM_WB_RDaddr [4:0] $end
$var reg 1 ` MEM_WB_RegWrite $end
$scope module ALU $end
$var wire 32 a ALUResult_o [31:0] $end
$var wire 32 b src2_i [31:0] $end
$var wire 32 c src1_i [31:0] $end
$var wire 3 d op_i [2:0] $end
$var reg 32 e tmpResult [31:0] $end
$upscope $end
$scope module ALU_Control $end
$var wire 2 f ALUOp_i [1:0] $end
$var wire 3 g funct3_i [14:12] $end
$var wire 7 h funct7_i [31:25] $end
$var reg 3 i op_o [2:0] $end
$upscope $end
$scope module Add $end
$var wire 32 j src2_i [31:0] $end
$var wire 32 k src1_i [31:0] $end
$var wire 32 l adder_o [31:0] $end
$upscope $end
$scope module Add2 $end
$var wire 32 m src1_i [31:0] $end
$var wire 32 n src2_i [31:0] $end
$var wire 32 o adder_o [31:0] $end
$upscope $end
$scope module Control $end
$var wire 7 p opcode_i [6:0] $end
$var wire 1 6 NoOp_i $end
$var reg 2 q ALUOp_o [1:0] $end
$var reg 1 B ALUSrc_o $end
$var reg 1 A Branch_o $end
$var reg 1 9 MemRead_o $end
$var reg 1 8 MemWrite_o $end
$var reg 1 7 MemtoReg_o $end
$var reg 1 1 RegWrite_o $end
$upscope $end
$scope module Data_Memory $end
$var wire 1 F MemRead_i $end
$var wire 1 G MemWrite_i $end
$var wire 32 r addr_i [31:0] $end
$var wire 1 ! clk_i $end
$var wire 32 s data_i [31:0] $end
$var wire 32 t data_o [31:0] $end
$upscope $end
$scope module Equal_Unit $end
$var wire 1 A Branch_i $end
$var wire 32 u src2_i [31:0] $end
$var wire 32 v src1_i [31:0] $end
$var reg 1 < flush_o $end
$var reg 1 . is_equal_o $end
$upscope $end
$scope module Forwarding $end
$var wire 5 w EX_MEM_RDaddr_i [4:0] $end
$var wire 1 K EX_MEM_RegWrite_i $end
$var wire 5 x ID_EX_RS1addr_i [4:0] $end
$var wire 5 y ID_EX_RS2addr_i [4:0] $end
$var wire 5 z MEM_WB_RDaddr_i [4:0] $end
$var wire 1 ` MEM_WB_RegWrite_i $end
$var reg 2 { ForwardA_o [1:0] $end
$var reg 2 | ForwardB_o [1:0] $end
$upscope $end
$scope module Hazard_Detection $end
$var wire 1 N ID_EX_MemRead_i $end
$var wire 5 } ID_EX_RDaddr_i [4:0] $end
$var wire 5 ~ RS1addr_i [4:0] $end
$var wire 5 !" RS2addr_i [4:0] $end
$var wire 1 ! clk_i $end
$var wire 1 " rst_i $end
$var reg 1 6 NoOp_o $end
$var reg 1 5 PCWrite_o $end
$var reg 1 0 Stall_o $end
$upscope $end
$scope module Imm_Gen $end
$var wire 32 "" imm_i [31:0] $end
$var reg 32 #" imm_o [31:0] $end
$upscope $end
$scope module Instruction_Memory $end
$var wire 32 $" instr_o [31:0] $end
$var wire 32 %" addr_i [31:0] $end
$upscope $end
$scope module MUX $end
$var wire 1 M sel $end
$var wire 32 &" src2_i [31:0] $end
$var wire 32 '" src1_i [31:0] $end
$var reg 32 (" mux_o [31:0] $end
$upscope $end
$scope module MUX2 $end
$var wire 1 ^ sel $end
$var wire 32 )" src1_i [31:0] $end
$var wire 32 *" src2_i [31:0] $end
$var reg 32 +" mux_o [31:0] $end
$upscope $end
$scope module MUX32_ForwardA $end
$var wire 2 ," sel [1:0] $end
$var wire 32 -" src1_i [31:0] $end
$var wire 32 ." src2_i [31:0] $end
$var wire 32 /" src3_i [31:0] $end
$var reg 32 0" mux_o [31:0] $end
$upscope $end
$scope module MUX32_ForwardB $end
$var wire 2 1" sel [1:0] $end
$var wire 32 2" src1_i [31:0] $end
$var wire 32 3" src2_i [31:0] $end
$var wire 32 4" src3_i [31:0] $end
$var reg 32 5" mux_o [31:0] $end
$upscope $end
$scope module MUX32_PC $end
$var wire 1 < sel $end
$var wire 32 6" src1_i [31:0] $end
$var wire 32 7" src2_i [31:0] $end
$var reg 32 8" mux_o [31:0] $end
$upscope $end
$scope module PC $end
$var wire 1 5 PCWrite_i $end
$var wire 1 ! clk_i $end
$var wire 32 9" pc_i [31:0] $end
$var wire 1 " rst_i $end
$var reg 32 :" pc_o [31:0] $end
$upscope $end
$scope module Registers $end
$var wire 5 ;" RDaddr_i [4:0] $end
$var wire 32 <" RDdata_i [31:0] $end
$var wire 5 =" RS1addr_i [4:0] $end
$var wire 5 >" RS2addr_i [4:0] $end
$var wire 1 ` RegWrite_i $end
$var wire 1 ! clk_i $end
$var wire 1 " rst_i $end
$var wire 32 ?" RS2data_o [31:0] $end
$var wire 32 @" RS1data_o [31:0] $end
$var integer 32 A" i [31:0] $end
$upscope $end
$upscope $end
$upscope $end
$enddefinitions $end
#0
$dumpvars
bx A"
bx @"
bx ?"
bx >"
bx ="
bx <"
bx ;"
bx :"
bx 9"
bx 8"
bx 7"
bx 6"
bx 5"
bx 4"
bx 3"
bx 2"
bx 1"
bx 0"
bx /"
bx ."
bx -"
bx ,"
bx +"
bx *"
bx )"
bx ("
bx '"
bx &"
bx %"
bx $"
bx #"
bx ""
bx !"
bx ~
bx }
bx |
bx {
bx z
bx y
bx x
bx w
bx v
bx u
bx t
bx s
bx r
b0 q
bx p
bx o
bx n
bx0 m
bx l
bx k
b100 j
bx i
bx h
bx g
bx f
bx e
bx d
bx c
bx b
bx a
x`
bx _
x^
bx ]
bx \
bx [
bx Z
bx Y
bx X
bx W
xV
bx U
bx T
bx S
bx R
bx Q
xP
xO
xN
xM
bx L
xK
bx J
bx I
xH
xG
xF
bx E
b0 D
bx C
0B
0A
bx @
bx ?
bx >
bx =
0<
bx ;
bx :
09
08
07
06
15
bx 4
bx 3
bx 2
01
00
bx /
0.
bx -
bx ,
bx +
bx *
bx )
bx (
b0 '
b11 &
b100000 %
b0 $
b0 #
1"
0!
$end
#6
b0 C
b0 a
b0 e
1.
b0 ;
b0 b
b0 ("
b0 3
b0 v
b0 @"
b0 2
b0 u
b0 ?"
b0 /
b0 o
b0 7"
b0 m
b1100010000000100000110011 ,
b1100010000000100000110011 $"
b100 +
b100 8"
b100 9"
b0 4
b0 +"
b0 ."
b0 3"
b0 <"
b0 :
b0 t
b0 >
b0 |
b0 1"
b0 @
b0 {
b0 ,"
b0 =
b0 '"
b0 5"
b0 ?
b0 c
b0 0"
b11 *
b11 d
b11 i
b0 ~
b0 !"
b0 p
b0 ="
b0 >"
b0 -
b0 #"
b100 )
b100 l
b100 6"
b0 (
b0 k
b0 %"
b0 :"
b0 _
b0 z
b0 ;"
b0 ]
b0 *"
b0 \
b0 )"
0^
0`
b0 I
b0 w
b0 J
b0 s
b0 E
b0 r
b0 /"
b0 4"
0G
0F
0H
0K
b0 Q
b0 }
b0 T
b0 y
b0 R
b0 x
b0 W
b0 g
b0 X
b0 h
b0 Y
b0 &"
b0 U
b0 2"
b0 S
b0 -"
0M
b0 L
b0 f
0O
0N
0P
0V
b0 Z
b0 n
b0 [
b0 ""
b100000 A"
0"
#12
1"
#25
0.
11
b1 D
b1 q
b11111111111111111111111111101000 2
b11111111111111111111111111101000 u
b11111111111111111111111111101000 ?"
b110000 /
b110000 o
b110000 7"
b110000 m
b10000 ~
b11000 !"
b110011 p
b10000 ="
b11000 >"
b11000 -
b11000 #"
b1100110000000100000110011 ,
b1100110000000100000110011 $"
b1000 +
b1000 8"
b1000 9"
b1100010000000100000110011 [
b1100010000000100000110011 ""
b1000 )
b1000 l
b1000 6"
b100 (
b100 k
b100 %"
b100 :"
b1 #
1!
#50
0!
#75
b11111111111111111111111111101000 C
b11111111111111111111111111101000 a
b11111111111111111111111111101000 e
b11111111111111111111111111100111 2
b11111111111111111111111111100111 u
b11111111111111111111111111100111 ?"
b110010 m
b1101010000000100000110011 ,
b1101010000000100000110011 $"
b11111111111111111111111111101000 ;
b11111111111111111111111111101000 b
b11111111111111111111111111101000 ("
b11111111111111111111111111101000 =
b11111111111111111111111111101000 '"
b11111111111111111111111111101000 5"
b1100 +
b1100 8"
b1100 9"
b11001 !"
b11001 >"
b11001 -
b11001 #"
b1100 )
b1100 l
b1100 6"
b1000 (
b1000 k
b1000 %"
b1000 :"
b10000 Q
b10000 }
b11000 T
b11000 y
b10000 R
b10000 x
b11000 Y
b11000 &"
b11111111111111111111111111101000 U
b11111111111111111111111111101000 2"
b1 L
b1 f
1V
b110110 /
b110110 o
b110110 7"
b100 Z
b100 n
b1100110000000100000110011 [
b1100110000000100000110011 ""
b10 #
1!
#100
0!
#125
b11111111111111111111111111001111 C
b11111111111111111111111111001111 a
b11111111111111111111111111001111 e
b11111111111111111111111111100110 2
b11111111111111111111111111100110 u
b11111111111111111111111111100110 ?"
b110100 m
b11111111111111111111111111101000 ?
b11111111111111111111111111101000 c
b11111111111111111111111111101000 0"
b10 @
b10 {
b10 ,"
b11111111111111111111111111100111 ;
b11111111111111111111111111100111 b
b11111111111111111111111111100111 ("
b11111111111111111111111111100111 =
b11111111111111111111111111100111 '"
b11111111111111111111111111100111 5"
b11010 !"
b11010 >"
b11010 -
b11010 #"
b1110010000000100000110011 ,
b1110010000000100000110011 $"
b10000 +
b10000 8"
b10000 9"
b10000 I
b10000 w
b11111111111111111111111111101000 J
b11111111111111111111111111101000 s
b11111111111111111111111111101000 E
b11111111111111111111111111101000 r
b11111111111111111111111111101000 /"
b11111111111111111111111111101000 4"
1K
b11001 T
b11001 y
b11001 Y
b11001 &"
b11111111111111111111111111100111 U
b11111111111111111111111111100111 2"
b111100 /
b111100 o
b111100 7"
b1000 Z
b1000 n
b1101010000000100000110011 [
b1101010000000100000110011 ""
b10000 )
b10000 l
b10000 6"
b1100 (
b1100 k
b1100 %"
b1100 :"
b11 #
1!
#150
0!
#175
b11111111111111111111111111101000 3
b11111111111111111111111111101000 v
b11111111111111111111111111101000 @"
b11111111111111111111111110110101 C
b11111111111111111111111110110101 a
b11111111111111111111111110110101 e
b111000 2
b111000 u
b111000 ?"
b111000 m
b1000000000010110000100011 ,
b1000000000010110000100011 $"
b11111111111111111111111111101000 4
b11111111111111111111111111101000 +"
b11111111111111111111111111101000 ."
b11111111111111111111111111101000 3"
b11111111111111111111111111101000 <"
b11111111111111111111111111001111 ?
b11111111111111111111111111001111 c
b11111111111111111111111111001111 0"
b11111111111111111111111111100110 ;
b11111111111111111111111111100110 b
b11111111111111111111111111100110 ("
b11111111111111111111111111100110 =
b11111111111111111111111111100110 '"
b11111111111111111111111111100110 5"
b10100 +
b10100 8"
b10100 9"
b11100 !"
b11100 >"
b11100 -
b11100 #"
b10100 )
b10100 l
b10100 6"
b10000 (
b10000 k
b10000 %"
b10000 :"
b10000 _
b10000 z
b10000 ;"
b11111111111111111111111111101000 \
b11111111111111111111111111101000 )"
1`
b11111111111111111111111111100111 J
b11111111111111111111111111100111 s
b11111111111111111111111111001111 E
b11111111111111111111111111001111 r
b11111111111111111111111111001111 /"
b11111111111111111111111111001111 4"
b11010 T
b11010 y
b11010 Y
b11010 &"
b11111111111111111111111111100110 U
b11111111111111111111111111100110 2"
b1000100 /
b1000100 o
b1000100 7"
b1100 Z
b1100 n
b1110010000000100000110011 [
b1110010000000100000110011 ""
b100 #
1!
#200
0!
#225
b0 3
b0 v
b0 @"
b11111111111111111111111111101101 C
b11111111111111111111111111101101 a
b11111111111111111111111111101101 e
18
01
1B
b10 D
b10 q
b11111111111111111111111111001111 2
b11111111111111111111111111001111 u
b11111111111111111111111111001111 ?"
b110000 m
b11111111111111111111111111001111 4
b11111111111111111111111111001111 +"
b11111111111111111111111111001111 ."
b11111111111111111111111111001111 3"
b11111111111111111111111111001111 <"
b111000 ;
b111000 b
b111000 ("
b111000 =
b111000 '"
b111000 5"
b11111111111111111111111110110101 ?
b11111111111111111111111110110101 c
b11111111111111111111111110110101 0"
b0 ~
b10000 !"
b100011 p
b0 ="
b10000 >"
b11000 -
b11000 #"
b1000001111011111000000010110011 ,
b1000001111011111000000010110011 $"
b11000 +
b11000 8"
b11000 9"
b11111111111111111111111111001111 \
b11111111111111111111111111001111 )"
b11111111111111111111111111100110 J
b11111111111111111111111111100110 s
b11111111111111111111111110110101 E
b11111111111111111111111110110101 r
b11111111111111111111111110110101 /"
b11111111111111111111111110110101 4"
b11100 T
b11100 y
b11100 Y
b11100 &"
b111000 U
b111000 2"
b11111111111111111111111111101000 S
b11111111111111111111111111101000 -"
b1000000 /
b1000000 o
b1000000 7"
b10000 Z
b10000 n
b1000000000010110000100011 [
b1000000000010110000100011 ""
b11000 )
b11000 l
b11000 6"
b10100 (
b10100 k
b10100 %"
b10100 :"
b101 #
1!
#250
0!
#275
b111100 2
b111100 u
b111100 ?"
b11000 C
b11000 a
b11000 e
08
11
0B
b1 D
b1 q
b111110 3
b111110 v
b111110 @"
b100000111100 m
b1111000001000000100110011 ,
b1111000001000000100110011 $"
b11111111111111111111111110110101 4
b11111111111111111111111110110101 +"
b11111111111111111111111110110101 ."
b11111111111111111111111110110101 3"
b11111111111111111111111110110101 <"
b10 >
b10 |
b10 1"
b0 @
b0 {
b0 ,"
b11111111111111111111111111101101 =
b11111111111111111111111111101101 '"
b11111111111111111111111111101101 5"
b0 ?
b0 c
b0 0"
b11000 ;
b11000 b
b11000 ("
b11100 +
b11100 8"
b11100 9"
b11111 ~
b11110 !"
b110011 p
b11111 ="
b11110 >"
b10000011110 -
b10000011110 #"
b11100 )
b11100 l
b11100 6"
b11000 (
b11000 k
b11000 %"
b11000 :"
b11111111111111111111111110110101 \
b11111111111111111111111110110101 )"
b111000 J
b111000 s
b11111111111111111111111111101101 E
b11111111111111111111111111101101 r
b11111111111111111111111111101101 /"
b11111111111111111111111111101101 4"
b11000 Q
b11000 }
b10000 T
b10000 y
b0 R
b0 x
b10 W
b10 g
b11000 Y
b11000 &"
b11111111111111111111111111001111 U
b11111111111111111111111111001111 2"
b0 S
b0 -"
1M
b10 L
b10 f
1O
0V
b100001010000 /
b100001010000 o
b100001010000 7"
b10100 Z
b10100 n
b1000001111011111000000010110011 [
b1000001111011111000000010110011 ""
b110 #
1!
#300
0!
#325
b10 C
b10 a
b10 e
b0 3
b0 v
b0 @"
b111100 m
b11111111111111111111111111101101 4
b11111111111111111111111111101101 +"
b11111111111111111111111111101101 ."
b11111111111111111111111111101101 3"
b11111111111111111111111111101101 <"
b0 >
b0 |
b0 1"
b111100 =
b111100 '"
b111100 5"
b111110 ?
b111110 c
b111110 0"
b111100 ;
b111100 b
b111100 ("
b100 *
b100 d
b100 i
b1 ~
b1 ="
b11110 -
b11110 #"
b1000000001000010101000110010011 ,
b1000000001000010101000110010011 $"
b100000 +
b100000 8"
b100000 9"
b11111111111111111111111111101101 \
b11111111111111111111111111101101 )"
b11000 I
b11000 w
b11111111111111111111111111101101 J
b11111111111111111111111111101101 s
b11000 E
b11000 r
b11000 /"
b11000 4"
1G
0K
b1 Q
b1 }
b11110 T
b11110 y
b11111 R
b11111 x
b0 W
b0 g
b100000 X
b100000 h
b10000011110 Y
b10000011110 &"
b111100 U
b111100 2"
b111110 S
b111110 -"
0M
b1 L
b1 f
0O
1V
b1010100 /
b1010100 o
b1010100 7"
b11000 Z
b11000 n
b1111000001000000100110011 [
b1111000001000000100110011 ""
b100000 )
b100000 l
b100000 6"
b11100 (
b11100 k
b11100 %"
b11100 :"
b111 #
1!
#350
0!
#375
1.
b111110 C
b111110 a
b111110 e
1B
b0 D
b0 q
b0 2
b0 u
b0 ?"
b100000000100 m
b1000000000011010010011 ,
b1000000000011010010011 $"
b11000 4
b11000 +"
b11000 ."
b11000 3"
b11000 <"
b10 @
b10 {
b10 ,"
b11 *
b11 d
b11 i
b10 ?
b10 c
b10 0"
b100100 +
b100100 8"
b100100 9"
b10 ~
b10 !"
b10011 p
b10 ="
b10 >"
b10000000010 -
b10000000010 #"
b100100 )
b100100 l
b100100 6"
b100000 (
b100000 k
b100000 %"
b100000 :"
b11000 _
b11000 z
b11000 ;"
b11000 \
b11000 )"
0`
b1 I
b1 w
b111100 J
b111100 s
b10 E
b10 r
b10 /"
b10 4"
0G
1K
b10 Q
b10 }
b1 R
b1 x
b0 X
b0 h
b11110 Y
b11110 &"
b0 S
b0 -"
b100000100000 /
b100000100000 o
b100000100000 7"
b11100 Z
b11100 n
b1000000001000010101000110010011 [
b1000000001000010101000110010011 ""
b1000 #
1!
#400
0!
#425
b1111 C
b1111 a
b1111 e
b100 m
b10 4
b10 +"
b10 ."
b10 3"
b10 <"
b111110 ?
b111110 c
b111110 0"
b10 >
b10 |
b10 1"
b111110 =
b111110 '"
b111110 5"
b10000000010 ;
b10000000010 b
b10000000010 ("
b111 *
b111 d
b111 i
b0 ~
b0 ="
b10 -
b10 #"
b110111110001011110110011 ,
b110111110001011110110011 $"
b101000 +
b101000 8"
b101000 9"
b1 _
b1 z
b1 ;"
b10 \
b10 )"
1`
b10 I
b10 w
b111110 E
b111110 r
b111110 /"
b111110 4"
b11 Q
b11 }
b10 T
b10 y
b10 R
b10 x
b101 W
b101 g
b100000 X
b100000 h
b10000000010 Y
b10000000010 &"
b0 U
b0 2"
1M
b0 L
b0 f
b100100 /
b100100 o
b100100 7"
b100000 Z
b100000 n
b1000000000011010010011 [
b1000000000011010010011 ""
b101000 )
b101000 l
b101000 6"
b100100 (
b100100 k
b100100 %"
b100100 :"
b1001 #
1!
#450
0!
#475
0.
b10 C
b10 a
b10 e
0B
b1 D
b1 q
b111100 3
b111100 v
b111100 @"
b11010 m
b1100000010101000100011 ,
b1100000010101000100011 $"
b111110 4
b111110 +"
b111110 ."
b111110 3"
b111110 <"
b0 ?
b0 c
b0 0"
b111110 =
b111110 '"
b111110 5"
b1 >
b1 |
b1 1"
b0 @
b0 {
b0 ,"
b11 *
b11 d
b11 i
b10 ;
b10 b
b10 ("
b101100 +
b101100 8"
b101100 9"
b11110 ~
b1101 !"
b110011 p
b11110 ="
b1101 >"
b1101 -
b1101 #"
b101100 )
b101100 l
b101100 6"
b101000 (
b101000 k
b101000 %"
b101000 :"
b10 _
b10 z
b10 ;"
b111110 \
b111110 )"
b11 I
b11 w
b111110 J
b111110 s
b1111 E
b1111 r
b1111 /"
b1111 4"
b1101 Q
b1101 }
b0 R
b0 x
b0 W
b0 g
b0 X
b0 h
b10 Y
b10 &"
b111110 /
b111110 o
b111110 7"
b100100 Z
b100100 n
b110111110001011110110011 [
b110111110001011110110011 ""
b1010 #
1!
#500
0!
#525
b1111 2
b1111 u
b1111 ?"
b11110000 C
b11110000 a
b11110000 e
18
01
1B
b10 D
b10 q
b0 3
b0 v
b0 @"
b101000 m
b1111 4
b1111 +"
b1111 ."
b1111 3"
b1111 <"
b10 =
b10 '"
b10 5"
b10 >
b10 |
b10 1"
b111100 ?
b111100 c
b111100 0"
b10 ;
b10 b
b10 ("
b10 *
b10 d
b10 i
b0 ~
b11 !"
b100011 p
b0 ="
b11 >"
b10100 -
b10100 #"
b10101000000011 ,
b10101000000011 $"
b110000 +
b110000 8"
b110000 9"
b11 _
b11 z
b11 ;"
b1111 \
b1111 )"
b1101 I
b1101 w
b10 E
b10 r
b10 /"
b10 4"
b1111 Q
b1111 }
b1101 T
b1101 y
b11110 R
b11110 x
b1 W
b1 g
b1101 Y
b1101 &"
b111100 S
b111100 -"
0M
b1 L
b1 f
b1010000 /
b1010000 o
b1010000 7"
b101000 Z
b101000 n
b1100000010101000100011 [
b1100000010101000100011 ""
b110000 )
b110000 l
b110000 6"
b101100 (
b101100 k
b101100 %"
b101100 :"
b1011 #
1!
#550
0!
#575
1.
b0 2
b0 u
b0 ?"
b10100 C
b10100 a
b10100 e
08
19
17
11
b0 m
b10000000010101010000011 ,
b10000000010101010000011 $"
b10 4
b10 +"
b10 ."
b10 3"
b10 <"
b0 >
b0 |
b0 1"
b1111 =
b1111 '"
b1111 5"
b0 ?
b0 c
b0 0"
b10100 ;
b10100 b
b10100 ("
b11 *
b11 d
b11 i
b110100 +
b110100 8"
b110100 9"
b0 !"
b11 p
b0 >"
b0 -
b0 #"
b110100 )
b110100 l
b110100 6"
b110000 (
b110000 k
b110000 %"
b110000 :"
b1101 _
b1101 z
b1101 ;"
b10 \
b10 )"
b1111 I
b1111 w
b10 J
b10 s
b11110000 E
b11110000 r
b11110000 /"
b11110000 4"
b10100 Q
b10100 }
b11 T
b11 y
b0 R
b0 x
b10 W
b10 g
b10100 Y
b10100 &"
b1111 U
b1111 2"
b0 S
b0 -"
1M
b10 L
b10 f
1O
0V
b101100 /
b101100 o
b101100 7"
b101100 Z
b101100 n
b10101000000011 [
b10101000000011 ""
b1100 #
1!
#600
0!
#625
b0 C
b0 a
b0 e
b1000 m
b11110000 4
b11110000 +"
b11110000 ."
b11110000 3"
b11110000 <"
b0 ;
b0 b
b0 ("
b0 =
b0 '"
b0 5"
b100 !"
b100 >"
b100 -
b100 #"
b100000000010101100000011 ,
b100000000010101100000011 $"
b111000 +
b111000 8"
b111000 9"
b1111 _
b1111 z
b1111 ;"
b11110000 \
b11110000 )"
b10100 I
b10100 w
b1111 J
b1111 s
b10100 E
b10100 r
b10100 /"
b10100 4"
1G
0K
b0 T
b0 y
b0 Y
b0 &"
b0 U
b0 2"
0O
1N
1P
1V
b111000 /
b111000 o
b111000 7"
b110000 Z
b110000 n
b10000000010101010000011 [
b10000000010101010000011 ""
b111000 )
b111000 l
b111000 6"
b110100 (
b110100 k
b110100 %"
b110100 :"
b1101 #
1!
#650
0!
#675
b100 C
b100 a
b100 e
b10000 m
b0 ,
b0 $"
b10100 4
b10100 +"
b10100 ."
b10100 3"
b10100 <"
b101 :
b101 t
b100 ;
b100 b
b100 ("
b111100 +
b111100 8"
b111100 9"
b1000 !"
b1000 >"
b1000 -
b1000 #"
b111100 )
b111100 l
b111100 6"
b111000 (
b111000 k
b111000 %"
b111000 :"
b10100 _
b10100 z
b10100 ;"
b10100 \
b10100 )"
0`
b0 J
b0 s
b0 E
b0 r
b0 /"
b0 4"
0G
1F
1H
1K
b10101 Q
b10101 }
b100 T
b100 y
b100 Y
b100 &"
b1000100 /
b1000100 o
b1000100 7"
b110100 Z
b110100 n
b100000000010101100000011 [
b100000000010101100000011 ""
b1110 #
1!
#700
0!
#725
b110 :
b110 t
b1000 C
b1000 a
b1000 e
09
07
01
0B
b0 D
b0 q
b0 m
b101 4
b101 +"
b101 ."
b101 3"
b101 <"
b1000 ;
b1000 b
b1000 ("
b0 !"
b0 p
b0 >"
b0 -
b0 #"
b1000000 +
b1000000 8"
b1000000 9"
b101 ]
b101 *"
b0 \
b0 )"
1^
1`
b10101 I
b10101 w
b100 E
b100 r
b100 /"
b100 4"
b10110 Q
b10110 }
b1000 T
b1000 y
b1000 Y
b1000 &"
b111000 /
b111000 o
b111000 7"
b111000 Z
b111000 n
b0 [
b0 ""
b1000000 )
b1000000 l
b1000000 6"
b111100 (
b111100 k
b111100 %"
b111100 :"
b1111 #
1!
#750
0!
#775
b1010 :
b1010 t
b0 C
b0 a
b0 e
b110 4
b110 +"
b110 ."
b110 3"
b110 <"
b0 ;
b0 b
b0 ("
b1000100 +
b1000100 8"
b1000100 9"
b1000100 )
b1000100 l
b1000100 6"
b1000000 (
b1000000 k
b1000000 %"
b1000000 :"
b10101 _
b10101 z
b10101 ;"
b110 ]
b110 *"
b100 \
b100 )"
b10110 I
b10110 w
b1000 E
b1000 r
b1000 /"
b1000 4"
b0 Q
b0 }
b0 T
b0 y
b0 W
b0 g
b0 Y
b0 &"
0M
b0 L
b0 f
0N
0P
0V
b111100 /
b111100 o
b111100 7"
b111100 Z
b111100 n
b10000 #
1!
#800
0!
#825
b1010 4
b1010 +"
b1010 ."
b1010 3"
b1010 <"
b0 :
b0 t
b1001000 +
b1001000 8"
b1001000 9"
b10110 _
b10110 z
b10110 ;"
b1010 ]
b1010 *"
b1000 \
b1000 )"
b0 I
b0 w
b0 E
b0 r
b0 /"
b0 4"
0F
0H
0K
b1000000 /
b1000000 o
b1000000 7"
b1000000 Z
b1000000 n
b1001000 )
b1001000 l
b1001000 6"
b1000100 (
b1000100 k
b1000100 %"
b1000100 :"
b10001 #
1!
#850
0!
#875
b0 4
b0 +"
b0 ."
b0 3"
b0 <"
b1001100 +
b1001100 8"
b1001100 9"
b1001100 )
b1001100 l
b1001100 6"
b1001000 (
b1001000 k
b1001000 %"
b1001000 :"
b0 _
b0 z
b0 ;"
b0 ]
b0 *"
b0 \
b0 )"
0^
0`
b1000100 /
b1000100 o
b1000100 7"
b1000100 Z
b1000100 n
b10010 #
1!
#900
0!
#925
b1010000 +
b1010000 8"
b1010000 9"
b1001000 /
b1001000 o
b1001000 7"
b1001000 Z
b1001000 n
b1010000 )
b1010000 l
b1010000 6"
b1001100 (
b1001100 k
b1001100 %"
b1001100 :"
b10011 #
1!
#950
0!
#975
b1010100 +
b1010100 8"
b1010100 9"
b1010100 )
b1010100 l
b1010100 6"
b1010000 (
b1010000 k
b1010000 %"
b1010000 :"
b1001100 /
b1001100 o
b1001100 7"
b1001100 Z
b1001100 n
b10100 #
1!
#1000
0!
#1025
b1011000 +
b1011000 8"
b1011000 9"
b1010000 /
b1010000 o
b1010000 7"
b1010000 Z
b1010000 n
b1011000 )
b1011000 l
b1011000 6"
b1010100 (
b1010100 k
b1010100 %"
b1010100 :"
b10101 #
1!
#1050
0!
#1075
b1011100 +
b1011100 8"
b1011100 9"
b1011100 )
b1011100 l
b1011100 6"
b1011000 (
b1011000 k
b1011000 %"
b1011000 :"
b1010100 /
b1010100 o
b1010100 7"
b1010100 Z
b1010100 n
b10110 #
1!
#1100
0!
#1125
b1100000 +
b1100000 8"
b1100000 9"
b1011000 /
b1011000 o
b1011000 7"
b1011000 Z
b1011000 n
b1100000 )
b1100000 l
b1100000 6"
b1011100 (
b1011100 k
b1011100 %"
b1011100 :"
b10111 #
1!
#1150
0!
#1175
b1100100 +
b1100100 8"
b1100100 9"
b1100100 )
b1100100 l
b1100100 6"
b1100000 (
b1100000 k
b1100000 %"
b1100000 :"
b1011100 /
b1011100 o
b1011100 7"
b1011100 Z
b1011100 n
b11000 #
1!
#1200
0!
#1225
b1101000 +
b1101000 8"
b1101000 9"
b1100000 /
b1100000 o
b1100000 7"
b1100000 Z
b1100000 n
b1101000 )
b1101000 l
b1101000 6"
b1100100 (
b1100100 k
b1100100 %"
b1100100 :"
b11001 #
1!
#1250
0!
#1275
b1101100 +
b1101100 8"
b1101100 9"
b1101100 )
b1101100 l
b1101100 6"
b1101000 (
b1101000 k
b1101000 %"
b1101000 :"
b1100100 /
b1100100 o
b1100100 7"
b1100100 Z
b1100100 n
b11010 #
1!
#1300
0!
#1325
b1110000 +
b1110000 8"
b1110000 9"
b1101000 /
b1101000 o
b1101000 7"
b1101000 Z
b1101000 n
b1110000 )
b1110000 l
b1110000 6"
b1101100 (
b1101100 k
b1101100 %"
b1101100 :"
b11011 #
1!
#1350
0!
