lab2/lab2/log/waveform_3.vcd
$date
	Sat Nov 18 15:04:50 2023
$end
$version
	Icarus Verilog
$end
$timescale
	1s
$end
$scope module TestBench $end
$var reg 1 ! Clk $end
$var reg 1 " Reset $end
$var integer 32 # counter [31:0] $end
$var integer 32 $ flush [31:0] $end
$var integer 32 % i [31:0] $end
$var integer 32 & outfile [31:0] $end
$var integer 32 ' stall [31:0] $end
$scope module CPU $end
$var wire 1 ! clk_i $end
$var wire 1 " rst_i $end
$var wire 32 ( pc_o [31:0] $end
$var wire 32 ) pc_i [31:0] $end
$var wire 3 * operation [2:0] $end
$var wire 32 + muxPCResult [31:0] $end
$var wire 32 , instr [31:0] $end
$var wire 32 - immediate [31:0] $end
$var wire 1 . equal $end
$var wire 32 / branchAddr [31:0] $end
$var wire 1 0 Stall $end
$var wire 1 1 RegWrite $end
$var wire 32 2 RS2data [31:0] $end
$var wire 32 3 RS1data [31:0] $end
$var wire 32 4 RDdata [31:0] $end
$var wire 1 5 PCWrite $end
$var wire 1 6 NoOp $end
$var wire 1 7 MemtoReg $end
$var wire 1 8 MemWrite $end
$var wire 1 9 MemRead $end
$var wire 32 : MemData [31:0] $end
$var wire 32 ; MUXResult [31:0] $end
$var wire 1 < MEM_WB_RegWrite $end
$var wire 5 = MEM_WB_RDaddr [4:0] $end
$var wire 1 > MEM_WB_MemtoReg $end
$var wire 32 ? MEM_WB_MemData [31:0] $end
$var wire 32 @ MEM_WB_ALUResult [31:0] $end
$var wire 32 A IF_ID_instr [31:0] $end
$var wire 32 B IF_ID_PC [31:0] $end
$var wire 1 C ID_FlushIF $end
$var wire 32 D ID_EX_immediate [31:0] $end
$var wire 7 E ID_EX_func7 [6:0] $end
$var wire 3 F ID_EX_func3 [2:0] $end
$var wire 1 G ID_EX_RegWrite $end
$var wire 32 H ID_EX_RS2data [31:0] $end
$var wire 5 I ID_EX_RS2addr [4:0] $end
$var wire 32 J ID_EX_RS1data [31:0] $end
$var wire 5 K ID_EX_RS1addr [4:0] $end
$var wire 5 L ID_EX_RDaddr [4:0] $end
$var wire 1 M ID_EX_MemtoReg $end
$var wire 1 N ID_EX_MemWrite $end
$var wire 1 O ID_EX_MemRead $end
$var wire 1 P ID_EX_ALUSrc $end
$var wire 2 Q ID_EX_ALUOp [1:0] $end
$var wire 32 R ForwardBData [31:0] $end
$var wire 2 S ForwardB [1:0] $end
$var wire 32 T ForwardAData [31:0] $end
$var wire 2 U ForwardA [1:0] $end
$var wire 1 V EX_MEM_RegWrite $end
$var wire 32 W EX_MEM_RS2data [31:0] $end
$var wire 5 X EX_MEM_RDaddr [4:0] $end
$var wire 1 Y EX_MEM_MemtoReg $end
$var wire 1 Z EX_MEM_MemWrite $end
$var wire 1 [ EX_MEM_MemRead $end
$var wire 32 \ EX_MEM_ALUResult [31:0] $end
$var wire 1 ] Branch $end
$var wire 1 ^ ALUSrc $end
$var wire 32 _ ALUResult [31:0] $end
$var wire 2 ` ALUOp [1:0] $end
$scope module ALU $end
$var wire 32 a ALUResult_o [31:0] $end
$var wire 32 b src2_i [31:0] $end
$var wire 32 c src1_i [31:0] $end
$var wire 3 d op_i [2:0] $end
$var reg 32 e tmpResult [31:0] $end
$upscope $end
$scope module ALU_Control $end
$var wire 7 f funct7_i [31:25] $end
$var wire 3 g funct3_i [14:12] $end
$var wire 2 h ALUOp_i [1:0] $end
$var reg 3 i op_o [2:0] $end
$upscope $end
$scope module Add $end
$var wire 32 j src2_i [31:0] $end
$var wire 32 k src1_i [31:0] $end
$var wire 32 l adder_o [31:0] $end
$upscope $end
$scope module Add2 $end
$var wire 32 m src1_i [31:0] $end
$var wire 32 n src2_i [31:0] $end
$var wire 32 o adder_o [31:0] $end
$upscope $end
$scope module Branch_Detection $end
$var wire 32 p src2_i [31:0] $end
$var wire 32 q src1_i [31:0] $end
$var wire 1 ] Branch_i $end
$var reg 1 C flush_o $end
$var reg 1 . is_equal_o $end
$upscope $end
$scope module Control $end
$var wire 7 r opcode_i [6:0] $end
$var wire 1 6 NoOp_i $end
$var reg 2 s ALUOp_o [1:0] $end
$var reg 1 ^ ALUSrc_o $end
$var reg 1 ] Branch_o $end
$var reg 1 9 MemRead_o $end
$var reg 1 8 MemWrite_o $end
$var reg 1 7 MemtoReg_o $end
$var reg 1 1 RegWrite_o $end
$upscope $end
$scope module Data_Memory $end
$var wire 1 ! clk_i $end
$var wire 32 t data_o [31:0] $end
$var wire 32 u data_i [31:0] $end
$var wire 32 v addr_i [31:0] $end
$var wire 1 Z MemWrite_i $end
$var wire 1 [ MemRead_i $end
$upscope $end
$scope module EX_MEM_Register $end
$var wire 32 w ALUResult_i [31:0] $end
$var wire 1 ! clk_i $end
$var wire 1 " rst_i $end
$var wire 1 G RegWrite_i $end
$var wire 5 x RDaddr_i [4:0] $end
$var wire 1 M MemtoReg_i $end
$var wire 1 N MemWrite_i $end
$var wire 1 O MemRead_i $end
$var wire 32 y ForwardBData_i [31:0] $end
$var reg 32 z ALUResult_o [31:0] $end
$var reg 32 { ForwardBData_o [31:0] $end
$var reg 1 [ MemRead_o $end
$var reg 1 Z MemWrite_o $end
$var reg 1 Y MemtoReg_o $end
$var reg 5 | RDaddr_o [4:0] $end
$var reg 1 V RegWrite_o $end
$upscope $end
$scope module Forwarding $end
$var wire 5 } EX_MEM_RDaddr_i [4:0] $end
$var wire 1 V EX_MEM_RegWrite_i $end
$var wire 1 < MEM_WB_RegWrite_i $end
$var wire 5 ~ MEM_WB_RDaddr_i [4:0] $end
$var wire 5 !" ID_EX_RS2addr_i [4:0] $end
$var wire 5 "" ID_EX_RS1addr_i [4:0] $end
$var reg 2 #" ForwardA_o [1:0] $end
$var reg 2 $" ForwardB_o [1:0] $end
$upscope $end
$scope module Hazard_Detection $end
$var wire 5 %" RS1addr_i [4:0] $end
$var wire 5 &" RS2addr_i [4:0] $end
$var wire 1 " rst_i $end
$var wire 5 '" ID_EX_RDaddr_i [4:0] $end
$var wire 1 O ID_EX_MemRead_i $end
$var reg 1 6 NoOp_o $end
$var reg 1 5 PCWrite_o $end
$var reg 1 0 Stall_o $end
$upscope $end
$scope module ID_EX_Register $end
$var wire 2 (" ALUOp_i [1:0] $end
$var wire 1 ^ ALUSrc_i $end
$var wire 1 9 MemRead_i $end
$var wire 1 8 MemWrite_i $end
$var wire 1 7 MemtoReg_i $end
$var wire 5 )" RDaddr_i [4:0] $end
$var wire 5 *" RS1addr_i [4:0] $end
$var wire 5 +" RS2addr_i [4:0] $end
$var wire 1 1 RegWrite_i $end
$var wire 1 ! clk_i $end
$var wire 3 ," func3_i [2:0] $end
$var wire 7 -" func7_i [6:0] $end
$var wire 1 " rst_i $end
$var wire 32 ." immediate_i [31:0] $end
$var wire 32 /" RS2data_i [31:0] $end
$var wire 32 0" RS1data_i [31:0] $end
$var reg 2 1" ALUOp_o [1:0] $end
$var reg 1 P ALUSrc_o $end
$var reg 1 O MemRead_o $end
$var reg 1 N MemWrite_o $end
$var reg 1 M MemtoReg_o $end
$var reg 5 2" RDaddr_o [4:0] $end
$var reg 5 3" RS1addr_o [4:0] $end
$var reg 32 4" RS1data_o [31:0] $end
$var reg 5 5" RS2addr_o [4:0] $end
$var reg 32 6" RS2data_o [31:0] $end
$var reg 1 G RegWrite_o $end
$var reg 3 7" func3_o [2:0] $end
$var reg 7 8" func7_o [6:0] $end
$var reg 32 9" immediate_o [31:0] $end
$upscope $end
$scope module IF_ID_Register $end
$var wire 1 C ID_FlushIF_i $end
$var wire 1 0 Stall_i $end
$var wire 1 ! clk_i $end
$var wire 1 " rst_i $end
$var wire 32 :" instr_i [31:0] $end
$var wire 32 ;" PC_i [31:0] $end
$var reg 32 <" PC_o [31:0] $end
$var reg 32 =" instr_o [31:0] $end
$upscope $end
$scope module Imm_Gen $end
$var wire 32 >" instr_i [31:0] $end
$var reg 32 ?" imm_o [31:0] $end
$upscope $end
$scope module Instruction_Memory $end
$var wire 32 @" instr_o [31:0] $end
$var wire 32 A" addr_i [31:0] $end
$upscope $end
$scope module MEM_WB_Register $end
$var wire 32 B" ALUResult_i [31:0] $end
$var wire 32 C" MemData_i [31:0] $end
$var wire 1 Y MemtoReg_i $end
$var wire 5 D" RDaddr_i [4:0] $end
$var wire 1 V RegWrite_i $end
$var wire 1 ! clk_i $end
$var wire 1 " rst_i $end
$var reg 32 E" ALUResult_o [31:0] $end
$var reg 32 F" MemData_o [31:0] $end
$var reg 1 > MemtoReg_o $end
$var reg 5 G" RDaddr_o [4:0] $end
$var reg 1 < RegWrite_o $end
$upscope $end
$scope module MUX $end
$var wire 1 P sel $end
$var wire 32 H" src2_i [31:0] $end
$var wire 32 I" src1_i [31:0] $end
$var reg 32 J" mux_o [31:0] $end
$upscope $end
$scope module MUX2 $end
$var wire 1 > sel $end
$var wire 32 K" src1_i [31:0] $end
$var wire 32 L" src2_i [31:0] $end
$var reg 32 M" mux_o [31:0] $end
$upscope $end
$scope module MUX32_ForwardA $end
$var wire 2 N" sel [1:0] $end
$var wire 32 O" src1_i [31:0] $end
$var wire 32 P" src2_i [31:0] $end
$var wire 32 Q" src3_i [31:0] $end
$var reg 32 R" mux_o [31:0] $end
$upscope $end
$scope module MUX32_ForwardB $end
$var wire 2 S" sel [1:0] $end
$var wire 32 T" src1_i [31:0] $end
$var wire 32 U" src2_i [31:0] $end
$var wire 32 V" src3_i [31:0] $end
$var reg 32 W" mux_o [31:0] $end
$upscope $end
$scope module MUX32_PC $end
$var wire 1 C sel $end
$var wire 32 X" src1_i [31:0] $end
$var wire 32 Y" src2_i [31:0] $end
$var reg 32 Z" mux_o [31:0] $end
$upscope $end
$scope module PC $end
$var wire 1 5 PCWrite_i $end
$var wire 1 ! clk_i $end
$var wire 32 [" pc_i [31:0] $end
$var wire 1 " rst_i $end
$var reg 32 \" pc_o [31:0] $end
$upscope $end
$scope module Registers $end
$var wire 5 ]" RDaddr_i [4:0] $end
$var wire 32 ^" RDdata_i [31:0] $end
$var wire 5 _" RS1addr_i [4:0] $end
$var wire 5 `" RS2addr_i [4:0] $end
$var wire 1 < RegWrite_i $end
$var wire 1 ! clk_i $end
$var wire 1 " rst_i $end
$var wire 32 a" RS2data_o [31:0] $end
$var wire 32 b" RS1data_o [31:0] $end
$var integer 32 c" i [31:0] $end
$upscope $end
$upscope $end
$upscope $end
$enddefinitions $end
#0
$dumpvars
bx c"
bx b"
bx a"
bx `"
bx _"
bx ^"
bx ]"
bx \"
bx ["
bx Z"
bx Y"
bx X"
bx W"
bx V"
bx U"
bx T"
bx S"
bx R"
bx Q"
bx P"
bx O"
bx N"
bx M"
bx L"
bx K"
bx J"
bx I"
bx H"
bx G"
bx F"
bx E"
bx D"
bx C"
bx B"
bx A"
bx @"
bx ?"
bx >"
bx ="
bx <"
bx ;"
bx :"
bx 9"
bx 8"
bx 7"
bx 6"
bx 5"
bx 4"
bx 3"
bx 2"
bx 1"
bx 0"
bx /"
bx ."
bx -"
bx ,"
bx +"
bx *"
bx )"
b0 ("
bx '"
bx &"
bx %"
bx $"
bx #"
bx ""
bx !"
bx ~
bx }
bx |
bx {
bx z
bx y
bx x
bx w
bx v
bx u
bx t
b0 s
bx r
bx q
bx p
bx o
bx n
bx0 m
bx l
bx k
b100 j
bx i
bx h
bx g
bx f
bx e
bx d
bx c
bx b
bx a
b0 `
bx _
0^
0]
bx \
x[
xZ
xY
bx X
bx W
xV
bx U
bx T
bx S
bx R
bx Q
xP
xO
xN
xM
bx L
bx K
bx J
bx I
bx H
xG
bx F
bx E
bx D
0C
bx B
bx A
bx @
bx ?
x>
bx =
x<
bx ;
bx :
09
08
07
06
15
bx 4
bx 3
bx 2
01
00
bx /
0.
bx -
bx ,
bx +
bx *
bx )
bx (
b0 '
b11 &
b100000 %
b0 $
b0 #
1"
0!
$end
#6
1.
b0 /
b0 o
b0 Y"
b0 m
b0 _
b0 a
b0 w
b0 e
b0 3
b0 q
b0 0"
b0 b"
b0 2
b0 p
b0 /"
b0 a"
b0 -
b0 ."
b0 ?"
b0 `"
b0 _"
b0 r
b0 &"
b0 %"
b0 )"
b0 +"
b0 *"
b0 ,"
b0 -"
b0 ;
b0 b
b0 J"
b11 *
b11 d
b11 i
b0 T
b0 c
b0 R"
b0 R
b0 y
b0 I"
b0 W"
b0 :
b0 t
b0 C"
b0 4
b0 M"
b0 P"
b0 U"
b0 ^"
b0 S
b0 $"
b0 S"
b0 U
b0 #"
b0 N"
b10010000000011 ,
b10010000000011 :"
b10010000000011 @"
b100 +
b100 Z"
b100 ["
b0 B
b0 n
b0 <"
b0 A
b0 ="
b0 >"
b0 L
b0 x
b0 '"
b0 2"
b0 I
b0 !"
b0 5"
b0 K
b0 ""
b0 3"
b0 F
b0 g
b0 7"
b0 E
b0 f
b0 8"
b0 D
b0 9"
b0 H"
b0 H
b0 6"
b0 T"
b0 J
b0 4"
b0 O"
0P
b0 Q
b0 h
b0 1"
0N
0O
0M
0G
b0 X
b0 |
b0 }
b0 D"
b0 W
b0 u
b0 {
b0 \
b0 v
b0 z
b0 B"
b0 Q"
b0 V"
0Z
0[
0Y
0V
b0 =
b0 ~
b0 G"
b0 ]"
b0 ?
b0 F"
b0 L"
b0 @
b0 E"
b0 K"
0>
0<
b100 )
b100 l
b100 X"
b0 (
b0 k
b0 ;"
b0 A"
b0 \"
b100000 c"
0"
#12
1"
#25
19
17
11
1^
b10 `
b10 s
b10 ("
b100001000000010010110011 ,
b100001000000010010110011 :"
b100001000000010010110011 @"
b1000 +
b1000 Z"
b1000 ["
b11 r
b1000 )"
b10 ,"
b1000 )
b1000 l
b1000 X"
b100 (
b100 k
b100 ;"
b100 A"
b100 \"
b10010000000011 A
b10010000000011 ="
b10010000000011 >"
b1 #
1!
#50
0!
#75
b10000 m
09
07
01
0^
b0 `
b0 s
b0 ("
05
10
16
b1000 -
b1000 ."
b1000 ?"
b1000 `"
b1000 _"
b110011 r
b1000 &"
b1000 %"
b1001 )"
b1000 +"
b1000 *"
b0 ,"
b10000000010010100000011 ,
b10000000010010100000011 :"
b10000000010010100000011 @"
b1100 +
b1100 Z"
b1100 ["
b10100 /
b10100 o
b10100 Y"
b100 B
b100 n
b100 <"
b100001000000010010110011 A
b100001000000010010110011 ="
b100001000000010010110011 >"
b1000 L
b1000 x
b1000 '"
b1000 2"
b10 F
b10 g
b10 7"
1P
b10 Q
b10 h
b10 1"
1O
1M
1G
b1100 )
b1100 l
b1100 X"
b1000 (
b1000 k
b1000 ;"
b1000 A"
b1000 \"
b10 #
1!
#100
0!
#125
11
b1 `
b1 s
b1 ("
b101 :
b101 t
b101 C"
b10 S
b10 $"
b10 S"
b10 U
b10 #"
b10 N"
15
00
06
b1000 X
b1000 |
b1000 }
b1000 D"
1[
1Y
1V
b1001 L
b1001 x
b1001 '"
b1001 2"
b1000 I
b1000 !"
b1000 5"
b1000 K
b1000 ""
b1000 3"
b0 F
b0 g
b0 7"
b1000 D
b1000 9"
b1000 H"
0P
b0 Q
b0 h
b0 1"
0O
0M
0G
b11 #
b1 '
1!
#150
0!
#175
b101 ;
b101 b
b101 J"
b1010 _
b1010 a
b1010 w
b1010 e
b1000 m
19
17
1^
b10 `
b10 s
b10 ("
b0 3
b0 q
b0 0"
b0 b"
b0 2
b0 p
b0 /"
b0 a"
b101 R
b101 y
b101 I"
b101 W"
b101 T
b101 c
b101 R"
b100 -
b100 ."
b100 ?"
b100 `"
b0 _"
b11 r
b100 &"
b0 %"
b1010 )"
b100 +"
b0 *"
b10 ,"
b0 :
b0 t
b0 C"
b101 4
b101 M"
b101 P"
b101 U"
b101 ^"
b1 S
b1 $"
b1 S"
b1 U
b1 #"
b1 N"
b101001010000010110110011 ,
b101001010000010110110011 :"
b101001010000010110110011 @"
b10000 +
b10000 Z"
b10000 ["
b10000 /
b10000 o
b10000 Y"
b1000 B
b1000 n
b1000 <"
b10000000010010100000011 A
b10000000010010100000011 ="
b10000000010010100000011 >"
b1 Q
b1 h
b1 1"
1G
b1001 X
b1001 |
b1001 }
b1001 D"
0[
0Y
0V
b1000 =
b1000 ~
b1000 G"
b1000 ]"
b101 ?
b101 F"
b101 L"
1>
1<
b10000 )
b10000 l
b10000 X"
b1100 (
b1100 k
b1100 ;"
b1100 A"
b1100 \"
b100 #
1!
#200
0!
#225
b100 _
b100 a
b100 w
b100 e
b10100 m
09
07
01
0^
b0 `
b0 s
b0 ("
b100000000010011000000011 ,
b100000000010011000000011 :"
b100000000010011000000011 @"
b0 4
b0 M"
b0 P"
b0 U"
b0 ^"
b0 T
b0 c
b0 R"
b0 R
b0 y
b0 I"
b0 W"
b0 S
b0 $"
b0 S"
b0 U
b0 #"
b0 N"
b100 ;
b100 b
b100 J"
05
10
16
b10100 +
b10100 Z"
b10100 ["
b1010 -
b1010 ."
b1010 ?"
b1010 `"
b1010 _"
b110011 r
b1010 &"
b1010 %"
b1011 )"
b1010 +"
b1010 *"
b0 ,"
b10100 )
b10100 l
b10100 X"
b10000 (
b10000 k
b10000 ;"
b10000 A"
b10000 \"
b1001 =
b1001 ~
b1001 G"
b1001 ]"
b0 ?
b0 F"
b0 L"
0>
0<
b101 W
b101 u
b101 {
b1010 \
b1010 v
b1010 z
b1010 B"
b1010 Q"
b1010 V"
1V
b1010 L
b1010 x
b1010 '"
b1010 2"
b100 I
b100 !"
b100 5"
b0 K
b0 ""
b0 3"
b10 F
b10 g
b10 7"
b100 D
b100 9"
b100 H"
1P
b10 Q
b10 h
b10 1"
1O
1M
b100000 /
b100000 o
b100000 Y"
b1100 B
b1100 n
b1100 <"
b101001010000010110110011 A
b101001010000010110110011 ="
b101001010000010110110011 >"
b101 #
1!
#250
0!
#275
11
b1 `
b1 s
b1 ("
b1000 _
b1000 a
b1000 w
b1000 e
15
00
06
b100 T
b100 c
b100 R"
b100 R
b100 y
b100 I"
b100 W"
b110 :
b110 t
b110 C"
b1010 4
b1010 M"
b1010 P"
b1010 U"
b1010 ^"
b10 S
b10 $"
b10 S"
b10 U
b10 #"
b10 N"
b1011 L
b1011 x
b1011 '"
b1011 2"
b1010 I
b1010 !"
b1010 5"
b1010 K
b1010 ""
b1010 3"
b0 F
b0 g
b0 7"
b1010 D
b1010 9"
b1010 H"
0P
b0 Q
b0 h
b0 1"
0O
0M
0G
b1010 X
b1010 |
b1010 }
b1010 D"
b0 W
b0 u
b0 {
b100 \
b100 v
b100 z
b100 B"
b100 Q"
b100 V"
1[
1Y
b1010 @
b1010 E"
b1010 K"
1<
b110 #
b10 '
1!
#300
0!
#325
0.
b1100 _
b1100 a
b1100 w
b1100 e
b110 ;
b110 b
b110 J"
b10000 m
b101 2
b101 p
b101 /"
b101 a"
19
17
1^
b10 `
b10 s
b10 ("
b110001100000011010110011 ,
b110001100000011010110011 :"
b110001100000011010110011 @"
b110 4
b110 M"
b110 P"
b110 U"
b110 ^"
b110 T
b110 c
b110 R"
b110 R
b110 y
b110 I"
b110 W"
b0 :
b0 t
b0 C"
b1 S
b1 $"
b1 S"
b1 U
b1 #"
b1 N"
b11000 +
b11000 Z"
b11000 ["
b1000 -
b1000 ."
b1000 ?"
b1000 `"
b0 _"
b11 r
b1000 &"
b0 %"
b1100 )"
b1000 +"
b0 *"
b10 ,"
b11000 )
b11000 l
b11000 X"
b10100 (
b10100 k
b10100 ;"
b10100 A"
b10100 \"
b1010 =
b1010 ~
b1010 G"
b1010 ]"
b110 ?
b110 F"
b110 L"
b100 @
b100 E"
b100 K"
1>
b1011 X
b1011 |
b1011 }
b1011 D"
b100 W
b100 u
b100 {
b1000 \
b1000 v
b1000 z
b1000 B"
b1000 Q"
b1000 V"
0[
0Y
0V
b1 Q
b1 h
b1 1"
1G
b100000 /
b100000 o
b100000 Y"
b10000 B
b10000 n
b10000 <"
b100000000010011000000011 A
b100000000010011000000011 ="
b100000000010011000000011 >"
b111 #
1!
#350
0!
#375
1.
b11000 m
b0 2
b0 p
b0 /"
b0 a"
09
07
01
0^
b0 `
b0 s
b0 ("
05
10
16
b1000 _
b1000 a
b1000 w
b1000 e
b1100 -
b1100 ."
b1100 ?"
b1100 `"
b1100 _"
b110011 r
b1100 &"
b1100 %"
b1101 )"
b1100 +"
b1100 *"
b0 ,"
b1000 ;
b1000 b
b1000 J"
b0 T
b0 c
b0 R"
b101 R
b101 y
b101 I"
b101 W"
b1000 4
b1000 M"
b1000 P"
b1000 U"
b1000 ^"
b0 S
b0 $"
b0 S"
b0 U
b0 #"
b0 N"
b110000000010011100000011 ,
b110000000010011100000011 :"
b110000000010011100000011 @"
b11100 +
b11100 Z"
b11100 ["
b101100 /
b101100 o
b101100 Y"
b10100 B
b10100 n
b10100 <"
b110001100000011010110011 A
b110001100000011010110011 ="
b110001100000011010110011 >"
b1100 L
b1100 x
b1100 '"
b1100 2"
b1000 I
b1000 !"
b1000 5"
b0 K
b0 ""
b0 3"
b10 F
b10 g
b10 7"
b1000 D
b1000 9"
b1000 H"
b101 H
b101 6"
b101 T"
1P
b10 Q
b10 h
b10 1"
1O
1M
b110 W
b110 u
b110 {
b1100 \
b1100 v
b1100 z
b1100 B"
b1100 Q"
b1100 V"
1V
b1011 =
b1011 ~
b1011 G"
b1011 ]"
b0 ?
b0 F"
b0 L"
b1000 @
b1000 E"
b1000 K"
0>
0<
b11100 )
b11100 l
b11100 X"
b11000 (
b11000 k
b11000 ;"
b11000 A"
b11000 \"
b1000 #
1!
#400
0!
#425
b10000 _
b10000 a
b10000 w
b10000 e
11
b1 `
b1 s
b1 ("
b1100 4
b1100 M"
b1100 P"
b1100 U"
b1100 ^"
b1000 T
b1000 c
b1000 R"
b1010 :
b1010 t
b1010 C"
b10 S
b10 $"
b10 S"
b10 U
b10 #"
b10 N"
b1000 R
b1000 y
b1000 I"
b1000 W"
b1000 ;
b1000 b
b1000 J"
15
00
06
b1100 @
b1100 E"
b1100 K"
1<
b1100 X
b1100 |
b1100 }
b1100 D"
b101 W
b101 u
b101 {
b1000 \
b1000 v
b1000 z
b1000 B"
b1000 Q"
b1000 V"
1[
1Y
b1101 L
b1101 x
b1101 '"
b1101 2"
b1100 I
b1100 !"
b1100 5"
b1100 K
b1100 ""
b1100 3"
b0 F
b0 g
b0 7"
b1100 D
b1100 9"
b1100 H"
b0 H
b0 6"
b0 T"
0P
b0 Q
b0 h
b0 1"
0O
0M
0G
b1001 #
b11 '
1!
#450
0!
#475
0.
19
17
1^
b10 `
b10 s
b10 ("
b10100 _
b10100 a
b10100 w
b10100 e
b1010 ;
b1010 b
b1010 J"
b0 3
b0 q
b0 0"
b0 b"
b1010 2
b1010 p
b1010 /"
b1010 a"
b0 _"
b11 r
b0 %"
b1110 )"
b0 *"
b10 ,"
b1010 T
b1010 c
b1010 R"
b1010 R
b1010 y
b1010 I"
b1010 W"
b0 :
b0 t
b0 C"
b1 S
b1 $"
b1 S"
b1 U
b1 #"
b1 N"
b1010 4
b1010 M"
b1010 P"
b1010 U"
b1010 ^"
b111001110000011110110011 ,
b111001110000011110110011 :"
b111001110000011110110011 @"
b100000 +
b100000 Z"
b100000 ["
b110000 /
b110000 o
b110000 Y"
b11000 B
b11000 n
b11000 <"
b110000000010011100000011 A
b110000000010011100000011 ="
b110000000010011100000011 >"
b1 Q
b1 h
b1 1"
1G
b1101 X
b1101 |
b1101 }
b1101 D"
b1000 W
b1000 u
b1000 {
b10000 \
b10000 v
b10000 z
b10000 B"
b10000 Q"
b10000 V"
0[
0Y
0V
b1100 =
b1100 ~
b1100 G"
b1100 ]"
b1010 ?
b1010 F"
b1010 L"
b1000 @
b1000 E"
b1000 K"
1>
b100000 )
b100000 l
b100000 X"
b11100 (
b11100 k
b11100 ;"
b11100 A"
b11100 \"
b1010 #
1!
#500
0!
#525
1.
b0 2
b0 p
b0 /"
b0 a"
b1100 _
b1100 a
b1100 w
b1100 e
b11100 m
09
07
01
0^
b0 `
b0 s
b0 ("
b1110011000000100000110011 ,
b1110011000000100000110011 :"
b1110011000000100000110011 @"
b10000 4
b10000 M"
b10000 P"
b10000 U"
b10000 ^"
b0 T
b0 c
b0 R"
b0 S
b0 $"
b0 S"
b0 U
b0 #"
b0 N"
b1100 ;
b1100 b
b1100 J"
05
10
16
b100100 +
b100100 Z"
b100100 ["
b1110 -
b1110 ."
b1110 ?"
b1110 `"
b1110 _"
b110011 r
b1110 &"
b1110 %"
b1111 )"
b1110 +"
b1110 *"
b0 ,"
b100100 )
b100100 l
b100100 X"
b100000 (
b100000 k
b100000 ;"
b100000 A"
b100000 \"
b1101 =
b1101 ~
b1101 G"
b1101 ]"
b0 ?
b0 F"
b0 L"
b10000 @
b10000 E"
b10000 K"
0>
0<
b1010 W
b1010 u
b1010 {
b10100 \
b10100 v
b10100 z
b10100 B"
b10100 Q"
b10100 V"
1V
b1110 L
b1110 x
b1110 '"
b1110 2"
b0 K
b0 ""
b0 3"
b10 F
b10 g
b10 7"
b1010 H
b1010 6"
b1010 T"
1P
b10 Q
b10 h
b10 1"
1O
1M
b111000 /
b111000 o
b111000 Y"
b11100 B
b11100 n
b11100 <"
b111001110000011110110011 A
b111001110000011110110011 ="
b111001110000011110110011 >"
b1011 #
1!
#550
0!
#575
11
b1 `
b1 s
b1 ("
b10010 :
b10010 t
b10010 C"
b11000 _
b11000 a
b11000 w
b11000 e
15
00
06
b1100 T
b1100 c
b1100 R"
b1100 R
b1100 y
b1100 I"
b1100 W"
b10100 4
b10100 M"
b10100 P"
b10100 U"
b10100 ^"
b10 S
b10 $"
b10 S"
b10 U
b10 #"
b10 N"
b1111 L
b1111 x
b1111 '"
b1111 2"
b1110 I
b1110 !"
b1110 5"
b1110 K
b1110 ""
b1110 3"
b0 F
b0 g
b0 7"
b1110 D
b1110 9"
b1110 H"
b0 H
b0 6"
b0 T"
0P
b0 Q
b0 h
b0 1"
0O
0M
0G
b1110 X
b1110 |
b1110 }
b1110 D"
b1100 \
b1100 v
b1100 z
b1100 B"
b1100 Q"
b1100 V"
1[
1Y
b10100 @
b10100 E"
b10100 K"
1<
b1100 #
b100 '
1!
#600
0!
#625
0.
b100100 _
b100100 a
b100100 w
b100100 e
b10010 ;
b10010 b
b10010 J"
b111000 m
b111000 2
b111000 p
b111000 /"
b111000 a"
b11111111111111111111111111101000 3
b11111111111111111111111111101000 q
b11111111111111111111111111101000 0"
b11111111111111111111111111101000 b"
b1110111001000100010110011 ,
b1110111001000100010110011 :"
b1110111001000100010110011 @"
b10010 4
b10010 M"
b10010 P"
b10010 U"
b10010 ^"
b10010 T
b10010 c
b10010 R"
b10010 R
b10010 y
b10010 I"
b10010 W"
b0 :
b0 t
b0 C"
b1 S
b1 $"
b1 S"
b1 U
b1 #"
b1 N"
b101000 +
b101000 Z"
b101000 ["
b11100 -
b11100 ."
b11100 ?"
b11100 `"
b11000 _"
b11100 &"
b11000 %"
b10000 )"
b11100 +"
b11000 *"
b101000 )
b101000 l
b101000 X"
b100100 (
b100100 k
b100100 ;"
b100100 A"
b100100 \"
b1110 =
b1110 ~
b1110 G"
b1110 ]"
b10010 ?
b10010 F"
b10010 L"
b1100 @
b1100 E"
b1100 K"
1>
b1111 X
b1111 |
b1111 }
b1111 D"
b1100 W
b1100 u
b1100 {
b11000 \
b11000 v
b11000 z
b11000 B"
b11000 Q"
b11000 V"
0[
0Y
0V
b1 Q
b1 h
b1 1"
1G
b1011000 /
b1011000 o
b1011000 Y"
b100000 B
b100000 n
b100000 <"
b1110011000000100000110011 A
b1110011000000100000110011 ="
b1110011000000100000110011 >"
b1101 #
1!
#650
0!
#675
b111010 m
b111010 2
b111010 p
b111010 /"
b111010 a"
b11111111111111111111111111100111 3
b11111111111111111111111111100111 q
b11111111111111111111111111100111 0"
b11111111111111111111111111100111 b"
b100000 _
b100000 a
b100000 w
b100000 e
b11101 -
b11101 ."
b11101 ?"
b11101 `"
b11001 _"
b11101 &"
b11001 %"
b10001 )"
b11101 +"
b11001 *"
b111000 ;
b111000 b
b111000 J"
b11111111111111111111111111101000 T
b11111111111111111111111111101000 c
b11111111111111111111111111101000 R"
b111000 R
b111000 y
b111000 I"
b111000 W"
b11000 4
b11000 M"
b11000 P"
b11000 U"
b11000 ^"
b0 S
b0 $"
b0 S"
b0 U
b0 #"
b0 N"
b1111011010000100100110011 ,
b1111011010000100100110011 :"
b1111011010000100100110011 @"
b101100 +
b101100 Z"
b101100 ["
b1011110 /
b1011110 o
b1011110 Y"
b100100 B
b100100 n
b100100 <"
b1110111001000100010110011 A
b1110111001000100010110011 ="
b1110111001000100010110011 >"
b10000 L
b10000 x
b10000 '"
b10000 2"
b11100 I
b11100 !"
b11100 5"
b11000 K
b11000 ""
b11000 3"
b11100 D
b11100 9"
b11100 H"
b111000 H
b111000 6"
b111000 T"
b11111111111111111111111111101000 J
b11111111111111111111111111101000 4"
b11111111111111111111111111101000 O"
b10010 W
b10010 u
b10010 {
b100100 \
b100100 v
b100100 z
b100100 B"
b100100 Q"
b100100 V"
1V
b1111 =
b1111 ~
b1111 G"
b1111 ]"
b0 ?
b0 F"
b0 L"
b11000 @
b11000 E"
b11000 K"
0>
0<
b101100 )
b101100 l
b101100 X"
b101000 (
b101000 k
b101000 ;"
b101000 A"
b101000 \"
b1110 #
1!
#700
0!
