lab2/lab2/log/waveform_4.vcd
$date
	Sat Nov 18 12:05:38 2023
$end
$version
	Icarus Verilog
$end
$timescale
	1s
$end
$scope module TestBench $end
$var reg 1 ! Clk $end
$var reg 1 " Reset $end
$var integer 32 # counter [31:0] $end
$var integer 32 $ flush [31:0] $end
$var integer 32 % i [31:0] $end
$var integer 32 & outfile [31:0] $end
$var integer 32 ' stall [31:0] $end
$scope module CPU $end
$var wire 1 ! clk_i $end
$var wire 1 " rst_i $end
$var wire 32 ( pc_o [31:0] $end
$var wire 32 ) pc_i [31:0] $end
$var wire 3 * operation [2:0] $end
$var wire 32 + muxPCResult [31:0] $end
$var wire 32 , instr [31:0] $end
$var wire 32 - immediate [31:0] $end
$var wire 1 . equal $end
$var wire 32 / branchAddr [31:0] $end
$var wire 1 0 Stall $end
$var wire 1 1 RegWrite $end
$var wire 32 2 RS2data [31:0] $end
$var wire 32 3 RS1data [31:0] $end
$var wire 32 4 RDdata [31:0] $end
$var wire 1 5 PCWrite $end
$var wire 1 6 NoOp $end
$var wire 1 7 MemtoReg $end
$var wire 1 8 MemWrite $end
$var wire 1 9 MemRead $end
$var wire 32 : MemData [31:0] $end
$var wire 32 ; MUXResult [31:0] $end
$var wire 1 < MEM_WB_RegWrite $end
$var wire 5 = MEM_WB_RDaddr [4:0] $end
$var wire 1 > MEM_WB_MemtoReg $end
$var wire 32 ? MEM_WB_MemData [31:0] $end
$var wire 32 @ MEM_WB_ALUResult [31:0] $end
$var wire 32 A IF_ID_instr [31:0] $end
$var wire 32 B IF_ID_PC [31:0] $end
$var wire 1 C ID_FlushIF $end
$var wire 32 D ID_EX_immediate [31:0] $end
$var wire 7 E ID_EX_func7 [6:0] $end
$var wire 3 F ID_EX_func3 [2:0] $end
$var wire 1 G ID_EX_RegWrite $end
$var wire 32 H ID_EX_RS2data [31:0] $end
$var wire 5 I ID_EX_RS2addr [4:0] $end
$var wire 32 J ID_EX_RS1data [31:0] $end
$var wire 5 K ID_EX_RS1addr [4:0] $end
$var wire 5 L ID_EX_RDaddr [4:0] $end
$var wire 1 M ID_EX_MemtoReg $end
$var wire 1 N ID_EX_MemWrite $end
$var wire 1 O ID_EX_MemRead $end
$var wire 1 P ID_EX_ALUSrc $end
$var wire 2 Q ID_EX_ALUOp [1:0] $end
$var wire 32 R ForwardBData [31:0] $end
$var wire 2 S ForwardB [1:0] $end
$var wire 32 T ForwardAData [31:0] $end
$var wire 2 U ForwardA [1:0] $end
$var wire 1 V EX_MEM_RegWrite $end
$var wire 32 W EX_MEM_RS2data [31:0] $end
$var wire 5 X EX_MEM_RDaddr [4:0] $end
$var wire 1 Y EX_MEM_MemtoReg $end
$var wire 1 Z EX_MEM_MemWrite $end
$var wire 1 [ EX_MEM_MemRead $end
$var wire 32 \ EX_MEM_ALUResult [31:0] $end
$var wire 1 ] Branch $end
$var wire 1 ^ ALUSrc $end
$var wire 32 _ ALUResult [31:0] $end
$var wire 2 ` ALUOp [1:0] $end
$scope module ALU $end
$var wire 32 a ALUResult_o [31:0] $end
$var wire 32 b src2_i [31:0] $end
$var wire 32 c src1_i [31:0] $end
$var wire 3 d op_i [2:0] $end
$var reg 32 e tmpResult [31:0] $end
$upscope $end
$scope module ALU_Control $end
$var wire 7 f funct7_i [31:25] $end
$var wire 3 g funct3_i [14:12] $end
$var wire 2 h ALUOp_i [1:0] $end
$var reg 3 i op_o [2:0] $end
$upscope $end
$scope module Add $end
$var wire 32 j src2_i [31:0] $end
$var wire 32 k src1_i [31:0] $end
$var wire 32 l adder_o [31:0] $end
$upscope $end
$scope module Add2 $end
$var wire 32 m src1_i [31:0] $end
$var wire 32 n src2_i [31:0] $end
$var wire 32 o adder_o [31:0] $end
$upscope $end
$scope module Branch_Detection $end
$var wire 32 p src2_i [31:0] $end
$var wire 32 q src1_i [31:0] $end
$var wire 1 ] Branch_i $end
$var reg 1 C flush_o $end
$var reg 1 . is_equal_o $end
$upscope $end
$scope module Control $end
$var wire 7 r opcode_i [6:0] $end
$var wire 1 6 NoOp_i $end
$var reg 2 s ALUOp_o [1:0] $end
$var reg 1 ^ ALUSrc_o $end
$var reg 1 ] Branch_o $end
$var reg 1 9 MemRead_o $end
$var reg 1 8 MemWrite_o $end
$var reg 1 7 MemtoReg_o $end
$var reg 1 1 RegWrite_o $end
$upscope $end
$scope module Data_Memory $end
$var wire 1 ! clk_i $end
$var wire 32 t data_o [31:0] $end
$var wire 32 u data_i [31:0] $end
$var wire 32 v addr_i [31:0] $end
$var wire 1 Z MemWrite_i $end
$var wire 1 [ MemRead_i $end
$upscope $end
$scope module EX_MEM_Register $end
$var wire 32 w ALUResult_i [31:0] $end
$var wire 1 ! clk_i $end
$var wire 1 " rst_i $end
$var wire 1 G RegWrite_i $end
$var wire 5 x RDaddr_i [4:0] $end
$var wire 1 M MemtoReg_i $end
$var wire 1 N MemWrite_i $end
$var wire 1 O MemRead_i $end
$var wire 32 y ForwardBData_i [31:0] $end
$var reg 32 z ALUResult_o [31:0] $end
$var reg 32 { ForwardBData_o [31:0] $end
$var reg 1 [ MemRead_o $end
$var reg 1 Z MemWrite_o $end
$var reg 1 Y MemtoReg_o $end
$var reg 5 | RDaddr_o [4:0] $end
$var reg 1 V RegWrite_o $end
$upscope $end
$scope module Forwarding $end
$var wire 5 } EX_MEM_RDaddr_i [4:0] $end
$var wire 1 V EX_MEM_RegWrite_i $end
$var wire 1 < MEM_WB_RegWrite_i $end
$var wire 5 ~ MEM_WB_RDaddr_i [4:0] $end
$var wire 5 !" ID_EX_RS2addr_i [4:0] $end
$var wire 5 "" ID_EX_RS1addr_i [4:0] $end
$var reg 2 #" ForwardA_o [1:0] $end
$var reg 2 $" ForwardB_o [1:0] $end
$upscope $end
$scope module Hazard_Detection $end
$var wire 5 %" RS1addr_i [4:0] $end
$var wire 5 &" RS2addr_i [4:0] $end
$var wire 1 " rst_i $end
$var wire 5 '" ID_EX_RDaddr_i [4:0] $end
$var wire 1 O ID_EX_MemRead_i $end
$var reg 1 6 NoOp_o $end
$var reg 1 5 PCWrite_o $end
$var reg 1 0 Stall_o $end
$upscope $end
$scope module ID_EX_Register $end
$var wire 2 (" ALUOp_i [1:0] $end
$var wire 1 ^ ALUSrc_i $end
$var wire 1 9 MemRead_i $end
$var wire 1 8 MemWrite_i $end
$var wire 1 7 MemtoReg_i $end
$var wire 5 )" RDaddr_i [4:0] $end
$var wire 5 *" RS1addr_i [4:0] $end
$var wire 5 +" RS2addr_i [4:0] $end
$var wire 1 1 RegWrite_i $end
$var wire 1 ! clk_i $end
$var wire 3 ," func3_i [2:0] $end
$var wire 7 -" func7_i [6:0] $end
$var wire 1 " rst_i $end
$var wire 32 ." immediate_i [31:0] $end
$var wire 32 /" RS2data_i [31:0] $end
$var wire 32 0" RS1data_i [31:0] $end
$var reg 2 1" ALUOp_o [1:0] $end
$var reg 1 P ALUSrc_o $end
$var reg 1 O MemRead_o $end
$var reg 1 N MemWrite_o $end
$var reg 1 M MemtoReg_o $end
$var reg 5 2" RDaddr_o [4:0] $end
$var reg 5 3" RS1addr_o [4:0] $end
$var reg 32 4" RS1data_o [31:0] $end
$var reg 5 5" RS2addr_o [4:0] $end
$var reg 32 6" RS2data_o [31:0] $end
$var reg 1 G RegWrite_o $end
$var reg 3 7" func3_o [2:0] $end
$var reg 7 8" func7_o [6:0] $end
$var reg 32 9" immediate_o [31:0] $end
$upscope $end
$scope module IF_ID_Register $end
$var wire 1 C ID_FlushIF_i $end
$var wire 1 0 Stall_i $end
$var wire 1 ! clk_i $end
$var wire 1 " rst_i $end
$var wire 32 :" instr_i [31:0] $end
$var wire 32 ;" PC_i [31:0] $end
$var reg 32 <" PC_o [31:0] $end
$var reg 32 =" instr_o [31:0] $end
$upscope $end
$scope module Imm_Gen $end
$var wire 32 >" instr_i [31:0] $end
$var reg 32 ?" imm_o [31:0] $end
$upscope $end
$scope module Instruction_Memory $end
$var wire 32 @" instr_o [31:0] $end
$var wire 32 A" addr_i [31:0] $end
$upscope $end
$scope module MEM_WB_Register $end
$var wire 32 B" ALUResult_i [31:0] $end
$var wire 32 C" MemData_i [31:0] $end
$var wire 1 Y MemtoReg_i $end
$var wire 5 D" RDaddr_i [4:0] $end
$var wire 1 V RegWrite_i $end
$var wire 1 ! clk_i $end
$var wire 1 " rst_i $end
$var reg 32 E" ALUResult_o [31:0] $end
$var reg 32 F" MemData_o [31:0] $end
$var reg 1 > MemtoReg_o $end
$var reg 5 G" RDaddr_o [4:0] $end
$var reg 1 < RegWrite_o $end
$upscope $end
$scope module MUX $end
$var wire 1 P sel $end
$var wire 32 H" src2_i [31:0] $end
$var wire 32 I" src1_i [31:0] $end
$var reg 32 J" mux_o [31:0] $end
$upscope $end
$scope module MUX2 $end
$var wire 1 > sel $end
$var wire 32 K" src1_i [31:0] $end
$var wire 32 L" src2_i [31:0] $end
$var reg 32 M" mux_o [31:0] $end
$upscope $end
$scope module MUX32_ForwardA $end
$var wire 2 N" sel [1:0] $end
$var wire 32 O" src1_i [31:0] $end
$var wire 32 P" src2_i [31:0] $end
$var wire 32 Q" src3_i [31:0] $end
$var reg 32 R" mux_o [31:0] $end
$upscope $end
$scope module MUX32_ForwardB $end
$var wire 2 S" sel [1:0] $end
$var wire 32 T" src1_i [31:0] $end
$var wire 32 U" src2_i [31:0] $end
$var wire 32 V" src3_i [31:0] $end
$var reg 32 W" mux_o [31:0] $end
$upscope $end
$scope module MUX32_PC $end
$var wire 1 C sel $end
$var wire 32 X" src1_i [31:0] $end
$var wire 32 Y" src2_i [31:0] $end
$var reg 32 Z" mux_o [31:0] $end
$upscope $end
$scope module PC $end
$var wire 1 5 PCWrite_i $end
$var wire 1 ! clk_i $end
$var wire 32 [" pc_i [31:0] $end
$var wire 1 " rst_i $end
$var reg 32 \" pc_o [31:0] $end
$upscope $end
$scope module Registers $end
$var wire 5 ]" RDaddr_i [4:0] $end
$var wire 32 ^" RDdata_i [31:0] $end
$var wire 5 _" RS1addr_i [4:0] $end
$var wire 5 `" RS2addr_i [4:0] $end
$var wire 1 < RegWrite_i $end
$var wire 1 ! clk_i $end
$var wire 1 " rst_i $end
$var wire 32 a" RS2data_o [31:0] $end
$var wire 32 b" RS1data_o [31:0] $end
$var integer 32 c" i [31:0] $end
$upscope $end
$upscope $end
$upscope $end
$enddefinitions $end
#0
$dumpvars
bx c"
bx b"
bx a"
bx `"
bx _"
bx ^"
bx ]"
bx \"
bx ["
bx Z"
bx Y"
bx X"
bx W"
bx V"
bx U"
bx T"
bx S"
bx R"
bx Q"
bx P"
bx O"
bx N"
bx M"
bx L"
bx K"
bx J"
bx I"
bx H"
bx G"
bx F"
bx E"
bx D"
bx C"
bx B"
bx A"
bx @"
bx ?"
bx >"
bx ="
bx <"
bx ;"
bx :"
bx 9"
bx 8"
bx 7"
bx 6"
bx 5"
bx 4"
bx 3"
bx 2"
bx 1"
bx 0"
bx /"
bx ."
bx -"
bx ,"
bx +"
bx *"
bx )"
b0 ("
bx '"
bx &"
bx %"
bx $"
bx #"
bx ""
bx !"
bx ~
bx }
bx |
bx {
bx z
bx y
bx x
bx w
bx v
bx u
bx t
b0 s
bx r
bx q
bx p
bx o
bx n
bx0 m
bx l
bx k
b100 j
bx i
bx h
bx g
bx f
bx e
bx d
bx c
bx b
bx a
b0 `
bx _
0^
0]
bx \
x[
xZ
xY
bx X
bx W
xV
bx U
bx T
bx S
bx R
bx Q
xP
xO
xN
xM
bx L
bx K
bx J
bx I
bx H
xG
bx F
bx E
bx D
0C
bx B
bx A
bx @
bx ?
x>
bx =
x<
bx ;
bx :
09
08
07
06
15
bx 4
bx 3
bx 2
01
00
bx /
0.
bx -
bx ,
bx +
bx *
bx )
bx (
b0 '
b11 &
b100000 %
b0 $
b0 #
1"
0!
$end
#6
1.
b0 /
b0 o
b0 Y"
b0 m
b0 _
b0 a
b0 w
b0 e
b0 3
b0 q
b0 0"
b0 b"
b0 2
b0 p
b0 /"
b0 a"
b0 -
b0 ."
b0 ?"
b0 `"
b0 _"
b0 r
b0 &"
b0 %"
b0 )"
b0 +"
b0 *"
b0 ,"
b0 -"
b0 ;
b0 b
b0 J"
b11 *
b11 d
b11 i
b0 T
b0 c
b0 R"
b0 R
b0 y
b0 I"
b0 W"
b0 :
b0 t
b0 C"
b0 4
b0 M"
b0 P"
b0 U"
b0 ^"
b0 S
b0 $"
b0 S"
b0 U
b0 #"
b0 N"
b110000010011 ,
b110000010011 :"
b110000010011 @"
b100 +
b100 Z"
b100 ["
b0 B
b0 n
b0 <"
b0 A
b0 ="
b0 >"
b0 L
b0 x
b0 '"
b0 2"
b0 I
b0 !"
b0 5"
b0 K
b0 ""
b0 3"
b0 F
b0 g
b0 7"
b0 E
b0 f
b0 8"
b0 D
b0 9"
b0 H"
b0 H
b0 6"
b0 T"
b0 J
b0 4"
b0 O"
0P
b0 Q
b0 h
b0 1"
0N
0O
0M
0G
b0 X
b0 |
b0 }
b0 D"
b0 W
b0 u
b0 {
b0 \
b0 v
b0 z
b0 B"
b0 Q"
b0 V"
0Z
0[
0Y
0V
b0 =
b0 ~
b0 G"
b0 ]"
b0 ?
b0 F"
b0 L"
b0 @
b0 E"
b0 K"
0>
0<
b100 )
b100 l
b100 X"
b0 (
b0 k
b0 ;"
b0 A"
b0 \"
b100000 c"
0"
#12
1"
#25
11
1^
b10000000000110100010011 ,
b10000000000110100010011 :"
b10000000000110100010011 @"
b1000 +
b1000 Z"
b1000 ["
b10011 r
b11000 )"
b1000 )
b1000 l
b1000 X"
b100 (
b100 k
b100 ;"
b100 A"
b100 \"
b110000010011 A
b110000010011 ="
b110000010011 >"
b1 #
1!
#50
0!
#75
b1000 m
b100 -
b100 ."
b100 ?"
b100 `"
b100 &"
b11010 )"
b100 +"
b10000000000111000010011 ,
b10000000000111000010011 :"
b10000000000111000010011 @"
b1100 +
b1100 Z"
b1100 ["
b1100 /
b1100 o
b1100 Y"
b100 B
b100 n
b100 <"
b10000000000110100010011 A
b10000000000110100010011 ="
b10000000000110100010011 >"
b11000 L
b11000 x
b11000 '"
b11000 2"
1P
1G
b1100 )
b1100 l
b1100 X"
b1000 (
b1000 k
b1000 ;"
b1000 A"
b1000 \"
b10 #
1!
#100
0!
#125
b100 _
b100 a
b100 w
b100 e
b11111111111100000000011110010011 ,
b11111111111100000000011110010011 :"
b11111111111100000000011110010011 @"
b100 ;
b100 b
b100 J"
b10000 +
b10000 Z"
b10000 ["
b11100 )"
b10000 )
b10000 l
b10000 X"
b1100 (
b1100 k
b1100 ;"
b1100 A"
b1100 \"
b11000 X
b11000 |
b11000 }
b11000 D"
1V
b11010 L
b11010 x
b11010 '"
b11010 2"
b100 I
b100 !"
b100 5"
b100 D
b100 9"
b100 H"
b10000 /
b10000 o
b10000 Y"
b1000 B
b1000 n
b1000 <"
b10000000000111000010011 A
b10000000000111000010011 ="
b10000000000111000010011 >"
b11 #
1!
#150
0!
#175
0.
b11111111111111111111111111111110 m
b111110 2
b111110 p
b111110 /"
b111110 a"
b11111111111111111111111111111111 -
b11111111111111111111111111111111 ."
b11111111111111111111111111111111 ?"
b11111 `"
b11111 &"
b1111 )"
b11111 +"
b1111111 -"
b11110011010000110010110011 ,
b11110011010000110010110011 :"
b11110011010000110010110011 @"
b10100 +
b10100 Z"
b10100 ["
b1010 /
b1010 o
b1010 Y"
b1100 B
b1100 n
b1100 <"
b11111111111100000000011110010011 A
b11111111111100000000011110010011 ="
b11111111111100000000011110010011 >"
b11100 L
b11100 x
b11100 '"
b11100 2"
b11010 X
b11010 |
b11010 }
b11010 D"
b100 \
b100 v
b100 z
b100 B"
b100 Q"
b100 V"
b11000 =
b11000 ~
b11000 G"
b11000 ]"
1<
b10100 )
b10100 l
b10100 X"
b10000 (
b10000 k
b10000 ;"
b10000 A"
b10000 \"
b100 #
1!
#200
0!
#225
b11111111111111111111111111111111 _
b11111111111111111111111111111111 a
b11111111111111111111111111111111 w
b11111111111111111111111111111111 e
b1111000 m
b111000 2
b111000 p
b111000 /"
b111000 a"
b100 3
b100 q
b100 0"
b100 b"
0^
b1 `
b1 s
b1 ("
b11111111111111010000110100010011 ,
b11111111111111010000110100010011 :"
b11111111111111010000110100010011 @"
b100 4
b100 M"
b100 P"
b100 U"
b100 ^"
b11111111111111111111111111111111 ;
b11111111111111111111111111111111 b
b11111111111111111111111111111111 J"
b111110 R
b111110 y
b111110 I"
b111110 W"
b11000 +
b11000 Z"
b11000 ["
b111100 -
b111100 ."
b111100 ?"
b11100 `"
b11010 _"
b110011 r
b11100 &"
b11010 %"
b11001 )"
b11100 +"
b11010 *"
b1 -"
b11000 )
b11000 l
b11000 X"
b10100 (
b10100 k
b10100 ;"
b10100 A"
b10100 \"
b11010 =
b11010 ~
b11010 G"
b11010 ]"
b100 @
b100 E"
b100 K"
b11100 X
b11100 |
b11100 }
b11100 D"
b1111 L
b1111 x
b1111 '"
b1111 2"
b11111 I
b11111 !"
b11111 5"
b1111111 E
b1111111 f
b1111111 8"
b11111111111111111111111111111111 D
b11111111111111111111111111111111 9"
b11111111111111111111111111111111 H"
b111110 H
b111110 6"
b111110 T"
b10001000 /
b10001000 o
b10001000 Y"
b10000 B
b10000 n
b10000 <"
b11110011010000110010110011 A
b11110011010000110010110011 ="
b11110011010000110010110011 >"
b101 #
1!
#250
0!
#275
0.
b11111111111111111111111111111110 m
1^
b0 `
b0 s
b0 ("
b10000 _
b10000 a
b10000 w
b10000 e
b111110 2
b111110 p
b111110 /"
b111110 a"
b11111111111111111111111111111111 -
b11111111111111111111111111111111 ."
b11111111111111111111111111111111 ?"
b11111 `"
b10011 r
b11111 &"
b11010 )"
b11111 +"
b1111111 -"
b100 ;
b100 b
b100 J"
b101 *
b101 d
b101 i
b100 T
b100 c
b100 R"
b100 R
b100 y
b100 I"
b100 W"
b1 S
b1 $"
b1 S"
b11001010110110000011 ,
b11001010110110000011 :"
b11001010110110000011 @"
b11100 +
b11100 Z"
b11100 ["
b10010 /
b10010 o
b10010 Y"
b10100 B
b10100 n
b10100 <"
b11111111111111010000110100010011 A
b11111111111111010000110100010011 ="
b11111111111111010000110100010011 >"
b11001 L
b11001 x
b11001 '"
b11001 2"
b11100 I
b11100 !"
b11100 5"
b11010 K
b11010 ""
b11010 3"
b1 E
b1 f
b1 8"
b111100 D
b111100 9"
b111100 H"
b111000 H
b111000 6"
b111000 T"
b100 J
b100 4"
b100 O"
0P
b1 Q
b1 h
b1 1"
b1111 X
b1111 |
b1111 }
b1111 D"
b111110 W
b111110 u
b111110 {
b11111111111111111111111111111111 \
b11111111111111111111111111111111 v
b11111111111111111111111111111111 z
b11111111111111111111111111111111 B"
b11111111111111111111111111111111 Q"
b11111111111111111111111111111111 V"
b11100 =
b11100 ~
b11100 G"
b11100 ]"
b11100 )
b11100 l
b11100 X"
b11000 (
b11000 k
b11000 ;"
b11000 A"
b11000 \"
b110 #
1!
#300
0!
#325
b111110 R
b111110 y
b111110 I"
b111110 W"
b11 _
b11 a
b11 w
b11 e
b0 m
b0 2
b0 p
b0 /"
b0 a"
b11111111111111111111111111100111 3
b11111111111111111111111111100111 q
b11111111111111111111111111100111 0"
b11111111111111111111111111100111 b"
19
17
b10 `
b10 s
b10 ("
b1101111000000110000110011 ,
b1101111000000110000110011 :"
b1101111000000110000110011 @"
b11111111111111111111111111111111 4
b11111111111111111111111111111111 M"
b11111111111111111111111111111111 P"
b11111111111111111111111111111111 U"
b11111111111111111111111111111111 ^"
b0 S
b0 $"
b0 S"
b11111111111111111111111111111111 ;
b11111111111111111111111111111111 b
b11111111111111111111111111111111 J"
b11 *
b11 d
b11 i
b100000 +
b100000 Z"
b100000 ["
b0 -
b0 ."
b0 ?"
b0 `"
b11001 _"
b11 r
b0 &"
b11001 %"
b11011 )"
b0 +"
b11001 *"
b10 ,"
b0 -"
b100000 )
b100000 l
b100000 X"
b11100 (
b11100 k
b11100 ;"
b11100 A"
b11100 \"
b1111 =
b1111 ~
b1111 G"
b1111 ]"
b11111111111111111111111111111111 @
b11111111111111111111111111111111 E"
b11111111111111111111111111111111 K"
b11001 X
b11001 |
b11001 }
b11001 D"
b100 W
b100 u
b100 {
b10000 \
b10000 v
b10000 z
b10000 B"
b10000 Q"
b10000 V"
b11010 L
b11010 x
b11010 '"
b11010 2"
b11111 I
b11111 !"
b11111 5"
b1111111 E
b1111111 f
b1111111 8"
b11111111111111111111111111111111 D
b11111111111111111111111111111111 9"
b11111111111111111111111111111111 H"
b111110 H
b111110 6"
b111110 T"
1P
b0 Q
b0 h
b0 1"
b11000 /
b11000 o
b11000 Y"
b11000 B
b11000 n
b11000 <"
b11001010110110000011 A
b11001010110110000011 ="
b11001010110110000011 >"
b111 #
1!
#350
0!
#375
b110110 m
b11111111111111111111111111100101 2
b11111111111111111111111111100101 p
b11111111111111111111111111100101 /"
b11111111111111111111111111100101 a"
09
07
01
0^
b0 `
b0 s
b0 ("
05
10
16
b10000 _
b10000 a
b10000 w
b10000 e
b0 3
b0 q
b0 0"
b0 b"
b11011 -
b11011 ."
b11011 ?"
b11011 `"
b11000 _"
b110011 r
b11011 &"
b11000 %"
b11000 )"
b11011 +"
b11000 *"
b0 ,"
b0 ;
b0 b
b0 J"
b10000 T
b10000 c
b10000 R"
b0 R
b0 y
b0 I"
b0 W"
b1 U
b1 #"
b1 N"
b10000 4
b10000 M"
b10000 P"
b10000 U"
b10000 ^"
b111111010000010001100011 ,
b111111010000010001100011 :"
b111111010000010001100011 @"
b100100 +
b100100 Z"
b100100 ["
b1010010 /
b1010010 o
b1010010 Y"
b11100 B
b11100 n
b11100 <"
b1101111000000110000110011 A
b1101111000000110000110011 ="
b1101111000000110000110011 >"
b11011 L
b11011 x
b11011 '"
b11011 2"
b0 I
b0 !"
b0 5"
b11001 K
b11001 ""
b11001 3"
b10 F
b10 g
b10 7"
b0 E
b0 f
b0 8"
b0 D
b0 9"
b0 H"
b0 H
b0 6"
b0 T"
b11111111111111111111111111100111 J
b11111111111111111111111111100111 4"
b11111111111111111111111111100111 O"
b10 Q
b10 h
b10 1"
1O
1M
b11010 X
b11010 |
b11010 }
b11010 D"
b111110 W
b111110 u
b111110 {
b11 \
b11 v
b11 z
b11 B"
b11 Q"
b11 V"
b11001 =
b11001 ~
b11001 G"
b11001 ]"
b10000 @
b10000 E"
b10000 K"
b100100 )
b100100 l
b100100 X"
b100000 (
b100000 k
b100000 ;"
b100000 A"
b100000 \"
b1000 #
1!
#400
0!
#425
b10000 _
b10000 a
b10000 w
b10000 e
b0 T
b0 c
b0 R"
b10000 ;
b10000 b
b10000 J"
11
b1 `
b1 s
b1 ("
b11 4
b11 M"
b11 P"
b11 U"
b11 ^"
b11101 :
b11101 t
b11101 C"
b10 S
b10 $"
b10 S"
b0 U
b0 #"
b0 N"
b10000 R
b10000 y
b10000 I"
b10000 W"
15
00
06
b11010 =
b11010 ~
b11010 G"
b11010 ]"
b11 @
b11 E"
b11 K"
b11011 X
b11011 |
b11011 }
b11011 D"
b0 W
b0 u
b0 {
b10000 \
b10000 v
b10000 z
b10000 B"
b10000 Q"
b10000 V"
1[
1Y
b11000 L
b11000 x
b11000 '"
b11000 2"
b11011 I
b11011 !"
b11011 5"
b11000 K
b11000 ""
b11000 3"
b0 F
b0 g
b0 7"
b11011 D
b11011 9"
b11011 H"
b11111111111111111111111111100101 H
b11111111111111111111111111100101 6"
b11111111111111111111111111100101 T"
b0 J
b0 4"
b0 O"
0P
b0 Q
b0 h
b0 1"
0O
0M
0G
b1001 #
b1 '
1!
#450
0!
#475
b11101 _
b11101 a
b11101 w
b11101 e
b11101 ;
b11101 b
b11101 J"
b1000 m
b11 3
b11 q
b11 0"
b11 b"
1]
01
b11 `
b11 s
b11 ("
b11111111111111111111111111111111 2
b11111111111111111111111111111111 p
b11111111111111111111111111111111 /"
b11111111111111111111111111111111 a"
b11101 R
b11101 y
b11101 I"
b11101 W"
b100 -
b100 ."
b100 ?"
b1111 `"
b11010 _"
b1100011 r
b1111 &"
b11010 %"
b1000 )"
b1111 +"
b11010 *"
b0 :
b0 t
b0 C"
b1 S
b1 $"
b1 S"
b11101 4
b11101 M"
b11101 P"
b11101 U"
b11101 ^"
b11111110000000000000011011100011 ,
b11111110000000000000011011100011 :"
b11111110000000000000011011100011 @"
b101000 +
b101000 Z"
b101000 ["
b101000 /
b101000 o
b101000 Y"
b100000 B
b100000 n
b100000 <"
b111111010000010001100011 A
b111111010000010001100011 ="
b111111010000010001100011 >"
b1 Q
b1 h
b1 1"
1G
b11000 X
b11000 |
b11000 }
b11000 D"
b10000 W
b10000 u
b10000 {
0[
0Y
0V
b11011 =
b11011 ~
b11011 G"
b11011 ]"
b11101 ?
b11101 F"
b11101 L"
b10000 @
b10000 E"
b10000 K"
1>
b101000 )
b101000 l
b101000 X"
b100100 (
b100100 k
b100100 ;"
b100100 A"
b100100 \"
b1010 #
1!
#500
0!
#525
b11111111111111111111111111111111 ;
b11111111111111111111111111111111 b
b11111111111111111111111111111111 J"
1C
1.
b11111111111111111111111111111111 R
b11111111111111111111111111111111 y
b11111111111111111111111111111111 I"
b11111111111111111111111111111111 W"
b100 _
b100 a
b100 w
b100 e
b11111111111111111111111111101100 m
b0 2
b0 p
b0 /"
b0 a"
b0 3
b0 q
b0 0"
b0 b"
b1100000000010111000100011 ,
b1100000000010111000100011 :"
b1100000000010111000100011 @"
b10000 4
b10000 M"
b10000 P"
b10000 U"
b10000 ^"
b0 S
b0 $"
b0 S"
b11 T
b11 c
b11 R"
b100 *
b100 d
b100 i
b10000 +
b10000 Z"
b10000 ["
b11111111111111111111111111110110 -
b11111111111111111111111111110110 ."
b11111111111111111111111111110110 ?"
b0 `"
b0 _"
b0 &"
b0 %"
b1101 )"
b0 +"
b0 *"
b1111111 -"
b101100 )
b101100 l
b101100 X"
b101000 (
b101000 k
b101000 ;"
b101000 A"
b101000 \"
b11000 =
b11000 ~
b11000 G"
b11000 ]"
b0 ?
b0 F"
b0 L"
0>
0<
b11101 W
b11101 u
b11101 {
b11101 \
b11101 v
b11101 z
b11101 B"
b11101 Q"
b11101 V"
1V
b1000 L
b1000 x
b1000 '"
b1000 2"
b1111 I
b1111 !"
b1111 5"
b11010 K
b11010 ""
b11010 3"
b100 D
b100 9"
b100 H"
b11111111111111111111111111111111 H
b11111111111111111111111111111111 6"
b11111111111111111111111111111111 T"
b11 J
b11 4"
b11 O"
b11 Q
b11 h
b11 1"
0G
b10000 /
b10000 o
b10000 Y"
b100100 B
b100100 n
b100100 <"
b11111110000000000000011011100011 A
b11111110000000000000011011100011 ="
b11111110000000000000011011100011 >"
b1011 #
1!
#550
0!
#575
0C
b0 m
0]
b0 `
b0 s
b0 ("
b0 _
b0 a
b0 w
b0 e
b0 -
b0 ."
b0 ?"
b0 r
b0 )"
b0 -"
b0 ;
b0 b
b0 J"
b0 T
b0 c
b0 R"
b0 R
b0 y
b0 I"
b0 W"
b11101 4
b11101 M"
b11101 P"
b11101 U"
b11101 ^"
b11110011010000110010110011 ,
b11110011010000110010110011 :"
b11110011010000110010110011 @"
b10100 +
b10100 Z"
b10100 ["
b0 /
b0 o
b0 Y"
b0 B
b0 n
b0 <"
b0 A
b0 ="
b0 >"
b1101 L
b1101 x
b1101 '"
b1101 2"
b0 I
b0 !"
b0 5"
b0 K
b0 ""
b0 3"
b1111111 E
b1111111 f
b1111111 8"
b11111111111111111111111111110110 D
b11111111111111111111111111110110 9"
b11111111111111111111111111110110 H"
b0 H
b0 6"
b0 T"
b0 J
b0 4"
b0 O"
b1000 X
b1000 |
b1000 }
b1000 D"
b11111111111111111111111111111111 W
b11111111111111111111111111111111 u
b11111111111111111111111111111111 {
b100 \
b100 v
b100 z
b100 B"
b100 Q"
b100 V"
0V
b11101 @
b11101 E"
b11101 K"
1<
b10100 )
b10100 l
b10100 X"
b10000 (
b10000 k
b10000 ;"
b10000 A"
b10000 \"
b1100 #
b1 $
1!
#600
0!
#625
0.
b1111000 m
b100 2
b100 p
b100 /"
b100 a"
b11 3
b11 q
b11 0"
b11 b"
11
b1 `
b1 s
b1 ("
b11111111111111010000110100010011 ,
b11111111111111010000110100010011 :"
b11111111111111010000110100010011 @"
b100 4
b100 M"
b100 P"
b100 U"
b100 ^"
b11 *
b11 d
b11 i
b11000 +
b11000 Z"
b11000 ["
b111100 -
b111100 ."
b111100 ?"
b11100 `"
b11010 _"
b110011 r
b11100 &"
b11010 %"
b11001 )"
b11100 +"
b11010 *"
b1 -"
b11000 )
b11000 l
b11000 X"
b10100 (
b10100 k
b10100 ;"
b10100 A"
b10100 \"
b1000 =
b1000 ~
b1000 G"
b1000 ]"
b100 @
b100 E"
b100 K"
0<
b1101 X
b1101 |
b1101 }
b1101 D"
b0 W
b0 u
b0 {
b0 \
b0 v
b0 z
b0 B"
b0 Q"
b0 V"
b0 L
b0 x
b0 '"
b0 2"
b0 E
b0 f
b0 8"
b0 D
b0 9"
b0 H"
b0 Q
b0 h
b0 1"
b10001000 /
b10001000 o
b10001000 Y"
b10000 B
b10000 n
b10000 <"
b11110011010000110010110011 A
b11110011010000110010110011 ="
b11110011010000110010110011 >"
b1101 #
1!
#650
0!
