lab3/test/lab3/lab3/log/waveform_2.vcd
$date
	Sat Dec 23 06:21:10 2023
$end
$version
	Icarus Verilog
$end
$timescale
	1s
$end
$scope module TestBench $end
$var reg 1 ! Clk $end
$var reg 1 " Reset $end
$var integer 32 # counter [31:0] $end
$var integer 32 $ i [31:0] $end
$var integer 32 % outfile [31:0] $end
$scope module CPU $end
$var wire 1 ! clk_i $end
$var wire 1 " rst_i $end
$var wire 1 & zero $end
$var wire 1 ' taken $end
$var wire 1 ( take_branch $end
$var wire 2 ) state_reg [1:0] $end
$var wire 1 * right $end
$var wire 32 + pc_o [31:0] $end
$var wire 32 , pc_i [31:0] $end
$var wire 3 - operation [2:0] $end
$var wire 32 . muxPCResult2 [31:0] $end
$var wire 32 / muxPCResult [31:0] $end
$var wire 32 0 instr [31:0] $end
$var wire 32 1 immediate [31:0] $end
$var wire 32 2 branchAddr [31:0] $end
$var wire 1 3 Stall $end
$var wire 1 4 RegWrite $end
$var wire 32 5 RS2data [31:0] $end
$var wire 32 6 RS1data [31:0] $end
$var wire 32 7 RDdata [31:0] $end
$var wire 1 8 PCWrite $end
$var wire 1 9 NoOp $end
$var wire 1 : MemtoReg $end
$var wire 1 ; MemWrite $end
$var wire 1 < MemRead $end
$var wire 32 = MemData [31:0] $end
$var wire 32 > MUXResult [31:0] $end
$var wire 1 ? MEM_WB_RegWrite $end
$var wire 5 @ MEM_WB_RDaddr [4:0] $end
$var wire 1 A MEM_WB_MemtoReg $end
$var wire 32 B MEM_WB_MemData [31:0] $end
$var wire 32 C MEM_WB_ALUResult [31:0] $end
$var wire 32 D IF_ID_instr [31:0] $end
$var wire 32 E IF_ID_PC [31:0] $end
$var wire 1 F ID_FlushIF $end
$var wire 32 G ID_EX_immediate [31:0] $end
$var wire 7 H ID_EX_func7 [6:0] $end
$var wire 3 I ID_EX_func3 [2:0] $end
$var wire 32 J ID_EX_branchAddr [31:0] $end
$var wire 1 K ID_EX_RegWrite $end
$var wire 32 L ID_EX_RS2data [31:0] $end
$var wire 5 M ID_EX_RS2addr [4:0] $end
$var wire 32 N ID_EX_RS1data [31:0] $end
$var wire 5 O ID_EX_RS1addr [4:0] $end
$var wire 5 P ID_EX_RDaddr [4:0] $end
$var wire 32 Q ID_EX_PCAddr [31:0] $end
$var wire 1 R ID_EX_MemtoReg $end
$var wire 1 S ID_EX_MemWrite $end
$var wire 1 T ID_EX_MemRead $end
$var wire 1 U ID_EX_Branch $end
$var wire 1 V ID_EX_ALUSrc $end
$var wire 2 W ID_EX_ALUOp [1:0] $end
$var wire 32 X ForwardBData [31:0] $end
$var wire 2 Y ForwardB [1:0] $end
$var wire 32 Z ForwardAData [31:0] $end
$var wire 2 [ ForwardA [1:0] $end
$var wire 32 \ EX_PCAddr [31:0] $end
$var wire 1 ] EX_MEM_RegWrite $end
$var wire 32 ^ EX_MEM_RS2data [31:0] $end
$var wire 5 _ EX_MEM_RDaddr [4:0] $end
$var wire 1 ` EX_MEM_MemtoReg $end
$var wire 1 a EX_MEM_MemWrite $end
$var wire 1 b EX_MEM_MemRead $end
$var wire 32 c EX_MEM_ALUResult [31:0] $end
$var wire 1 d EX_FlushID_IF $end
$var wire 1 e Branch $end
$var wire 32 f AddrResult [31:0] $end
$var wire 1 g ALUSrc $end
$var wire 32 h ALUResult [31:0] $end
$var wire 2 i ALUOp [1:0] $end
$scope module ALU $end
$var wire 32 j data_o [31:0] $end
$var wire 32 k src2_i [31:0] $end
$var wire 32 l src1_i [31:0] $end
$var wire 3 m op_i [2:0] $end
$var reg 32 n tmpResult [31:0] $end
$var reg 1 & zero_o $end
$upscope $end
$scope module ALU_Control $end
$var wire 7 o funct7_i [31:25] $end
$var wire 3 p funct3_i [14:12] $end
$var wire 2 q ALUOp_i [1:0] $end
$var reg 3 r op_o [2:0] $end
$upscope $end
$scope module Add $end
$var wire 32 s src2_i [31:0] $end
$var wire 32 t src1_i [31:0] $end
$var wire 32 u adder_o [31:0] $end
$upscope $end
$scope module Add2 $end
$var wire 32 v src1_i [31:0] $end
$var wire 32 w src2_i [31:0] $end
$var wire 32 x adder_o [31:0] $end
$upscope $end
$scope module Add3 $end
$var wire 32 y src2_i [31:0] $end
$var wire 32 z src1_i [31:0] $end
$var wire 32 { adder_o [31:0] $end
$upscope $end
$scope module Branch_Detection $end
$var wire 1 ( predict_i $end
$var wire 1 e Branch_i $end
$var reg 1 F flush_o $end
$upscope $end
$scope module Control $end
$var wire 7 | opcode_i [6:0] $end
$var wire 1 9 NoOp_i $end
$var reg 2 } ALUOp_o [1:0] $end
$var reg 1 g ALUSrc_o $end
$var reg 1 e Branch_o $end
$var reg 1 < MemRead_o $end
$var reg 1 ; MemWrite_o $end
$var reg 1 : MemtoReg_o $end
$var reg 1 4 RegWrite_o $end
$upscope $end
$scope module Data_Memory $end
$var wire 1 ! clk_i $end
$var wire 32 ~ data_o [31:0] $end
$var wire 32 !" data_i [31:0] $end
$var wire 32 "" addr_i [31:0] $end
$var wire 1 a MemWrite_i $end
$var wire 1 b MemRead_i $end
$upscope $end
$scope module EX_MEM_Register $end
$var wire 32 #" ALUResult_i [31:0] $end
$var wire 1 ! clk_i $end
$var wire 1 " rst_i $end
$var wire 1 K RegWrite_i $end
$var wire 5 $" RDaddr_i [4:0] $end
$var wire 1 R MemtoReg_i $end
$var wire 1 S MemWrite_i $end
$var wire 1 T MemRead_i $end
$var wire 32 %" ForwardBData_i [31:0] $end
$var reg 32 &" ALUResult_o [31:0] $end
$var reg 32 '" ForwardBData_o [31:0] $end
$var reg 1 b MemRead_o $end
$var reg 1 a MemWrite_o $end
$var reg 1 ` MemtoReg_o $end
$var reg 5 (" RDaddr_o [4:0] $end
$var reg 1 ] RegWrite_o $end
$upscope $end
$scope module Forwarding $end
$var wire 5 )" EX_MEM_RDaddr_i [4:0] $end
$var wire 1 ] EX_MEM_RegWrite_i $end
$var wire 1 ? MEM_WB_RegWrite_i $end
$var wire 5 *" MEM_WB_RDaddr_i [4:0] $end
$var wire 5 +" ID_EX_RS2addr_i [4:0] $end
$var wire 5 ," ID_EX_RS1addr_i [4:0] $end
$var reg 2 -" ForwardA_o [1:0] $end
$var reg 2 ." ForwardB_o [1:0] $end
$upscope $end
$scope module Hazard_Detection $end
$var wire 5 /" RS1addr_i [4:0] $end
$var wire 5 0" RS2addr_i [4:0] $end
$var wire 1 " rst_i $end
$var wire 5 1" ID_EX_RDaddr_i [4:0] $end
$var wire 1 T ID_EX_MemRead_i $end
$var reg 1 9 NoOp_o $end
$var reg 1 8 PCWrite_o $end
$var reg 1 3 Stall_o $end
$upscope $end
$scope module ID_EX $end
$var wire 2 2" ALUOp_i [1:0] $end
$var wire 1 g ALUSrc_i $end
$var wire 32 3" BranchAddr_i [31:0] $end
$var wire 1 e Branch_i $end
$var wire 1 < MemRead_i $end
$var wire 1 ; MemWrite_i $end
$var wire 1 : MemtoReg_i $end
$var wire 5 4" RDaddr_i [4:0] $end
$var wire 5 5" RS1addr_i [4:0] $end
$var wire 5 6" RS2addr_i [4:0] $end
$var wire 1 4 RegWrite_i $end
$var wire 1 ! clk_i $end
$var wire 3 7" func3_i [2:0] $end
$var wire 7 8" func7_i [6:0] $end
$var wire 1 " rst_i $end
$var wire 1 F taken_i $end
$var wire 32 9" immediate_i [31:0] $end
$var wire 1 d flush_i $end
$var wire 32 :" RS2data_i [31:0] $end
$var wire 32 ;" RS1data_i [31:0] $end
$var wire 32 <" PCAddr_i [31:0] $end
$var reg 2 =" ALUOp_o [1:0] $end
$var reg 1 V ALUSrc_o $end
$var reg 32 >" BranchAddr_o [31:0] $end
$var reg 1 U Branch_o $end
$var reg 1 T MemRead_o $end
$var reg 1 S MemWrite_o $end
$var reg 1 R MemtoReg_o $end
$var reg 32 ?" PCAddr_o [31:0] $end
$var reg 5 @" RDaddr_o [4:0] $end
$var reg 5 A" RS1addr_o [4:0] $end
$var reg 32 B" RS1data_o [31:0] $end
$var reg 5 C" RS2addr_o [4:0] $end
$var reg 32 D" RS2data_o [31:0] $end
$var reg 1 K RegWrite_o $end
$var reg 3 E" func3_o [2:0] $end
$var reg 7 F" func7_o [6:0] $end
$var reg 32 G" immediate_o [31:0] $end
$var reg 1 ' taken_o $end
$upscope $end
$scope module IF_ID $end
$var wire 1 3 Stall_i $end
$var wire 1 ! clk_i $end
$var wire 1 H" flush_i $end
$var wire 1 " rst_i $end
$var wire 32 I" instr_i [31:0] $end
$var wire 32 J" PC_i [31:0] $end
$var reg 32 K" PC_o [31:0] $end
$var reg 32 L" instr_o [31:0] $end
$upscope $end
$scope module Imm_Gen $end
$var wire 32 M" instr_i [31:0] $end
$var reg 32 N" imm_o [31:0] $end
$upscope $end
$scope module Instruction_Memory $end
$var wire 32 O" instr_o [31:0] $end
$var wire 32 P" addr_i [31:0] $end
$upscope $end
$scope module MEM_WB_Register $end
$var wire 32 Q" ALUResult_i [31:0] $end
$var wire 32 R" MemData_i [31:0] $end
$var wire 1 ` MemtoReg_i $end
$var wire 5 S" RDaddr_i [4:0] $end
$var wire 1 ] RegWrite_i $end
$var wire 1 ! clk_i $end
$var wire 1 " rst_i $end
$var reg 32 T" ALUResult_o [31:0] $end
$var reg 32 U" MemData_o [31:0] $end
$var reg 1 A MemtoReg_o $end
$var reg 5 V" RDaddr_o [4:0] $end
$var reg 1 ? RegWrite_o $end
$upscope $end
$scope module MUX $end
$var wire 1 V sel $end
$var wire 32 W" src2_i [31:0] $end
$var wire 32 X" src1_i [31:0] $end
$var reg 32 Y" mux_o [31:0] $end
$upscope $end
$scope module MUX2 $end
$var wire 1 A sel $end
$var wire 32 Z" src1_i [31:0] $end
$var wire 32 [" src2_i [31:0] $end
$var reg 32 \" mux_o [31:0] $end
$upscope $end
$scope module MUX32_ForwardA $end
$var wire 2 ]" sel [1:0] $end
$var wire 32 ^" src1_i [31:0] $end
$var wire 32 _" src2_i [31:0] $end
$var wire 32 `" src3_i [31:0] $end
$var reg 32 a" mux_o [31:0] $end
$upscope $end
$scope module MUX32_ForwardB $end
$var wire 2 b" sel [1:0] $end
$var wire 32 c" src1_i [31:0] $end
$var wire 32 d" src2_i [31:0] $end
$var wire 32 e" src3_i [31:0] $end
$var reg 32 f" mux_o [31:0] $end
$upscope $end
$scope module MUX32_PC $end
$var wire 1 F sel $end
$var wire 32 g" src1_i [31:0] $end
$var wire 32 h" src2_i [31:0] $end
$var reg 32 i" mux_o [31:0] $end
$upscope $end
$scope module MUX32_PC2 $end
$var wire 32 j" src2_i [31:0] $end
$var wire 32 k" src1_i [31:0] $end
$var wire 1 * sel $end
$var reg 32 l" mux_o [31:0] $end
$upscope $end
$scope module PC $end
$var wire 1 8 PCWrite_i $end
$var wire 1 ! clk_i $end
$var wire 32 m" pc_i [31:0] $end
$var wire 1 " rst_i $end
$var reg 32 n" pc_o [31:0] $end
$upscope $end
$scope module Registers $end
$var wire 5 o" RDaddr_i [4:0] $end
$var wire 32 p" RDdata_i [31:0] $end
$var wire 5 q" RS1addr_i [4:0] $end
$var wire 5 r" RS2addr_i [4:0] $end
$var wire 1 ? RegWrite_i $end
$var wire 1 ! clk_i $end
$var wire 1 " rst_i $end
$var wire 32 s" RS2data_o [31:0] $end
$var wire 32 t" RS1data_o [31:0] $end
$var integer 32 u" i [31:0] $end
$upscope $end
$scope module branch_predictor $end
$var wire 32 v" BranchAddr_i [31:0] $end
$var wire 1 U Branch_i $end
$var wire 32 w" PCAddr_i [31:0] $end
$var wire 1 ! clk_i $end
$var wire 1 " rst_i $end
$var wire 1 ' taken_i $end
$var wire 1 & zero_i $end
$var wire 2 x" state_reg_i [1:0] $end
$var reg 32 y" AddrResult_o [31:0] $end
$var reg 1 d flush_o $end
$var reg 2 z" next_state [1:0] $end
$var reg 1 ( predict_o $end
$var reg 1 * right_o $end
$var reg 2 {" state_reg_o [1:0] $end
$upscope $end
$upscope $end
$upscope $end
$enddefinitions $end
#0
$dumpvars
bx {"
bx z"
bx y"
bx x"
bx w"
bx v"
bx u"
bx t"
bx s"
bx r"
bx q"
bx p"
bx o"
bx n"
bx m"
bx l"
bx k"
bx j"
bx i"
bx h"
bx g"
bx f"
bx e"
bx d"
bx c"
bx b"
bx a"
bx `"
bx _"
bx ^"
bx ]"
bx \"
bx ["
bx Z"
bx Y"
bx X"
bx W"
bx V"
bx U"
bx T"
bx S"
bx R"
bx Q"
bx P"
bx O"
bx N"
bx M"
bx L"
bx K"
bx J"
bx I"
0H"
bx G"
bx F"
bx E"
bx D"
bx C"
bx B"
bx A"
bx @"
bx ?"
bx >"
bx ="
bx <"
bx ;"
bx :"
bx 9"
bx 8"
bx 7"
bx 6"
bx 5"
bx 4"
bx 3"
b0 2"
bx 1"
bx 0"
bx /"
bx ."
bx -"
bx ,"
bx +"
bx *"
bx )"
bx ("
bx '"
bx &"
bx %"
bx $"
bx #"
bx ""
bx !"
bx ~
b0 }
bx |
bx {
bx z
b100 y
bx x
bx w
bx0 v
bx u
bx t
b100 s
bx r
bx q
bx p
bx o
bx n
bx m
bx l
bx k
bx j
b0 i
bx h
0g
bx f
0e
0d
bx c
xb
xa
x`
bx _
bx ^
x]
bx \
bx [
bx Z
bx Y
bx X
bx W
xV
xU
xT
xS
xR
bx Q
bx P
bx O
bx N
bx M
bx L
xK
bx J
bx I
bx H
bx G
0F
bx E
bx D
bx C
bx B
xA
bx @
x?
bx >
bx =
0<
0;
0:
09
18
bx 7
bx 6
bx 5
04
03
bx 2
bx 1
bx 0
bx /
bx .
bx -
bx ,
bx +
1*
bx )
x(
x'
x&
b11 %
b100000 $
b0 #
1"
0!
$end
#6
b0 2
b0 x
b0 3"
b0 h"
b0 v
1&
b0 h
b0 j
b0 #"
b0 n
b0 6
b0 ;"
b0 t"
b0 5
b0 :"
b0 s"
b100 .
b100 l"
b100 m"
b0 1
b0 9"
b0 N"
b0 r"
b0 q"
b0 |
b0 0"
b0 /"
b0 4"
b0 6"
b0 5"
b0 7"
b0 8"
b0 >
b0 k
b0 Y"
b11 -
b11 m
b11 r
b0 Z
b0 l
b0 a"
b0 X
b0 %"
b0 X"
b0 f"
b0 =
b0 ~
b0 R"
b0 7
b0 \"
b0 _"
b0 d"
b0 p"
b0 Y
b0 ."
b0 b"
b0 [
b0 -"
b0 ]"
b10100000000000100010011 0
b10100000000000100010011 I"
b10100000000000100010011 O"
b100 /
b100 i"
b100 j"
1(
b0 E
b0 w
b0 <"
b0 K"
b0 D
b0 L"
b0 M"
b100 \
b100 {
b100 w"
b0 Q
b0 z
b0 ?"
b0 J
b0 >"
b0 v"
0U
0'
b0 P
b0 $"
b0 1"
b0 @"
b0 M
b0 +"
b0 C"
b0 O
b0 ,"
b0 A"
b0 I
b0 p
b0 E"
b0 H
b0 o
b0 F"
b0 G
b0 G"
b0 W"
b0 L
b0 D"
b0 c"
b0 N
b0 B"
b0 ^"
0V
b0 W
b0 q
b0 ="
0S
0T
0R
0K
b0 _
b0 ("
b0 )"
b0 S"
b0 ^
b0 !"
b0 '"
b0 c
b0 ""
b0 &"
b0 Q"
b0 `"
b0 e"
0a
0b
0`
0]
b0 @
b0 *"
b0 V"
b0 o"
b0 B
b0 U"
b0 ["
b0 C
b0 T"
b0 Z"
0A
0?
b100 ,
b100 u
b100 g"
b0 +
b0 t
b0 J"
b0 P"
b0 n"
b11 )
b11 x"
b11 {"
b100000 u"
b11 z"
0"
#12
b0 f
b0 k"
b0 y"
1"
#25
b1000 .
b1000 l"
b1000 m"
b1010 2
b1010 x
b1010 3"
b1010 h"
b1010 v
14
1g
b100000000000010010011 0
b100000000000010010011 I"
b100000000000010010011 O"
b1000 /
b1000 i"
b1000 j"
b101 1
b101 9"
b101 N"
b101 r"
b10011 |
b101 0"
b10 4"
b101 6"
b1000 ,
b1000 u
b1000 g"
b100 +
b100 t
b100 J"
b100 P"
b100 n"
b10100000000000100010011 D
b10100000000000100010011 L"
b10100000000000100010011 M"
b1 #
1!
#50
0!
#75
b10 v
0&
b101 h
b101 j
b101 #"
b101 n
b1100 .
b1100 l"
b1100 m"
b1 1
b1 9"
b1 N"
b1 r"
b1 0"
b1 4"
b1 6"
b1010 f
b1010 k"
b1010 y"
b101 >
b101 k
b101 Y"
b10000000001000010001100011 0
b10000000001000010001100011 I"
b10000000001000010001100011 O"
b1100 /
b1100 i"
b1100 j"
b110 2
b110 x
b110 3"
b110 h"
b100 E
b100 w
b100 <"
b100 K"
b100000000000010010011 D
b100000000000010010011 L"
b100000000000010010011 M"
b1010 J
b1010 >"
b1010 v"
b10 P
b10 $"
b10 1"
b10 @"
b101 M
b101 +"
b101 C"
b101 G
b101 G"
b101 W"
1V
1K
b1100 ,
b1100 u
b1100 g"
b1000 +
b1000 t
b1000 J"
b1000 P"
b1000 n"
b10 #
1!
#100
0!
#125
1H"
1F
b1 h
b1 j
b1 #"
b1 n
b110000 .
b110000 l"
b110000 m"
b101000 v
1e
04
0g
b11 i
b11 }
b11 2"
b100001000000010010011 0
b100001000000010010011 I"
b100001000000010010011 O"
b110 f
b110 k"
b110 y"
b1 >
b1 k
b1 Y"
b110000 /
b110000 i"
b110000 j"
b10100 1
b10100 9"
b10100 N"
b0 r"
b1 q"
b1100011 |
b0 0"
b1 /"
b1000 4"
b0 6"
b1 5"
b1 8"
b10000 ,
b10000 u
b10000 g"
b1100 +
b1100 t
b1100 J"
b1100 P"
b1100 n"
b10 _
b10 ("
b10 )"
b10 S"
b101 c
b101 ""
b101 &"
b101 Q"
b101 `"
b101 e"
1]
b1000 \
b1000 {
b1000 w"
b100 Q
b100 z
b100 ?"
b110 J
b110 >"
b110 v"
b1 P
b1 $"
b1 1"
b1 @"
b1 M
b1 +"
b1 C"
b1 G
b1 G"
b1 W"
b110000 2
b110000 x
b110000 3"
b110000 h"
b1000 E
b1000 w
b1000 <"
b1000 K"
b10000000001000010001100011 D
b10000000001000010001100011 L"
b10000000001000010001100011 M"
b11 #
1!
#150
0!
#175
0F
b0 v
0e
b0 i
b0 }
b0 2"
b1100 .
b1100 l"
b1100 m"
b0 1
b0 9"
b0 N"
b0 q"
b0 |
b0 /"
b0 4"
b0 5"
b0 8"
b1100 f
b1100 k"
b1100 y"
1d
0*
b10 z"
b0 >
b0 k
b0 Y"
b100 -
b100 m
b100 r
b1 Z
b1 l
b1 a"
b101 7
b101 \"
b101 _"
b101 d"
b101 p"
b10 [
b10 -"
b10 ]"
b0 0
b0 I"
b0 O"
b110100 /
b110100 i"
b110100 j"
b0 2
b0 x
b0 3"
b0 h"
b0 E
b0 w
b0 <"
b0 K"
b0 D
b0 L"
b0 M"
b1100 \
b1100 {
b1100 w"
b1000 Q
b1000 z
b1000 ?"
b110000 J
b110000 >"
b110000 v"
1U
1'
b1000 P
b1000 $"
b1000 1"
b1000 @"
b0 M
b0 +"
b0 C"
b1 O
b1 ,"
b1 A"
b1 H
b1 o
b1 F"
b10100 G
b10100 G"
b10100 W"
0V
b11 W
b11 q
b11 ="
0K
b1 _
b1 ("
b1 )"
b1 S"
b1 c
b1 ""
b1 &"
b1 Q"
b1 `"
b1 e"
b10 @
b10 *"
b10 V"
b10 o"
b101 C
b101 T"
b101 Z"
1?
b110100 ,
b110100 u
b110100 g"
b110000 +
b110000 t
b110000 J"
b110000 P"
b110000 n"
b100 #
1!
#200
0!
#225
1&
b0 h
b0 j
b0 #"
b0 n
0H"
b10000 .
b10000 l"
b10000 m"
b0 Z
b0 l
b0 a"
b100001000000010010011 0
b100001000000010010011 I"
b100001000000010010011 O"
b10000 /
b10000 i"
b10000 j"
b1 7
b1 \"
b1 _"
b1 d"
b1 p"
b0 f
b0 k"
b0 y"
0d
1*
b0 [
b0 -"
b0 ]"
b11 -
b11 m
b11 r
b10000 ,
b10000 u
b10000 g"
b1100 +
b1100 t
b1100 J"
b1100 P"
b1100 n"
b1 @
b1 *"
b1 V"
b1 o"
b1 C
b1 T"
b1 Z"
b1000 _
b1000 ("
b1000 )"
b1000 S"
0]
b100 \
b100 {
b100 w"
b0 Q
b0 z
b0 ?"
b0 J
b0 >"
b0 v"
0U
0'
b0 P
b0 $"
b0 1"
b0 @"
b0 O
b0 ,"
b0 A"
b0 H
b0 o
b0 F"
b0 G
b0 G"
b0 W"
b0 W
b0 q
b0 ="
b10 z"
b101 #
b10 )
b10 x"
b10 {"
1!
#250
0!
#275
b10 v
b1 5
b1 :"
b1 s"
b1 6
b1 ;"
b1 t"
14
1g
b10100 .
b10100 l"
b10100 m"
b1 1
b1 9"
b1 N"
b1 r"
b1 q"
b10011 |
b1 0"
b1 /"
b1 4"
b1 6"
b1 5"
b1000001000100001100011 0
b1000001000100001100011 I"
b1000001000100001100011 O"
b10100 /
b10100 i"
b10100 j"
b1110 2
b1110 x
b1110 3"
b1110 h"
b1100 E
b1100 w
b1100 <"
b1100 K"
b100001000000010010011 D
b100001000000010010011 L"
b100001000000010010011 M"
b0 _
b0 ("
b0 )"
b0 S"
b0 c
b0 ""
b0 &"
b0 Q"
b0 `"
b0 e"
b1000 @
b1000 *"
b1000 V"
b1000 o"
0?
b10100 ,
b10100 u
b10100 g"
b10000 +
b10000 t
b10000 J"
b10000 P"
b10000 n"
b110 #
1!
#300
0!
#325
1H"
1F
0&
b10 h
b10 j
b10 #"
b10 n
b100000 .
b100000 l"
b100000 m"
b10000 v
b101 5
b101 :"
b101 s"
1e
04
0g
b11 i
b11 }
b11 2"
b11111110000000000000110011100011 0
b11111110000000000000110011100011 I"
b11111110000000000000110011100011 O"
b0 7
b0 \"
b0 _"
b0 d"
b0 p"
b1110 f
b1110 k"
b1110 y"
b1 X
b1 %"
b1 X"
b1 f"
b1 Z
b1 l
b1 a"
b1 >
b1 k
b1 Y"
b100000 /
b100000 i"
b100000 j"
b1000 1
b1000 9"
b1000 N"
b10 r"
b1100011 |
b10 0"
b10000 4"
b10 6"
b11000 ,
b11000 u
b11000 g"
b10100 +
b10100 t
b10100 J"
b10100 P"
b10100 n"
b0 @
b0 *"
b0 V"
b0 o"
b0 C
b0 T"
b0 Z"
b10000 \
b10000 {
b10000 w"
b1100 Q
b1100 z
b1100 ?"
b1110 J
b1110 >"
b1110 v"
b1 P
b1 $"
b1 1"
b1 @"
b1 M
b1 +"
b1 C"
b1 O
b1 ,"
b1 A"
b1 G
b1 G"
b1 W"
b1 L
b1 D"
b1 c"
b1 N
b1 B"
b1 ^"
1V
1K
b100000 2
b100000 x
b100000 3"
b100000 h"
b10000 E
b10000 w
b10000 <"
b10000 K"
b1000001000100001100011 D
b1000001000100001100011 L"
b1000001000100001100011 M"
b111 #
1!
#350
0!
#375
0F
b0 v
b0 5
b0 :"
b0 s"
b0 6
b0 ;"
b0 t"
0e
b0 i
b0 }
b0 2"
b11111111111111111111111111111101 h
b11111111111111111111111111111101 j
b11111111111111111111111111111101 #"
b11111111111111111111111111111101 n
b10100 .
b10100 l"
b10100 m"
b0 1
b0 9"
b0 N"
b0 r"
b0 q"
b0 |
b0 0"
b0 /"
b0 4"
b0 6"
b0 5"
b10100 f
b10100 k"
b10100 y"
1d
0*
b1 z"
b101 >
b101 k
b101 Y"
b100 -
b100 m
b100 r
b10 Z
b10 l
b10 a"
b101 X
b101 %"
b101 X"
b101 f"
b10 [
b10 -"
b10 ]"
b11111110000000001000111011100011 0
b11111110000000001000111011100011 I"
b11111110000000001000111011100011 O"
b100100 /
b100100 i"
b100100 j"
b0 2
b0 x
b0 3"
b0 h"
b0 E
b0 w
b0 <"
b0 K"
b0 D
b0 L"
b0 M"
b10100 \
b10100 {
b10100 w"
b10000 Q
b10000 z
b10000 ?"
b100000 J
b100000 >"
b100000 v"
1U
1'
b10000 P
b10000 $"
b10000 1"
b10000 @"
b10 M
b10 +"
b10 C"
b1000 G
b1000 G"
b1000 W"
b101 L
b101 D"
b101 c"
0V
b11 W
b11 q
b11 ="
0K
b1 _
b1 ("
b1 )"
b1 S"
b1 ^
b1 !"
b1 '"
b10 c
b10 ""
b10 &"
b10 Q"
b10 `"
b10 e"
1]
b100100 ,
b100100 u
b100100 g"
b100000 +
b100000 t
b100000 J"
b100000 P"
b100000 n"
b1000 #
1!
#400
0!
#425
1&
b0 h
b0 j
b0 #"
b0 n
0H"
b11000 .
b11000 l"
b11000 m"
b11111110000000000000110011100011 0
b11111110000000000000110011100011 I"
b11111110000000000000110011100011 O"
b11000 /
b11000 i"
b11000 j"
b10 7
b10 \"
b10 _"
b10 d"
b10 p"
b0 f
b0 k"
b0 y"
0d
1*
b0 [
b0 -"
b0 ]"
b0 >
b0 k
b0 Y"
b0 X
b0 %"
b0 X"
b0 f"
b0 Z
b0 l
b0 a"
b11 -
b11 m
b11 r
b11000 ,
b11000 u
b11000 g"
b10100 +
b10100 t
b10100 J"
b10100 P"
b10100 n"
b1 @
b1 *"
b1 V"
b1 o"
b10 C
b10 T"
b10 Z"
1?
b10000 _
b10000 ("
b10000 )"
b10000 S"
b101 ^
b101 !"
b101 '"
b11111111111111111111111111111101 c
b11111111111111111111111111111101 ""
b11111111111111111111111111111101 &"
b11111111111111111111111111111101 Q"
b11111111111111111111111111111101 `"
b11111111111111111111111111111101 e"
0]
b100 \
b100 {
b100 w"
b0 Q
b0 z
b0 ?"
b0 J
b0 >"
b0 v"
0U
0'
b0 P
b0 $"
b0 1"
b0 @"
b0 M
b0 +"
b0 C"
b0 O
b0 ,"
b0 A"
b0 G
b0 G"
b0 W"
b0 L
b0 D"
b0 c"
b0 N
b0 B"
b0 ^"
b0 W
b0 q
b0 ="
0(
b1 z"
b1001 #
b1 )
b1 x"
b1 {"
1!
#450
0!
#475
b11111111111111111111111111111000 v
1e
b11 i
b11 }
b11 2"
b11100 .
b11100 l"
b11100 m"
b11111111111111111111111111111100 1
b11111111111111111111111111111100 9"
b11111111111111111111111111111100 N"
b1100011 |
b11001 4"
b1111111 8"
b11111111111111111111111111111101 7
b11111111111111111111111111111101 \"
b11111111111111111111111111111101 _"
b11111111111111111111111111111101 d"
b11111111111111111111111111111101 p"
b10011 0
b10011 I"
b10011 O"
b11100 /
b11100 i"
b11100 j"
b1100 2
b1100 x
b1100 3"
b1100 h"
b10100 E
b10100 w
b10100 <"
b10100 K"
b11111110000000000000110011100011 D
b11111110000000000000110011100011 L"
b11111110000000000000110011100011 M"
b0 _
b0 ("
b0 )"
b0 S"
b0 ^
b0 !"
b0 '"
b0 c
b0 ""
b0 &"
b0 Q"
b0 `"
b0 e"
b10000 @
b10000 *"
b10000 V"
b10000 o"
b11111111111111111111111111111101 C
b11111111111111111111111111111101 T"
b11111111111111111111111111111101 Z"
0?
b11100 ,
b11100 u
b11100 g"
b11000 +
b11000 t
b11000 J"
b11000 P"
b11000 n"
b1010 #
1!
#500
0!
#525
1H"
b1100 .
b1100 l"
b1100 m"
b0 v
0e
14
1g
b0 i
b0 }
b0 2"
b0 7
b0 \"
b0 _"
b0 d"
b0 p"
b1100 f
b1100 k"
b1100 y"
1d
0*
b10 z"
b100 -
b100 m
b100 r
b100000 /
b100000 i"
b100000 j"
b0 1
b0 9"
b0 N"
b10011 |
b0 4"
b0 8"
b100000 ,
b100000 u
b100000 g"
b11100 +
b11100 t
b11100 J"
b11100 P"
b11100 n"
b0 @
b0 *"
b0 V"
b0 o"
b0 C
b0 T"
b0 Z"
b11000 \
b11000 {
b11000 w"
b10100 Q
b10100 z
b10100 ?"
b1100 J
b1100 >"
b1100 v"
1U
b11001 P
b11001 $"
b11001 1"
b11001 @"
b1111111 H
b1111111 o
b1111111 F"
b11111111111111111111111111111100 G
b11111111111111111111111111111100 G"
b11111111111111111111111111111100 W"
b11 W
b11 q
b11 ="
b11000 2
b11000 x
b11000 3"
b11000 h"
b11000 E
b11000 w
b11000 <"
b11000 K"
b10011 D
b10011 L"
b10011 M"
b1011 #
1!
#550
0!
#575
04
0g
0H"
b10000 .
b10000 l"
b10000 m"
b0 |
b0 f
b0 k"
b0 y"
0d
1*
b11 -
b11 m
b11 r
b100001000000010010011 0
b100001000000010010011 I"
b100001000000010010011 O"
b10000 /
b10000 i"
b10000 j"
1(
b0 2
b0 x
b0 3"
b0 h"
b0 E
b0 w
b0 <"
b0 K"
b0 D
b0 L"
b0 M"
b100 \
b100 {
b100 w"
b0 Q
b0 z
b0 ?"
b0 J
b0 >"
b0 v"
0U
b0 P
b0 $"
b0 1"
b0 @"
b0 H
b0 o
b0 F"
b0 G
b0 G"
b0 W"
b0 W
b0 q
b0 ="
b11001 _
b11001 ("
b11001 )"
b11001 S"
b10000 ,
b10000 u
b10000 g"
b1100 +
b1100 t
b1100 J"
b1100 P"
b1100 n"
b10 z"
b1100 #
b10 )
b10 x"
b10 {"
1!
#600
0!
#625
b10100 .
b10100 l"
b10100 m"
b10 v
b10 5
b10 :"
b10 s"
b10 6
b10 ;"
b10 t"
14
1g
b1000001000100001100011 0
b1000001000100001100011 I"
b1000001000100001100011 O"
b10100 /
b10100 i"
b10100 j"
b1 1
b1 9"
b1 N"
b1 r"
b1 q"
b10011 |
b1 0"
b1 /"
b1 4"
b1 6"
b1 5"
b10100 ,
b10100 u
b10100 g"
b10000 +
b10000 t
b10000 J"
b10000 P"
b10000 n"
b11001 @
b11001 *"
b11001 V"
b11001 o"
b0 _
b0 ("
b0 )"
b0 S"
b1110 2
b1110 x
b1110 3"
b1110 h"
b1100 E
b1100 w
b1100 <"
b1100 K"
b100001000000010010011 D
b100001000000010010011 L"
b100001000000010010011 M"
b1101 #
1!
#650
0!
